﻿<?xml version="1.0" encoding="utf-8"?>
<!DOCTYPE svg PUBLIC "-//W3C//DTD SVG 1.0//EN" "http://www.w3.org/TR/2001/REC-SVG-20010904/DTD/svg10.dtd"[
	<!ENTITY ns_flows "http://ns.adobe.com/Flows/1.0/">
	<!ENTITY ns_svg "http://www.w3.org/2000/svg">
	<!ENTITY ns_xlink "http://www.w3.org/1999/xlink">
	<!ENTITY st0 "font-size:7px;font-family:'MS-PGothic';adobe-font-script:japanese;">
	<!ENTITY st1 "font-size:6px;font-family:'ArialMT';">
	<!-- White fill  -->
	<!ENTITY st2 "fill:#FFFFFF;stroke:#000000; stroke-width:1.41;stroke-linecap:round;stroke-linejoin:round;">
	<!-- Yellow fill  -->
	<!ENTITY st3 "fill:#FFFFCC;stroke:#FFFFCC; stroke-width:0.1;stroke-linecap:round;stroke-linejoin:round;">
	<!-- Gray fill  -->
	<!ENTITY st4 "fill:#CCCCCC;stroke:#CCCCCC; stroke-width:0.1;stroke-linecap:round;stroke-linejoin:round;">
	<!-- Light-blue fill -->
	<!ENTITY st5 "fill:#CCECF4;stroke:#000000; stroke-width:1.133;stroke-linecap:round;stroke-linejoin:round;">
	<!ENTITY st6 "fill:none;stroke-linecap:butt; stroke-linejoin:round;">
	<!ENTITY st7 "fill:none;stroke:#000000;stroke-linecap:round;stroke-linejoin:round;">
	<!ENTITY st8 "enable-background:new    ;">
	<!-- Black fill -->
	<!ENTITY st9 "fill:#000000;stroke:#000000; stroke-linecap:round;stroke-linejoin:round;">
	<!-- SRS note   -->
	<!ENTITY st10 "font-size:9px;font-family:'ArialMT';">
	<!ENTITY st11 "font-size:9px;font-family:'Svg Symbol';">
	<!ENTITY st12 "font-size:6px;font-family:'Svg Symbol';">
	<!ENTITY st13 "fill:none;stroke:#ff0000;stroke-linecap:round;stroke-linejoin:round;">
	<!-- Yellow fill  -->
	<!ENTITY st14 "fill:#FFFF00;stroke:#FFFF00; stroke-width:0.1;stroke-linecap:round;stroke-linejoin:round;">
	<!ENTITY st15 "font-size:6px;font-family:'MS-PGothic';adobe-font-script:japanese;">
	<!ENTITY st16 "1.00 0.00 0.00 1.00">
	<!ENTITY st17 "0.00 -1.00 1.00 0.00">
	<!ENTITY st18 "font-size:6px;font-family:'Arial';">
	<!ENTITY st19 "font-size:9px;font-family:'Arial';">
	<!ENTITY st20 "font-size:6px;font-family:'MS-PGothic','MS PGothic';adobe-font-script:japanese;">
	<!ENTITY st21 "font-size:7px;font-family:'MS-PGothic','MS PGothic';adobe-font-script:japanese;">
	<!ATTLIST svg
		xmlns:ewd CDATA #FIXED "http://shcl.co.jp/ewd"
		xmlns:a CDATA #FIXED "http://ns.adobe.com/AdobeSVGViewerExtensions/3.0/"
		ewd:ver CDATA #IMPLIED
	>
	<!ATTLIST a
		ewd:lineID CDATA #IMPLIED
		ewd:groupID CDATA #IMPLIED
		ewd:figtype CDATA #IMPLIED
		ewd:code CDATA #IMPLIED
		ewd:figID CDATA #IMPLIED
		ewd:pinNo CDATA #IMPLIED
		ewd:comment CDATA #IMPLIED >
	<!ATTLIST g
		ewd:lineID CDATA #IMPLIED
		ewd:groupID CDATA #IMPLIED
		ewd:figtype CDATA #IMPLIED
		ewd:code CDATA #IMPLIED
		ewd:figID CDATA #IMPLIED
		ewd:pinNo CDATA #IMPLIED
		ewd:comment CDATA #IMPLIED >
	<!ATTLIST text
		ewd:textID CDATA #IMPLIED >
	<!ATTLIST title
		ewd:textID CDATA #IMPLIED >
]>
<!-- Generator: Shintec Hozumi YS   -->
<svg onload="call_execInitLoadProc_svg('system')" style="overflow:visible;  enable-background:new 0 0 3111.005 710.000" viewBox="0 0 3111.005 710.000" height="710.000" width="3111.005" xml:space="preserve" ewd:ver="L2.1.2.7" xmlns="&ns_svg;" xmlns:a="http://ns.adobe.com/AdobeSVGViewerExtensions/3.0/" xmlns:ewd="http://shcl.co.jp/ewd" xmlns:xlink="&ns_xlink;">
<path d=" M 1851.57,  297.29  L 1858.93,  293.04 " style="stroke-width: 0.85 ;&st7; " /><path d=" M 1856.93,  289.57  L 1849.56,  293.82 " style="stroke-width: 0.85 ;&st7; " /><path d=" M 1848.44,  299.24  L 1839.94,  299.24 " style="stroke-width: 0.85 ;&st7; " /><path d=" M 1669.97,  256.74  L 1661.47,  256.74 " style="stroke-width: 0.85 ;&st7; " /><path d=" M 1673.10,  254.80  L 1680.46,  250.55 " style="stroke-width: 0.85 ;&st7; " /><path d=" M 1533.99,  256.74  L 1525.50,  256.74 " style="stroke-width: 0.85 ;&st7; " /><path d=" M 1537.12,  254.80  L 1544.48,  250.55 " style="stroke-width: 0.85 ;&st7; " /><path d=" M 1844.19,  137.76  L 1839.13,  126.40 " style="stroke-width: 1.42 ;&st7; " /><path d=" M 1844.19,  137.76  L 1849.25,  126.40 " style="stroke-width: 1.42 ;&st7; " /><path d=" M 1749.59,  229.30  L 1756.95,  225.05 " style="stroke-width: 0.85 ;&st7; " /><path d=" M 1754.94,  221.58  L 1747.58,  225.83 " style="stroke-width: 0.85 ;&st7; " /><path d=" M 1746.46,  231.25  L 1737.96,  231.25 " style="stroke-width: 0.85 ;&st7; " /><path d=" M 1916.43,  341.73  L 1907.93,  341.73 " style="stroke-width: 0.85 ;&st7; " /><path d=" M 1919.56,  297.29  L 1926.92,  293.04 " style="stroke-width: 0.85 ;&st7; " /><path d=" M 1924.91,  289.57  L 1917.55,  293.82 " style="stroke-width: 0.85 ;&st7; " /><path d=" M 1916.43,  299.24  L 1907.93,  299.24 " style="stroke-width: 0.85 ;&st7; " /><path d=" M 1912.18,  469.21  L 1907.12,  457.84 " style="stroke-width: 1.42 ;&st7; " /><path d=" M 1912.18,  469.21  L 1917.24,  457.84 " style="stroke-width: 1.42 ;&st7; " /><path d=" M 1657.22,  520.20  L 1652.16,  508.84 " style="stroke-width: 1.42 ;&st7; " /><path d=" M 1657.22,  520.20  L 1662.28,  508.84 " style="stroke-width: 1.42 ;&st7; " /><path d=" M 1529.74,  494.70  L 1534.80,  506.07 " style="stroke-width: 1.42 ;&st7; " /><path d=" M 1529.74,  494.70  L 1524.68,  506.07 " style="stroke-width: 1.42 ;&st7; " /><path d=" M 1712.45,  230.08  L 1705.09,  234.33 " style="stroke-width: 0.85 ;&st7; " /><path d=" M 1703.97,  239.75  L 1695.47,  239.75 " style="stroke-width: 0.85 ;&st7; " /><path d=" M 1707.09,  237.80  L 1714.45,  233.55 " style="stroke-width: 0.85 ;&st7; " /><path d=" M 1788.95,  307.73  L 1797.45,  307.73 " style="stroke-width: 0.85 ;&st7; " /><path d=" M 1962.05,  280.29  L 1969.41,  276.04 " style="stroke-width: 0.85 ;&st7; " /><path d=" M 1967.41,  272.58  L 1960.04,  276.82 " style="stroke-width: 0.85 ;&st7; " /><path d=" M 1958.92,  282.24  L 1950.42,  282.24 " style="stroke-width: 0.85 ;&st7; " /><path d=" M 1992.92,  299.24  L 1984.42,  299.24 " style="stroke-width: 0.85 ;&st7; " /><path d=" M 2001.40,  289.57  L 1994.04,  293.82 " style="stroke-width: 0.85 ;&st7; " /><path d=" M 1996.04,  297.29  L 2003.40,  293.04 " style="stroke-width: 0.85 ;&st7; " /><path d=" M 1954.67,  511.70  L 1959.73,  500.34 " style="stroke-width: 1.42 ;&st7; " /><path d=" M 1954.67,  511.70  L 1949.61,  500.34 " style="stroke-width: 1.42 ;&st7; " /><path d=" M 1988.67,  511.70  L 1993.73,  500.34 " style="stroke-width: 1.42 ;&st7; " /><path d=" M 1988.67,  511.70  L 1983.61,  500.34 " style="stroke-width: 1.42 ;&st7; " /><path d=" M 1503.13,  254.80  L 1510.49,  250.55 " style="stroke-width: 0.85 ;&st7; " /><path d=" M 1508.48,  247.08  L 1501.12,  251.33 " style="stroke-width: 0.85 ;&st7; " /><path d=" M 1716.71,  494.70  L 1725.21,  494.70 " style="stroke-width: 1.42 ;&st7; " /><path d=" M 1885.56,  297.29  L 1892.92,  293.04 " style="stroke-width: 0.85 ;&st7; " /><path d=" M 1890.92,  289.57  L 1883.56,  293.82 " style="stroke-width: 0.85 ;&st7; " /><path d=" M 1882.44,  299.24  L 1873.94,  299.24 " style="stroke-width: 0.85 ;&st7; " /><path d=" M 1878.19,  469.21  L 1873.13,  457.84 " style="stroke-width: 1.42 ;&st7; " /><path d=" M 1878.19,  469.21  L 1883.25,  457.84 " style="stroke-width: 1.42 ;&st7; " /><path d=" M 1635.96,  247.08  L 1628.60,  251.33 " style="stroke-width: 0.85 ;&st7; " /><path d=" M 1627.48,  256.74  L 1618.98,  256.74 " style="stroke-width: 0.85 ;&st7; " /><path d=" M 1630.61,  254.80  L 1637.97,  250.55 " style="stroke-width: 0.85 ;&st7; " /><path d=" M 1601.97,  247.08  L 1594.61,  251.33 " style="stroke-width: 0.85 ;&st7; " /><path d=" M 1593.48,  256.74  L 1584.99,  256.74 " style="stroke-width: 0.85 ;&st7; " /><path d=" M 1596.61,  254.80  L 1603.97,  250.55 " style="stroke-width: 0.85 ;&st7; " /><path d=" M 1542.48,  247.08  L 1535.12,  251.33 " style="stroke-width: 0.85 ;&st7; " /><path d=" M 1678.46,  247.08  L 1671.09,  251.33 " style="stroke-width: 0.85 ;&st7; " /><path d=" M 1603.97,  250.55  L 1601.64,  253.59  L 1600.17,  251.05  L 1603.97,  250.55  L 1602.69,  251.29  L 1601.70,  252.57  L 1601.08,  251.50  L 1602.69,  251.29  L 1602.05,  251.66  L 1601.74,  252.06  L 1601.54,  251.73  L 1602.05,  251.66 " style="stroke-width: 0.85 ;&st7; " /><path d=" M 1589.23,  256.74  L 1583.57,  248.24  L 1594.90,  248.24  L 1589.23,  256.74 " style="stroke-width: 0.28 ;&st9;" /><path d=" M 1601.97,  247.08  L 1599.63,  250.12  L 1598.17,  247.58  L 1601.97,  247.08  L 1600.68,  247.82  L 1599.70,  249.10  L 1599.08,  248.03  L 1600.68,  247.82  L 1600.04,  248.19  L 1599.73,  248.59  L 1599.54,  248.26  L 1600.04,  248.19 " style="stroke-width: 0.85 ;&st7; " /><path d=" M 1589.23,  205.75  L 1589.23,  307.73 " style="stroke-width: 0.85 ;&st7; " /><path d=" M 1843.00,  383.22  L 1842.73,  383.69  L 1842.63,  384.22  L 1842.73,  384.75  L 1843.00,  385.22  L 1843.41,  385.57  L 1843.92,  385.76  L 1844.46,  385.76  L 1844.97,  385.57  L 1845.38,  385.22  L 1845.66,  384.75  L 1845.75,  384.22  L 1845.66,  383.69  L 1845.38,  383.22  L 1844.97,  382.87  L 1844.46,  382.69  L 1843.92,  382.69  L 1843.41,  382.87  L 1843.00,  383.22  L 1843.39,  383.93  L 1843.39,  384.51  L 1843.77,  384.96  L 1844.34,  385.06  L 1844.84,  384.77  L 1845.04,  384.22  L 1844.84,  383.67  L 1844.34,  383.39  L 1843.77,  383.48  L 1844.19,  384.22 " style="stroke-width: 0.85 ;&st7; " /><path d=" M 1588.04,  204.75  L 1587.77,  205.22  L 1587.68,  205.75  L 1587.77,  206.28  L 1588.04,  206.75  L 1588.45,  207.10  L 1588.96,  207.29  L 1589.51,  207.29  L 1590.01,  207.10  L 1590.43,  206.75  L 1590.70,  206.28  L 1590.79,  205.75  L 1590.70,  205.22  L 1590.43,  204.75  L 1590.01,  204.40  L 1589.51,  204.22  L 1588.96,  204.22  L 1588.45,  204.40  L 1588.04,  204.75  L 1588.43,  205.46  L 1588.43,  206.04  L 1588.81,  206.49  L 1589.38,  206.59  L 1589.89,  206.30  L 1590.08,  205.75  L 1589.89,  205.20  L 1589.38,  204.92  L 1588.81,  205.01  L 1589.23,  205.75 " style="stroke-width: 0.85 ;&st7; " /><path d=" M 1622.04,  204.75  L 1621.76,  205.22  L 1621.67,  205.75  L 1621.76,  206.28  L 1622.04,  206.75  L 1622.45,  207.10  L 1622.96,  207.29  L 1623.50,  207.29  L 1624.01,  207.10  L 1624.42,  206.75  L 1624.69,  206.28  L 1624.79,  205.75  L 1624.69,  205.22  L 1624.42,  204.75  L 1624.01,  204.40  L 1623.50,  204.22  L 1622.96,  204.22  L 1622.45,  204.40  L 1622.04,  204.75  L 1622.43,  205.46  L 1622.43,  206.04  L 1622.80,  206.49  L 1623.38,  206.59  L 1623.88,  206.30  L 1624.08,  205.75  L 1623.88,  205.20  L 1623.38,  204.92  L 1622.80,  205.01  L 1623.23,  205.75 " style="stroke-width: 0.85 ;&st7; " /><path d=" M 1910.99,  204.75  L 1910.72,  205.22  L 1910.62,  205.75  L 1910.72,  206.28  L 1910.99,  206.75  L 1911.40,  207.10  L 1911.91,  207.29  L 1912.45,  207.29  L 1912.96,  207.10  L 1913.37,  206.75  L 1913.64,  206.28  L 1913.74,  205.75  L 1913.64,  205.22  L 1913.37,  204.75  L 1912.96,  204.40  L 1912.45,  204.22  L 1911.91,  204.22  L 1911.40,  204.40  L 1910.99,  204.75  L 1911.38,  205.46  L 1911.38,  206.04  L 1911.75,  206.49  L 1912.33,  206.59  L 1912.83,  206.30  L 1913.03,  205.75  L 1912.83,  205.20  L 1912.33,  204.92  L 1911.75,  205.01  L 1912.18,  205.75 " style="stroke-width: 0.85 ;&st7; " /><path d=" M 1843.00,  255.74  L 1842.73,  256.21  L 1842.63,  256.74  L 1842.73,  257.28  L 1843.00,  257.75  L 1843.41,  258.09  L 1843.92,  258.28  L 1844.46,  258.28  L 1844.97,  258.09  L 1845.38,  257.75  L 1845.66,  257.28  L 1845.75,  256.74  L 1845.66,  256.21  L 1845.38,  255.74  L 1844.97,  255.39  L 1844.46,  255.21  L 1843.92,  255.21  L 1843.41,  255.39  L 1843.00,  255.74  L 1843.39,  256.45  L 1843.39,  257.03  L 1843.77,  257.48  L 1844.34,  257.58  L 1844.84,  257.29  L 1845.04,  256.74  L 1844.84,  256.20  L 1844.34,  255.91  L 1843.77,  256.01  L 1844.19,  256.74 " style="stroke-width: 0.85 ;&st7; " /><path d=" M 1741.02,  272.74  L 1740.74,  273.21  L 1740.65,  273.74  L 1740.74,  274.27  L 1741.02,  274.74  L 1741.43,  275.09  L 1741.94,  275.28  L 1742.48,  275.28  L 1742.99,  275.09  L 1743.40,  274.74  L 1743.67,  274.27  L 1743.77,  273.74  L 1743.67,  273.21  L 1743.40,  272.74  L 1742.99,  272.39  L 1742.48,  272.20  L 1741.94,  272.20  L 1741.43,  272.39  L 1741.02,  272.74  L 1741.41,  273.45  L 1741.41,  274.03  L 1741.78,  274.48  L 1742.36,  274.58  L 1742.86,  274.29  L 1743.06,  273.74  L 1742.86,  273.19  L 1742.36,  272.90  L 1741.78,  273.00  L 1742.21,  273.74 " style="stroke-width: 0.85 ;&st7; " /><path d=" M 1758.01,  383.22  L 1757.74,  383.69  L 1757.65,  384.22  L 1757.74,  384.75  L 1758.01,  385.22  L 1758.43,  385.57  L 1758.93,  385.76  L 1759.48,  385.76  L 1759.98,  385.57  L 1760.40,  385.22  L 1760.67,  384.75  L 1760.76,  384.22  L 1760.67,  383.69  L 1760.40,  383.22  L 1759.98,  382.87  L 1759.48,  382.69  L 1758.93,  382.69  L 1758.43,  382.87  L 1758.01,  383.22  L 1758.41,  383.93  L 1758.41,  384.51  L 1758.78,  384.96  L 1759.35,  385.06  L 1759.86,  384.77  L 1760.06,  384.22  L 1759.86,  383.67  L 1759.35,  383.39  L 1758.78,  383.48  L 1759.21,  384.22 " style="stroke-width: 0.85 ;&st7; " /><path d=" M 1844.19,  384.22  L 2821.53,  384.22 " style="stroke-width: 0.85 ;&st7; " /><path d=" M 1680.46,  250.55  L 1678.12,  253.59  L 1676.66,  251.05  L 1680.46,  250.55  L 1679.17,  251.29  L 1678.19,  252.57  L 1677.57,  251.50  L 1679.17,  251.29  L 1678.53,  251.66  L 1678.22,  252.06  L 1678.03,  251.73  L 1678.53,  251.66 " style="stroke-width: 0.85 ;&st7; " /><path d=" M 1665.72,  256.74  L 1660.06,  248.24  L 1671.39,  248.24  L 1665.72,  256.74 " style="stroke-width: 0.28 ;&st9;" /><path d=" M 1678.45,  247.08  L 1676.12,  250.12  L 1674.65,  247.58  L 1678.45,  247.08  L 1677.17,  247.82  L 1676.19,  249.10  L 1675.57,  248.03  L 1677.17,  247.82  L 1676.53,  248.19  L 1676.22,  248.59  L 1676.02,  248.26  L 1676.53,  248.19 " style="stroke-width: 0.85 ;&st7; " /><path d=" M 1844.19,  256.74  L 1759.21,  256.74  L 1759.21,  307.73 " style="stroke-width: 0.85 ;&st7; " /><path d=" M 1544.48,  250.55  L 1542.15,  253.59  L 1540.68,  251.05  L 1544.48,  250.55  L 1543.20,  251.29  L 1542.21,  252.57  L 1541.59,  251.50  L 1543.20,  251.29  L 1542.56,  251.66  L 1542.25,  252.06  L 1542.05,  251.73  L 1542.56,  251.66 " style="stroke-width: 0.85 ;&st7; " /><path d=" M 1529.74,  256.74  L 1524.08,  248.24  L 1535.41,  248.24  L 1529.74,  256.74 " style="stroke-width: 0.28 ;&st9;" /><path d=" M 1542.48,  247.08  L 1540.14,  250.12  L 1538.68,  247.58  L 1542.48,  247.08  L 1541.19,  247.82  L 1540.21,  249.10  L 1539.59,  248.03  L 1541.19,  247.82  L 1540.55,  248.19  L 1540.24,  248.59  L 1540.05,  248.26  L 1540.55,  248.19 " style="stroke-width: 0.85 ;&st7; " /><path d=" M 1665.72,  205.75  L 1665.72,  307.73 " style="stroke-width: 0.85 ;&st7; " /><path d=" M 1844.19,  384.22  L 1844.19,  401.22 " style="stroke-width: 0.85 ;&st7; " /><path d=" M 1844.19,  256.74  L 1844.19,  384.22 " style="stroke-width: 0.85 ;&st7; " /><path d=" M 1844.19,  188.75  L 1844.19,  256.74 " style="stroke-width: 0.85 ;&st7; " /><path d=" M 1725.21,  401.22  L 1725.21,  324.73 " style="stroke-width: 0.85 ;&st7; " /><path d=" M 1858.93,  293.04  L 1856.59,  296.08  L 1855.13,  293.54  L 1858.93,  293.04  L 1857.64,  293.78  L 1856.66,  295.06  L 1856.04,  293.99  L 1857.64,  293.78  L 1857.00,  294.15  L 1856.69,  294.56  L 1856.50,  294.22  L 1857.00,  294.15 " style="stroke-width: 0.85 ;&st7; " /><path d=" M 1856.92,  289.57  L 1854.59,  292.61  L 1853.12,  290.07  L 1856.92,  289.57  L 1855.64,  290.31  L 1854.66,  291.60  L 1854.04,  290.52  L 1855.64,  290.31  L 1855.00,  290.68  L 1854.69,  291.09  L 1854.49,  290.75  L 1855.00,  290.68 " style="stroke-width: 0.85 ;&st7; " /><path d=" M 1844.19,  299.24  L 1838.53,  290.74  L 1849.86,  290.74  L 1844.19,  299.24 " style="stroke-width: 0.28 ;&st9;" /><path d=" M 1844.19,  384.22  L 1759.21,  384.22  L 1759.21,  324.73 " style="stroke-width: 0.85 ;&st7; " /><path d=" M 1529.74,  205.75  L 1529.74,  307.73 " style="stroke-width: 0.85 ;&st7; " /><path d=" M 1759.21,  384.22  L 1742.21,  384.22  L 1742.21,  324.73 " style="stroke-width: 0.85 ;&st7; " /><path d=" M 1843.00,  221.75  L 1842.73,  222.22  L 1842.63,  222.75  L 1842.73,  223.28  L 1843.00,  223.75  L 1843.41,  224.10  L 1843.92,  224.28  L 1844.46,  224.28  L 1844.97,  224.10  L 1845.38,  223.75  L 1845.66,  223.28  L 1845.75,  222.75  L 1845.66,  222.22  L 1845.38,  221.75  L 1844.97,  221.40  L 1844.46,  221.21  L 1843.92,  221.21  L 1843.41,  221.40  L 1843.00,  221.75  L 1843.39,  222.46  L 1843.39,  223.04  L 1843.77,  223.48  L 1844.34,  223.58  L 1844.84,  223.30  L 1845.04,  222.75  L 1844.84,  222.20  L 1844.34,  221.91  L 1843.77,  222.01  L 1844.19,  222.75 " style="stroke-width: 0.85 ;&st7; " /><path d=" M 1664.53,  204.75  L 1664.26,  205.22  L 1664.16,  205.75  L 1664.26,  206.28  L 1664.53,  206.75  L 1664.94,  207.10  L 1665.45,  207.29  L 1665.99,  207.29  L 1666.50,  207.10  L 1666.91,  206.75  L 1667.19,  206.28  L 1667.28,  205.75  L 1667.19,  205.22  L 1666.91,  204.75  L 1666.50,  204.40  L 1665.99,  204.22  L 1665.45,  204.22  L 1664.94,  204.40  L 1664.53,  204.75  L 1664.92,  205.46  L 1664.92,  206.04  L 1665.30,  206.49  L 1665.87,  206.59  L 1666.37,  206.30  L 1666.57,  205.75  L 1666.37,  205.20  L 1665.87,  204.92  L 1665.30,  205.01  L 1665.72,  205.75 " style="stroke-width: 0.85 ;&st7; " /><path d=" M 1844.19,  697.25  L 1844.19,  701.50 " style="stroke-width: 0.85 ;&st7; " /><path d=" M 1835.69,  701.50  L 1852.69,  701.50 " style="stroke-width: 0.85 ;&st7; " /><path d=" M 1839.94,  704.33  L 1848.44,  704.33 " style="stroke-width: 0.85 ;&st7; " /><path d=" M 1841.36,  707.17  L 1847.02,  707.17 " style="stroke-width: 0.85 ;&st7; " /><path d=" M 1842.77,  710.00  L 1845.61,  710.00 " style="stroke-width: 0.85 ;&st7; " /><path d=" M 1754.94,  221.58  L 1752.61,  224.62  L 1751.14,  222.08  L 1754.94,  221.58  L 1753.66,  222.32  L 1752.67,  223.61  L 1752.06,  222.53  L 1753.66,  222.32  L 1753.02,  222.69  L 1752.71,  223.10  L 1752.51,  222.76  L 1753.02,  222.69 " style="stroke-width: 0.85 ;&st7; " /><path d=" M 1756.94,  225.05  L 1754.61,  228.09  L 1753.14,  225.55  L 1756.94,  225.05  L 1755.66,  225.79  L 1754.68,  227.07  L 1754.06,  226.00  L 1755.66,  225.79  L 1755.02,  226.16  L 1754.71,  226.57  L 1754.52,  226.23  L 1755.02,  226.16 " style="stroke-width: 0.85 ;&st7; " /><path d=" M 1742.21,  205.75  L 1742.21,  307.73 " style="stroke-width: 0.85 ;&st7; " /><path d=" M 1742.21,  231.25  L 1736.54,  222.75  L 1747.87,  222.75  L 1742.21,  231.25 " style="stroke-width: 0.28 ;&st9;" /><path d=" M 1912.18,  401.22  L 1912.18,  205.75 " style="stroke-width: 0.85 ;&st7; " /><path d=" M 1912.18,  341.73  L 1906.51,  333.23  L 1917.85,  333.23  L 1912.18,  341.73 " style="stroke-width: 0.28 ;&st9;" /><path d=" M 1926.92,  293.04  L 1924.58,  296.08  L 1923.11,  293.54  L 1926.92,  293.04  L 1925.63,  293.78  L 1924.65,  295.06  L 1924.03,  293.99  L 1925.63,  293.78  L 1924.99,  294.15  L 1924.68,  294.56  L 1924.49,  294.22  L 1924.99,  294.15 " style="stroke-width: 0.85 ;&st7; " /><path d=" M 1924.91,  289.57  L 1922.58,  292.61  L 1921.11,  290.07  L 1924.91,  289.57  L 1923.63,  290.31  L 1922.64,  291.60  L 1922.03,  290.52  L 1923.63,  290.31  L 1922.99,  290.68  L 1922.68,  291.09  L 1922.48,  290.75  L 1922.99,  290.68 " style="stroke-width: 0.85 ;&st7; " /><path d=" M 1912.18,  299.24  L 1906.51,  290.74  L 1917.85,  290.74  L 1912.18,  299.24 " style="stroke-width: 0.28 ;&st9;" /><path d=" M 2736.54,  401.22  L 2736.54,  222.75  L 2235.13,  222.75  L 2235.13,  205.75  L 1742.21,  205.75 " style="stroke-width: 0.85 ;&st7; " /><path d=" M 1741.02,  238.74  L 1740.74,  239.21  L 1740.65,  239.75  L 1740.74,  240.28  L 1741.02,  240.75  L 1741.43,  241.09  L 1741.94,  241.28  L 1742.48,  241.28  L 1742.99,  241.09  L 1743.40,  240.75  L 1743.67,  240.28  L 1743.77,  239.75  L 1743.67,  239.21  L 1743.40,  238.74  L 1742.99,  238.40  L 1742.48,  238.21  L 1741.94,  238.21  L 1741.43,  238.40  L 1741.02,  238.74  L 1741.41,  239.45  L 1741.41,  240.04  L 1741.78,  240.48  L 1742.36,  240.58  L 1742.86,  240.29  L 1743.06,  239.75  L 1742.86,  239.20  L 1742.36,  238.91  L 1741.78,  239.01  L 1742.21,  239.75 " style="stroke-width: 0.85 ;&st7; " /><path d=" M 1708.21,  324.73  L 1708.21,  358.73  L 2252.12,  358.73  L 2252.12,  341.73  L 2303.11,  341.73 " style="stroke-width: 0.85 ;&st7; " /><path d=" M 1657.22,  324.73  L 1657.22,  401.22 " style="stroke-width: 0.85 ;&st7; " /><path d=" M 1844.19,  554.19  L 1844.19,  571.19 " style="stroke-width: 0.85 ;&st7; " /><path d=" M 1835.69,  554.19  L 1852.69,  554.19  L 1852.69,  571.19  L 1835.69,  571.19  L 1835.69,  554.19 " style="stroke-width: 1.42 ;&st7; " /><path d=" M 1878.19,  401.22  L 1878.19,  222.75  L 1844.19,  222.75 " style="stroke-width: 0.85 ;&st7; " /><path d=" M 1892.92,  293.04  L 1890.59,  296.08  L 1889.12,  293.54  L 1892.92,  293.04  L 1891.64,  293.78  L 1890.66,  295.06  L 1890.04,  293.99  L 1891.64,  293.78  L 1891.00,  294.15  L 1890.69,  294.56  L 1890.49,  294.22  L 1891.00,  294.15 " style="stroke-width: 0.85 ;&st7; " /><path d=" M 1890.92,  289.57  L 1888.58,  292.61  L 1887.12,  290.07  L 1890.92,  289.57  L 1889.64,  290.31  L 1888.65,  291.60  L 1888.03,  290.52  L 1889.64,  290.31  L 1889.00,  290.68  L 1888.68,  291.09  L 1888.49,  290.75  L 1889.00,  290.68 " style="stroke-width: 0.85 ;&st7; " /><path d=" M 1878.19,  299.24  L 1872.52,  290.74  L 1883.85,  290.74  L 1878.19,  299.24 " style="stroke-width: 0.28 ;&st9;" /><path d=" M 1528.55,  204.75  L 1528.28,  205.22  L 1528.19,  205.75  L 1528.28,  206.28  L 1528.55,  206.75  L 1528.96,  207.10  L 1529.47,  207.29  L 1530.02,  207.29  L 1530.52,  207.10  L 1530.94,  206.75  L 1531.21,  206.28  L 1531.30,  205.75  L 1531.21,  205.22  L 1530.94,  204.75  L 1530.52,  204.40  L 1530.02,  204.22  L 1529.47,  204.22  L 1528.96,  204.40  L 1528.55,  204.75  L 1528.94,  205.46  L 1528.94,  206.04  L 1529.32,  206.49  L 1529.89,  206.59  L 1530.40,  206.30  L 1530.59,  205.75  L 1530.40,  205.20  L 1529.89,  204.92  L 1529.32,  205.01  L 1529.74,  205.75 " style="stroke-width: 0.85 ;&st7; " /><path d=" M 1637.96,  250.55  L 1635.63,  253.59  L 1634.16,  251.05  L 1637.96,  250.55  L 1636.68,  251.29  L 1635.70,  252.57  L 1635.08,  251.50  L 1636.68,  251.29  L 1636.04,  251.66  L 1635.73,  252.06  L 1635.54,  251.73  L 1636.04,  251.66 " style="stroke-width: 0.85 ;&st7; " /><path d=" M 1623.23,  256.74  L 1617.56,  248.24  L 1628.89,  248.24  L 1623.23,  256.74 " style="stroke-width: 0.28 ;&st9;" /><path d=" M 1635.96,  247.08  L 1633.63,  250.12  L 1632.16,  247.58  L 1635.96,  247.08  L 1634.68,  247.82  L 1633.69,  249.10  L 1633.08,  248.03  L 1634.68,  247.82  L 1634.04,  248.19  L 1633.73,  248.59  L 1633.53,  248.26  L 1634.04,  248.19 " style="stroke-width: 0.85 ;&st7; " /><path d=" M 1623.23,  205.75  L 1623.23,  307.73 " style="stroke-width: 0.85 ;&st7; " /><path d=" M 1698.52,  204.75  L 1698.25,  205.22  L 1698.16,  205.75  L 1698.25,  206.28  L 1698.52,  206.75  L 1698.94,  207.10  L 1699.44,  207.29  L 1699.99,  207.29  L 1700.49,  207.10  L 1700.91,  206.75  L 1701.18,  206.28  L 1701.27,  205.75  L 1701.18,  205.22  L 1700.91,  204.75  L 1700.49,  204.40  L 1699.99,  204.22  L 1699.44,  204.22  L 1698.94,  204.40  L 1698.52,  204.75  L 1698.92,  205.46  L 1698.92,  206.04  L 1699.29,  206.49  L 1699.86,  206.59  L 1700.37,  206.30  L 1700.57,  205.75  L 1700.37,  205.20  L 1699.86,  204.92  L 1699.29,  205.01  L 1699.72,  205.75 " style="stroke-width: 0.85 ;&st7; " /><path d=" M 1699.72,  205.75  L 1699.72,  273.74  L 1742.21,  273.74 " style="stroke-width: 0.85 ;&st7; " /><path d=" M 1712.45,  230.08  L 1710.11,  233.12  L 1708.65,  230.58  L 1712.45,  230.08  L 1711.17,  230.82  L 1710.18,  232.11  L 1709.56,  231.03  L 1711.17,  230.82  L 1710.53,  231.19  L 1710.21,  231.60  L 1710.02,  231.26  L 1710.53,  231.19 " style="stroke-width: 0.85 ;&st7; " /><path d=" M 1699.72,  239.75  L 1694.05,  231.25  L 1705.38,  231.25  L 1699.72,  239.75 " style="stroke-width: 0.28 ;&st9;" /><path d=" M 1714.45,  233.55  L 1712.12,  236.59  L 1710.65,  234.05  L 1714.45,  233.55  L 1713.17,  234.29  L 1712.19,  235.57  L 1711.57,  234.50  L 1713.17,  234.29  L 1712.53,  234.66  L 1712.22,  235.07  L 1712.02,  234.73  L 1712.53,  234.66 " style="stroke-width: 0.85 ;&st7; " /><path d=" M 1741.02,  204.75  L 1740.74,  205.22  L 1740.65,  205.75  L 1740.74,  206.28  L 1741.02,  206.75  L 1741.43,  207.10  L 1741.94,  207.29  L 1742.48,  207.29  L 1742.99,  207.10  L 1743.40,  206.75  L 1743.67,  206.28  L 1743.77,  205.75  L 1743.67,  205.22  L 1743.40,  204.75  L 1742.99,  204.40  L 1742.48,  204.22  L 1741.94,  204.22  L 1741.43,  204.40  L 1741.02,  204.75  L 1741.41,  205.46  L 1741.41,  206.04  L 1741.78,  206.49  L 1742.36,  206.59  L 1742.86,  206.30  L 1743.06,  205.75  L 1742.86,  205.20  L 1742.36,  204.92  L 1741.78,  205.01  L 1742.21,  205.75 " style="stroke-width: 0.85 ;&st7; " /><path d=" M 1793.20,  307.73  L 1798.87,  316.23  L 1787.53,  316.23  L 1793.20,  307.73 " style="stroke-width: 0.28 ;&st9;" /><path d=" M 1741.02,  264.24  L 1740.74,  264.71  L 1740.65,  265.24  L 1740.74,  265.77  L 1741.02,  266.24  L 1741.43,  266.59  L 1741.94,  266.78  L 1742.48,  266.78  L 1742.99,  266.59  L 1743.40,  266.24  L 1743.67,  265.77  L 1743.77,  265.24  L 1743.67,  264.71  L 1743.40,  264.24  L 1742.99,  263.89  L 1742.48,  263.71  L 1741.94,  263.71  L 1741.43,  263.89  L 1741.02,  264.24  L 1741.41,  264.95  L 1741.41,  265.53  L 1741.78,  265.98  L 1742.36,  266.08  L 1742.86,  265.79  L 1743.06,  265.24  L 1742.86,  264.69  L 1742.36,  264.41  L 1741.78,  264.50  L 1742.21,  265.24 " style="stroke-width: 0.85 ;&st7; " /><path d=" M 1742.21,  265.24  L 1810.20,  265.24  L 1810.20,  384.22 " style="stroke-width: 0.85 ;&st7; " /><path d=" M 1809.00,  383.22  L 1808.73,  383.69  L 1808.64,  384.22  L 1808.73,  384.75  L 1809.00,  385.22  L 1809.42,  385.57  L 1809.92,  385.76  L 1810.47,  385.76  L 1810.98,  385.57  L 1811.39,  385.22  L 1811.66,  384.75  L 1811.75,  384.22  L 1811.66,  383.69  L 1811.39,  383.22  L 1810.98,  382.87  L 1810.47,  382.69  L 1809.92,  382.69  L 1809.42,  382.87  L 1809.00,  383.22  L 1809.40,  383.93  L 1809.40,  384.51  L 1809.77,  384.96  L 1810.34,  385.06  L 1810.85,  384.77  L 1811.05,  384.22  L 1810.85,  383.67  L 1810.34,  383.39  L 1809.77,  383.48  L 1810.20,  384.22 " style="stroke-width: 0.85 ;&st7; " /><path d=" M 1876.99,  221.75  L 1876.72,  222.22  L 1876.63,  222.75  L 1876.72,  223.28  L 1876.99,  223.75  L 1877.41,  224.10  L 1877.91,  224.28  L 1878.46,  224.28  L 1878.96,  224.10  L 1879.38,  223.75  L 1879.65,  223.28  L 1879.74,  222.75  L 1879.65,  222.22  L 1879.38,  221.75  L 1878.96,  221.40  L 1878.46,  221.21  L 1877.91,  221.21  L 1877.41,  221.40  L 1876.99,  221.75  L 1877.39,  222.46  L 1877.39,  223.04  L 1877.76,  223.48  L 1878.33,  223.58  L 1878.84,  223.30  L 1879.04,  222.75  L 1878.84,  222.20  L 1878.33,  221.91  L 1877.76,  222.01  L 1878.19,  222.75 " style="stroke-width: 0.85 ;&st7; " /><path d=" M 1878.19,  222.75  L 2218.13,  222.75  L 2218.13,  256.74  L 2668.55,  256.74  L 2668.55,  324.73 " style="stroke-width: 0.85 ;&st7; " /><path d=" M 1758.01,  289.73  L 1757.74,  290.20  L 1757.65,  290.74  L 1757.74,  291.27  L 1758.01,  291.74  L 1758.43,  292.09  L 1758.93,  292.27  L 1759.48,  292.27  L 1759.98,  292.09  L 1760.40,  291.74  L 1760.67,  291.27  L 1760.76,  290.74  L 1760.67,  290.20  L 1760.40,  289.73  L 1759.98,  289.39  L 1759.48,  289.20  L 1758.93,  289.20  L 1758.43,  289.39  L 1758.01,  289.73  L 1758.41,  290.45  L 1758.41,  291.03  L 1758.78,  291.47  L 1759.35,  291.57  L 1759.86,  291.28  L 1760.06,  290.74  L 1759.86,  290.19  L 1759.35,  289.90  L 1758.78,  290.00  L 1759.21,  290.74 " style="stroke-width: 0.85 ;&st7; " /><path d=" M 1742.21,  239.75  L 2694.05,  239.75  L 2694.05,  333.23 " style="stroke-width: 0.85 ;&st7; " /><path d=" M 1969.41,  276.04  L 1967.07,  279.09  L 1965.61,  276.54  L 1969.41,  276.04  L 1968.13,  276.79  L 1967.14,  278.07  L 1966.52,  276.99  L 1968.13,  276.79  L 1967.49,  277.15  L 1967.17,  277.56  L 1966.98,  277.22  L 1967.49,  277.15 " style="stroke-width: 0.85 ;&st7; " /><path d=" M 1967.41,  272.58  L 1965.07,  275.62  L 1963.60,  273.07  L 1967.41,  272.58  L 1966.12,  273.31  L 1965.14,  274.60  L 1964.52,  273.52  L 1966.12,  273.31  L 1965.48,  273.69  L 1965.17,  274.09  L 1964.98,  273.75  L 1965.48,  273.69 " style="stroke-width: 0.85 ;&st7; " /><path d=" M 1954.67,  282.24  L 1949.01,  273.74  L 1960.34,  273.74  L 1954.67,  282.24 " style="stroke-width: 0.28 ;&st9;" /><path d=" M 1988.67,  299.24  L 1983.00,  290.74  L 1994.33,  290.74  L 1988.67,  299.24 " style="stroke-width: 0.28 ;&st9;" /><path d=" M 2001.40,  289.57  L 1999.07,  292.61  L 1997.60,  290.07  L 2001.40,  289.57  L 2000.12,  290.31  L 1999.13,  291.60  L 1998.51,  290.52  L 2000.12,  290.31  L 1999.48,  290.68  L 1999.17,  291.09  L 1998.97,  290.75  L 1999.48,  290.68 " style="stroke-width: 0.85 ;&st7; " /><path d=" M 2003.40,  293.04  L 2001.07,  296.08  L 1999.60,  293.54  L 2003.40,  293.04  L 2002.12,  293.78  L 2001.14,  295.06  L 2000.52,  293.99  L 2002.12,  293.78  L 2001.48,  294.15  L 2001.17,  294.56  L 2000.98,  294.22  L 2001.48,  294.15 " style="stroke-width: 0.85 ;&st7; " /><path d=" M 1954.67,  273.74  L 1954.67,  205.75 " style="stroke-width: 0.85 ;&st7; " /><path d=" M 1988.67,  290.74  L 1988.67,  205.75 " style="stroke-width: 0.85 ;&st7; " /><path d=" M 1954.67,  282.24  L 1954.67,  401.22 " style="stroke-width: 0.85 ;&st7; " /><path d=" M 1988.67,  299.24  L 1988.67,  401.22 " style="stroke-width: 0.85 ;&st7; " /><path d=" M 1953.48,  204.75  L 1953.21,  205.22  L 1953.11,  205.75  L 1953.21,  206.28  L 1953.48,  206.75  L 1953.89,  207.10  L 1954.40,  207.29  L 1954.94,  207.29  L 1955.45,  207.10  L 1955.87,  206.75  L 1956.14,  206.28  L 1956.23,  205.75  L 1956.14,  205.22  L 1955.87,  204.75  L 1955.45,  204.40  L 1954.94,  204.22  L 1954.40,  204.22  L 1953.89,  204.40  L 1953.48,  204.75  L 1953.87,  205.46  L 1953.87,  206.04  L 1954.25,  206.49  L 1954.82,  206.59  L 1955.32,  206.30  L 1955.52,  205.75  L 1955.32,  205.20  L 1954.82,  204.92  L 1954.25,  205.01  L 1954.67,  205.75 " style="stroke-width: 0.85 ;&st7; " /><path d=" M 1987.47,  204.75  L 1987.20,  205.22  L 1987.11,  205.75  L 1987.20,  206.28  L 1987.47,  206.75  L 1987.89,  207.10  L 1988.39,  207.29  L 1988.94,  207.29  L 1989.45,  207.10  L 1989.86,  206.75  L 1990.13,  206.28  L 1990.22,  205.75  L 1990.13,  205.22  L 1989.86,  204.75  L 1989.45,  204.40  L 1988.94,  204.22  L 1988.39,  204.22  L 1987.89,  204.40  L 1987.47,  204.75  L 1987.87,  205.46  L 1987.87,  206.04  L 1988.24,  206.49  L 1988.81,  206.59  L 1989.32,  206.30  L 1989.52,  205.75  L 1989.32,  205.20  L 1988.81,  204.92  L 1988.24,  205.01  L 1988.67,  205.75 " style="stroke-width: 0.85 ;&st7; " /><path d=" M 2026.91,  515.95  L 2022.66,  520.20  L 1990.79,  520.20  L 1988.67,  524.45  L 1986.54,  520.20  L 1954.67,  520.20  L 1950.42,  515.95 " style="stroke-width: 0.85 ;&st7; " /><path d=" M 1691.22,  324.73  L 1691.22,  375.72  L 2303.11,  375.72 " style="stroke-width: 0.85 ;&st7; " /><path d=" M 1508.48,  247.08  L 1506.15,  250.12  L 1504.68,  247.58  L 1508.48,  247.08  L 1507.20,  247.82  L 1506.21,  249.10  L 1505.60,  248.03  L 1507.20,  247.82  L 1506.56,  248.19  L 1506.25,  248.59  L 1506.05,  248.26  L 1506.56,  248.19 " style="stroke-width: 0.85 ;&st7; " /><path d=" M 1510.49,  250.55  L 1508.15,  253.59  L 1506.68,  251.05  L 1510.49,  250.55  L 1509.20,  251.29  L 1508.22,  252.57  L 1507.60,  251.50  L 1509.20,  251.29  L 1508.56,  251.66  L 1508.25,  252.06  L 1508.06,  251.73  L 1508.56,  251.66 " style="stroke-width: 0.85 ;&st7; " /><path d=" M 1729.46,  489.04  L 1725.21,  493.29  L 1720.96,  489.04 " style="stroke-width: 1.42 ;&st7; " /><path d=" M 1720.96,  485.64  L 1725.21,  489.89  L 1729.46,  485.64 " style="stroke-width: 1.42 ;&st7; " /><path d=" M 1929.18,  333.23  L 1946.17,  333.23  L 1946.17,  316.23  L 1929.18,  316.23  L 1929.18,  333.23 " style="stroke-width: 1.42 ;&st7; " /><path d=" M 1954.67,  350.23  L 1937.68,  350.23  L 1937.68,  333.23 " style="stroke-width: 0.85 ;&st7; " /><path d=" M 1937.68,  316.23  L 1937.68,  299.24  L 1954.67,  299.24 " style="stroke-width: 0.85 ;&st7; " /><path d=" M 1953.48,  349.22  L 1953.21,  349.69  L 1953.11,  350.23  L 1953.21,  350.76  L 1953.48,  351.23  L 1953.89,  351.58  L 1954.40,  351.76  L 1954.94,  351.76  L 1955.45,  351.58  L 1955.87,  351.23  L 1956.14,  350.76  L 1956.23,  350.23  L 1956.14,  349.69  L 1955.87,  349.22  L 1955.45,  348.88  L 1954.94,  348.69  L 1954.40,  348.69  L 1953.89,  348.88  L 1953.48,  349.22  L 1953.87,  349.94  L 1953.87,  350.52  L 1954.25,  350.96  L 1954.82,  351.06  L 1955.32,  350.77  L 1955.52,  350.23  L 1955.32,  349.68  L 1954.82,  349.39  L 1954.25,  349.49  L 1954.67,  350.23 " style="stroke-width: 0.85 ;&st7; " /><path d=" M 1953.48,  298.23  L 1953.21,  298.70  L 1953.11,  299.24  L 1953.21,  299.77  L 1953.48,  300.24  L 1953.89,  300.58  L 1954.40,  300.77  L 1954.94,  300.77  L 1955.45,  300.58  L 1955.87,  300.24  L 1956.14,  299.77  L 1956.23,  299.24  L 1956.14,  298.70  L 1955.87,  298.23  L 1955.45,  297.89  L 1954.94,  297.70  L 1954.40,  297.70  L 1953.89,  297.89  L 1953.48,  298.23  L 1953.87,  298.94  L 1953.87,  299.53  L 1954.25,  299.97  L 1954.82,  300.07  L 1955.32,  299.78  L 1955.52,  299.24  L 1955.32,  298.69  L 1954.82,  298.40  L 1954.25,  298.50  L 1954.67,  299.24 " style="stroke-width: 0.85 ;&st7; " /><path d=" M 1848.72,  184.22  C 1848.72   181.72  1846.70   179.69  1844.19   179.69 " style="stroke-width: 1.42 ;&st7; " /><path d=" M 1844.19,  179.69  C 1841.69   179.69  1839.66   181.72  1839.66   184.22 " style="stroke-width: 1.42 ;&st7; " /><path d=" M 1839.66,  184.22  C 1839.66   186.72  1841.69   188.75  1844.19   188.75 " style="stroke-width: 1.42 ;&st7; " /><path d=" M 1844.19,  188.75  C 1846.70   188.75  1848.72   186.72  1848.72   184.22 " style="stroke-width: 1.42 ;&st7; " /><path d=" M 1729.74,  405.75  C 1729.74   403.25  1727.71   401.22  1725.21   401.22 " style="stroke-width: 1.42 ;&st7; " /><path d=" M 1725.21,  401.22  C 1722.71   401.22  1720.68   403.25  1720.68   405.75 " style="stroke-width: 1.42 ;&st7; " /><path d=" M 1720.68,  405.75  C 1720.68   408.25  1722.71   410.28  1725.21   410.28 " style="stroke-width: 1.42 ;&st7; " /><path d=" M 1725.21,  410.28  C 1727.71   410.28  1729.74   408.25  1729.74   405.75 " style="stroke-width: 1.42 ;&st7; " /><path d=" M 1661.76,  405.75  C 1661.76   403.25  1659.73   401.22  1657.22   401.22 " style="stroke-width: 1.42 ;&st7; " /><path d=" M 1657.22,  401.22  C 1654.72   401.22  1652.69   403.25  1652.69   405.75 " style="stroke-width: 1.42 ;&st7; " /><path d=" M 1652.69,  405.75  C 1652.69   408.25  1654.72   410.28  1657.22   410.28 " style="stroke-width: 1.42 ;&st7; " /><path d=" M 1657.22,  410.28  C 1659.73   410.28  1661.76   408.25  1661.76   405.75 " style="stroke-width: 1.42 ;&st7; " /><path d=" M 1848.72,  405.75  C 1848.72   403.25  1846.70   401.22  1844.19   401.22 " style="stroke-width: 1.42 ;&st7; " /><path d=" M 1844.19,  401.22  C 1841.69   401.22  1839.66   403.25  1839.66   405.75 " style="stroke-width: 1.42 ;&st7; " /><path d=" M 1839.66,  405.75  C 1839.66   408.25  1841.69   410.28  1844.19   410.28 " style="stroke-width: 1.42 ;&st7; " /><path d=" M 1844.19,  410.28  C 1846.70   410.28  1848.72   408.25  1848.72   405.75 " style="stroke-width: 1.42 ;&st7; " /><path d=" M 1916.71,  405.75  C 1916.71   403.25  1914.68   401.22  1912.18   401.22 " style="stroke-width: 1.42 ;&st7; " /><path d=" M 1912.18,  401.22  C 1909.68   401.22  1907.65   403.25  1907.65   405.75 " style="stroke-width: 1.42 ;&st7; " /><path d=" M 1907.65,  405.75  C 1907.65   408.25  1909.68   410.28  1912.18   410.28 " style="stroke-width: 1.42 ;&st7; " /><path d=" M 1912.18,  410.28  C 1914.68   410.28  1916.71   408.25  1916.71   405.75 " style="stroke-width: 1.42 ;&st7; " /><path d=" M 1882.72,  405.75  C 1882.72   403.25  1880.69   401.22  1878.19   401.22 " style="stroke-width: 1.42 ;&st7; " /><path d=" M 1878.19,  401.22  C 1875.68   401.22  1873.65   403.25  1873.65   405.75 " style="stroke-width: 1.42 ;&st7; " /><path d=" M 1873.65,  405.75  C 1873.65   408.25  1875.68   410.28  1878.19   410.28 " style="stroke-width: 1.42 ;&st7; " /><path d=" M 1878.19,  410.28  C 1880.69   410.28  1882.72   408.25  1882.72   405.75 " style="stroke-width: 1.42 ;&st7; " /><path d=" M 1959.21,  405.75  C 1959.21   403.25  1957.18   401.22  1954.67   401.22 " style="stroke-width: 1.42 ;&st7; " /><path d=" M 1954.67,  401.22  C 1952.17   401.22  1950.14   403.25  1950.14   405.75 " style="stroke-width: 1.42 ;&st7; " /><path d=" M 1950.14,  405.75  C 1950.14   408.25  1952.17   410.28  1954.67   410.28 " style="stroke-width: 1.42 ;&st7; " /><path d=" M 1954.67,  410.28  C 1957.18   410.28  1959.21   408.25  1959.21   405.75 " style="stroke-width: 1.42 ;&st7; " /><path d=" M 1993.20,  405.75  C 1993.20   403.25  1991.17   401.22  1988.67   401.22 " style="stroke-width: 1.42 ;&st7; " /><path d=" M 1988.67,  401.22  C 1986.16   401.22  1984.14   403.25  1984.14   405.75 " style="stroke-width: 1.42 ;&st7; " /><path d=" M 1984.14,  405.75  C 1984.14   408.25  1986.16   410.28  1988.67   410.28 " style="stroke-width: 1.42 ;&st7; " /><path d=" M 1988.67,  410.28  C 1991.17   410.28  1993.20   408.25  1993.20   405.75 " style="stroke-width: 1.42 ;&st7; " /><text style="&st18;" transform="matrix(&st17;  1596.87  233.18 )">(*3)</text><text style="&st18;" transform="matrix(&st17;  1596.87  279.92 )">(*3)</text><text style="&st18;" transform="matrix(&st17;  1840.5  157.51 )">G</text><text ewd:textID="79" style="&st18;" transform="matrix(&st17;  1650.43  264.11 )">Driver's <tspan dy="6" x="0">Seat Belt</tspan></text><text style="&st18;" transform="matrix(&st17;  1520.38  256.79 )">SRS</text><text ewd:textID="101" style="&st18;" transform="matrix(&st17;  1835.12  316.97 )">Illumination</text><text style="&st18;" transform="matrix(&st17;  1840.5  488.53 )">Y</text><text style="&st18;" transform="matrix(&st17;  1840.5  612.88 )">W-B</text><text ewd:textID="6" style="&st18;" transform="matrix(&st17;  1732.85  468.39 )">(w/o SRS)</text><text style="&st18;" transform="matrix(&st17;  1721.52  459.91 )">W-B</text><text ewd:textID="6" style="&st18;" transform="matrix(&st17;  1732.85  561.87 )">(w/o SRS)</text><text style="&st18;" transform="matrix(&st17;  1721.52  553.39 )">W-B</text><text style="&st18;" transform="matrix(&st16;  1739.68  177.95 )">C25(C),C26(D)</text><text ewd:textID="104" style="&st18;" transform="matrix(&st17;  1726.92  250.4 )">LCD <tspan dy="6" x="-0.01">Illumination</tspan></text><text ewd:textID="71" style="&st18;" transform="matrix(&st16;  1739.68  185.06 )">Combination Meter</text><text ewd:textID="64" style="&st18;" transform="matrix(&st17;  1914.16  503.95 )">Alternator</text><text style="&st18;" transform="matrix(&st16;  1841.72  186.19 )">C</text><text ewd:textID="69" style="&st18;" transform="matrix(&st17;  1902.82  306.57 )">Charge</text><text style="&st18;" transform="matrix(&st17;  1908.49  436.19 )">GR</text><text ewd:textID="88" style="&st18;" transform="matrix(&st17;  1580.16  265.34 )">Fuel Filter</text><text style="&st18;" transform="matrix(&st16;  1603.71  20.75 )">* 1 :1TR-FE, 2TR-FE, 1GR-FE</text><text ewd:textID="7" style="&st18;" transform="matrix(&st16;  1603.71  37.75 )">* 4 :w/ Multi Display</text><text ewd:textID="10" style="&st18;" transform="matrix(&st16;  1603.71  54.75 )">* 9 :Cold Area Spec. w/ Manual A/C</text><text ewd:textID="20" style="&st18;" transform="matrix(&st16;  1603.71  122.73 )">*23 :Middle East</text><text ewd:textID="23" style="&st18;" transform="matrix(&st16;  1603.71  131.23 )">*27 :w/ Automatic A/C</text><text ewd:textID="121" style="&st18;" transform="matrix(&st17;  1659.21  598.86 )">Short Connector <tspan dy="6" x="0">(Light Control Rheostat) </tspan><tspan dy="6" x="0">(*13)</tspan></text><text ewd:textID="105" style="&st18;" transform="matrix(&st17;  1647.32  569.47 )">Light Control <tspan dy="6" x="0">Rheostat (*12)</tspan></text><text ewd:textID="103" style="&st18;" transform="matrix(&st17;  1510.47  531.22 )">Junction <tspan dy="6" x="0">Connector</tspan></text><text style="&st18;" transform="matrix(&st17;  1503.36  531.22 )">J62(A),J63(B)</text><text ewd:textID="103" style="&st18;" transform="matrix(&st17;  1510.47  624.71 )">Junction <tspan dy="6" x="-0.01">Connector</tspan></text><text style="&st18;" transform="matrix(&st17;  1503.36  624.71 )">J20(A),J21(B)</text><text ewd:textID="74" style="&st18;" transform="matrix(&st17;  1528.76  607.91 )">Daytime Running Light Relay</text><text style="&st18;" transform="matrix(&st17;  1537.38  459.59 )">(*11)</text><text style="&st18;" transform="matrix(&st17;  1526.05  460.33 )">W-G</text><text ewd:textID="28" style="&st18;" transform="matrix(&st16;  1603.71  148.23 )">*40 :w/o Optitron</text><text ewd:textID="29" style="&st18;" transform="matrix(&st16;  1603.71  156.73 )">*41 :w/ Optitron</text><text ewd:textID="101" style="&st18;" transform="matrix(&st17;  1690.36  250.39 )">Illumination</text><text style="&st18;" transform="matrix(&st17;  1707.35  226.27 )">(*41)</text><text style="&st18;" transform="matrix(&st17;  1707.35  260.26 )">(*41)</text><text ewd:textID="123" style="&st18;" transform="matrix(&st17;  1945.31  283.75 )">Slip</text><text style="&st18;" transform="matrix(&st17;  1979.31  310.28 )">VSC OFF</text><text style="&st18;" transform="matrix(&st17;  1950.98  458.79 )">P</text><text style="&st18;" transform="matrix(&st17;  1984.97  461.26 )">BR</text><text style="&st18;" transform="matrix(&st16;  1952.2  407.72 )">D</text><text style="&st18;" transform="matrix(&st16;  1940.62  407.72 )">17</text><text style="&st18;" transform="matrix(&st16;  1974.61  407.72 )">16</text><text style="&st18;" transform="matrix(&st16;  1986.2  407.72 )">D</text><text ewd:textID="122" style="&st18;" transform="matrix(&st17;  1987.82  583.04 )">Skid Control ECU <tspan dy="6" x="0">with Actuator</tspan></text><text style="&st18;" transform="matrix(&st16;  1833.32  186.19 )">8</text><text style="&st18;" transform="matrix(&st16;  1722.74  407.72 )">C</text><text style="&st18;" transform="matrix(&st16;  1711.16  407.72 )">19</text><text style="&st18;" transform="matrix(&st16;  1646.35  407.72 )">9</text><text style="&st18;" transform="matrix(&st16;  1654.75  407.72 )">C</text><text style="&st18;" transform="matrix(&st17;  1653.53  468.41 )">W-B</text><text style="&st18;" transform="matrix(&st17;  1664.86  474.94 )">(*12,*13)</text><text style="&st18;" transform="matrix(&st16;  1841.72  407.72 )">C</text><text style="&st18;" transform="matrix(&st16;  1829.36  407.72 )">22</text><text ewd:textID="15" style="&st18;" transform="matrix(&st16;  1603.71  105.74 )">*15 :w/ A/T Indicator Light</text><text style="&st18;" transform="matrix(&st16;  1909.71  407.72 )">C</text><text style="&st18;" transform="matrix(&st16;  1897.35  407.72 )">37</text><text ewd:textID="72" style="&st18;" transform="matrix(&st17;  1880.17  526.56 )">Combination SW</text><text ewd:textID="84" style="&st18;" transform="matrix(&st17;  1868.83  310.49 )">Front Fog</text><text style="&st18;" transform="matrix(&st17;  1874.49  438.06 )">G-B</text><text style="&st18;" transform="matrix(&st16;  1864.13  407.72 )">15</text><text style="&st18;" transform="matrix(&st16;  1875.71  407.72 )">D</text><text ewd:textID="127" style="&st18;" transform="matrix(&st17;  1843.19  117.62 )">Tail Lamp Relay (*11) <tspan dy="5.95" x="0">Combination SW (*10)</tspan></text><text style="&st18;" transform="matrix(&st16;  1603.71  29.25 )">* 3 :1KD-FTV, 2KD-FTV</text><text style="&st18;" transform="matrix(&st16;  1603.71  46.25 )">* 6 :5L-E</text><text ewd:textID="11" style="&st18;" transform="matrix(&st16;  1603.71  63.24 )">*10 :w/o Daytime Running Light</text><text ewd:textID="12" style="&st18;" transform="matrix(&st16;  1603.71  71.74 )">*11 :w/ Daytime Running Light</text><text ewd:textID="13" style="&st18;" transform="matrix(&st16;  1603.71  80.24 )">*12 :w/ Light Control Rheostat</text><text ewd:textID="14" style="&st18;" transform="matrix(&st16;  1603.71  88.74 )">*13 :w/o Light Control Rheostat <tspan dy="8.5" x="14.16">w/ Short Connector (Light Control Rheostat)</tspan></text><text style="&st18;" transform="matrix(&st17;  1614.15  271.38 )">OIL CHANGE</text><text style="&st18;" transform="matrix(&st17;  1630.87  235.16 )">(*22)</text><text style="&st18;" transform="matrix(&st17;  1630.87  281.9 )">(*22)</text><text ewd:textID="19" style="&st18;" transform="matrix(&st16;  1603.71  114.24 )">*22 :Europe</text><text style="&st18;" transform="matrix(&st16;  1654.2  318.2 )">CPU</text><text style="&st18;" transform="matrix(&st17;  1503.39  281.9 )">(*59)</text><text style="&st18;" transform="matrix(&st17;  1503.39  235.16 )">(*59)</text><text style="&st18;" transform="matrix(&st17;  1851.83  332.89 )">(*40)</text><text style="&st18;" transform="matrix(&st17;  1851.83  281.9 )">(*40)</text><text style="&st18;" transform="matrix(&st16;  1884.16  37.75 )">*65 :*10 *41</text><text style="&st18;" transform="matrix(&st16;  1884.16  46.25 )">*66 :*11 *41</text><text ewd:textID="26" style="&st18;" transform="matrix(&st16;  1603.71  139.73 )">*34 :w/ VSC</text><text style="&st18;" transform="matrix(&st16;  1513.09  357.86 )">(*66)</text><text style="&st18;" transform="matrix(&st16;  1506.48  374.86 )">(*15 *66)</text><text style="&st18;" transform="matrix(&st16;  1574.47  374.86 )">(*15 *66)</text><text style="&st18;" transform="matrix(&st16;  1581.08  357.86 )">(*66)</text><text style="&st18;" transform="matrix(&st16;  1735.12  509.42 )">(*68)</text><text style="&st18;" transform="matrix(&st16;  1735.12  500.92 )">(*67)</text><text style="&st18;" transform="matrix(&st16;  1707.22  509.42 )">21</text><text style="&st18;" transform="matrix(&st16;  1707.22  500.92 )">19</text><text ewd:textID="46" style="&st18;" transform="matrix(&st16;  1884.16  54.75 )">*67 :Before Nov. 2011 Production</text><text ewd:textID="50" style="&st18;" transform="matrix(&st16;  1884.16  71.74 )">*73 :Radio Receiver Assembly Type</text><text ewd:textID="51" style="&st18;" transform="matrix(&st16;  1884.16  80.24 )">*74 :Radio &amp; Display <tspan dy="8.5" x="14.16">Receiver Assembly Type</tspan></text><text ewd:textID="52" style="&st18;" transform="matrix(&st16;  1884.16  105.74 )">*75 :Navigation Receiver Assembly Type</text><text ewd:textID="53" style="&st18;" transform="matrix(&st16;  1884.16  114.24 )">*76 :w/ Front Passenger <tspan dy="8.49" x="14.16">Seat Belt Warning Lamp</tspan></text><text ewd:textID="47" style="&st18;" transform="matrix(&st16;  1884.16  63.24 )">*68 :From Nov. 2011 Production</text><text ewd:textID="72" style="&st18;" transform="matrix(&st17;  1534.7  569.05 )">Combination SW</text><text style="&st18;" transform="matrix(&st17;  1945.31  349.89 )">(*34)</text><text style="&st18;" transform="matrix(&st17;  1945.31  315.89 )">(*34)</text><text ewd:textID="32" style="&st18;" transform="matrix(&st16;  1603.71  165.23 )">*48 :w/ Steering Pad SW</text><text ewd:textID="35" style="&st18;" transform="matrix(&st16;  1603.71  173.73 )">*52 :w/ Rheostat SW</text><text style="&st18;" transform="matrix(&st16;  1833.45  579.38 )">22</text><text style="&st18;" transform="matrix(&st16;  1833.45  550.5 )">20</text><text ewd:textID="103" style="&st18;" transform="matrix(&st17;  1867.41  573.71 )">Junction <tspan dy="6" x="0">Connector</tspan></text><text style="&st18;" transform="matrix(&st17;  1860.3  573.71 )">J57</text><text style="&st18;" transform="matrix(&st17;  1664.86  392.38 )">(*52)</text><text style="&st18;" transform="matrix(&st17;  1962.31  464.62 )">(*34)</text><text style="&st18;" transform="matrix(&st17;  1996.3  464.62 )">(*34)</text><text style="&st18;" transform="matrix(&st17;  1749.85  302.76 )">(*41)</text><text style="&st18;" transform="matrix(&st17;  1800.84  341.39 )">(*66)</text><text style="&st18;" transform="matrix(&st17;  1817.83  341.39 )">(*40)</text><text style="&st18;" transform="matrix(&st16;  1768.04  298.37 )">(*66)</text><text style="&st18;" transform="matrix(&st17;  1766.84  345.25 )">(*41)</text><text style="&st18;" transform="matrix(&st17;  1715.85  345.64 )">(*59)</text><text style="&st18;" transform="matrix(&st17;  1698.85  345.64 )">(*59)</text><text style="&st18;" transform="matrix(&st16;  1819.04  264.38 )">(*65)</text><text style="&st18;" transform="matrix(&st16;  1759.55  247.38 )">(*40)</text><text style="&st18;" transform="matrix(&st17;  1962.31  264.9 )">(*34)</text><text style="&st18;" transform="matrix(&st17;  1962.31  332.89 )">(*34)</text><text style="&st18;" transform="matrix(&st17;  1996.3  332.89 )">(*34)</text><text style="&st18;" transform="matrix(&st17;  1996.3  264.9 )">(*34)</text><text ewd:textID="41" style="&st18;" transform="matrix(&st16;  1884.16  20.75 )">*58 :Except Middle East</text><text ewd:textID="42" style="&st18;" transform="matrix(&st16;  1884.16  29.25 )">*59 :w/ 4WD Part Time</text></svg>