﻿<?xml version="1.0" encoding="utf-8"?>
<!DOCTYPE svg PUBLIC "-//W3C//DTD SVG 1.0//EN" "http://www.w3.org/TR/2001/REC-SVG-20010904/DTD/svg10.dtd"[
	<!ENTITY ns_flows "http://ns.adobe.com/Flows/1.0/">
	<!ENTITY ns_svg "http://www.w3.org/2000/svg">
	<!ENTITY ns_xlink "http://www.w3.org/1999/xlink">
	<!ENTITY st0 "font-size:7px;font-family:'MS-PGothic';adobe-font-script:japanese;">
	<!ENTITY st1 "font-size:6px;font-family:'ArialMT';">
	<!-- White fill  -->
	<!ENTITY st2 "fill:#FFFFFF;stroke:#000000; stroke-width:1.41;stroke-linecap:round;stroke-linejoin:round;">
	<!-- Yellow fill  -->
	<!ENTITY st3 "fill:#FFFFCC;stroke:#FFFFCC; stroke-width:0.1;stroke-linecap:round;stroke-linejoin:round;">
	<!-- Gray fill  -->
	<!ENTITY st4 "fill:#CCCCCC;stroke:#CCCCCC; stroke-width:0.1;stroke-linecap:round;stroke-linejoin:round;">
	<!-- Light-blue fill -->
	<!ENTITY st5 "fill:#CCECF4;stroke:#000000; stroke-width:1.133;stroke-linecap:round;stroke-linejoin:round;">
	<!ENTITY st6 "fill:none;stroke-linecap:butt; stroke-linejoin:round;">
	<!ENTITY st7 "fill:none;stroke:#000000;stroke-linecap:round;stroke-linejoin:round;">
	<!ENTITY st8 "enable-background:new    ;">
	<!-- Black fill -->
	<!ENTITY st9 "fill:#000000;stroke:#000000; stroke-linecap:round;stroke-linejoin:round;">
	<!-- SRS note   -->
	<!ENTITY st10 "font-size:9px;font-family:'ArialMT';">
	<!ENTITY st11 "font-size:9px;font-family:'Svg Symbol';">
	<!ENTITY st12 "font-size:6px;font-family:'Svg Symbol';">
	<!ENTITY st13 "fill:none;stroke:#ff0000;stroke-linecap:round;stroke-linejoin:round;">
	<!-- Yellow fill  -->
	<!ENTITY st14 "fill:#FFFF00;stroke:#FFFF00; stroke-width:0.1;stroke-linecap:round;stroke-linejoin:round;">
	<!ENTITY st15 "font-size:6px;font-family:'MS-PGothic';adobe-font-script:japanese;">
	<!ENTITY st16 "1.00 0.00 0.00 1.00">
	<!ENTITY st17 "0.00 -1.00 1.00 0.00">
	<!ENTITY st18 "font-size:6px;font-family:'Arial';">
	<!ENTITY st19 "font-size:9px;font-family:'Arial';">
	<!ENTITY st20 "font-size:6px;font-family:'MS-PGothic','MS PGothic';adobe-font-script:japanese;">
	<!ENTITY st21 "font-size:7px;font-family:'MS-PGothic','MS PGothic';adobe-font-script:japanese;">
	<!ATTLIST svg
		xmlns:ewd CDATA #FIXED "http://shcl.co.jp/ewd"
		xmlns:a CDATA #FIXED "http://ns.adobe.com/AdobeSVGViewerExtensions/3.0/"
		ewd:ver CDATA #IMPLIED
	>
	<!ATTLIST a
		ewd:lineID CDATA #IMPLIED
		ewd:groupID CDATA #IMPLIED
		ewd:figtype CDATA #IMPLIED
		ewd:code CDATA #IMPLIED
		ewd:figID CDATA #IMPLIED
		ewd:pinNo CDATA #IMPLIED
		ewd:comment CDATA #IMPLIED >
	<!ATTLIST g
		ewd:lineID CDATA #IMPLIED
		ewd:groupID CDATA #IMPLIED
		ewd:figtype CDATA #IMPLIED
		ewd:code CDATA #IMPLIED
		ewd:figID CDATA #IMPLIED
		ewd:pinNo CDATA #IMPLIED
		ewd:comment CDATA #IMPLIED >
	<!ATTLIST text
		ewd:textID CDATA #IMPLIED >
	<!ATTLIST title
		ewd:textID CDATA #IMPLIED >
]>
<!-- Generator: Shintec Hozumi YS   -->
<svg onload="call_execInitLoadProc_svg('system')" style="overflow:visible;  enable-background:new 0 0 4122.520 710.000" viewBox="0 0 4122.520 710.000" height="710.000" width="4122.520" xml:space="preserve" ewd:ver="L2.1.2.7" xmlns="&ns_svg;" xmlns:a="http://ns.adobe.com/AdobeSVGViewerExtensions/3.0/" xmlns:ewd="http://shcl.co.jp/ewd" xmlns:xlink="&ns_xlink;">
<path d=" M 3248.58,  401.22  L 3244.33,  401.22 " style="stroke-width: 1.42 ;&st7; " /><path d=" M 3248.58,  392.72  L 3244.33,  392.72 " style="stroke-width: 1.42 ;&st7; " /><path d=" M 3469.55,  163.26  L 3465.30,  163.26 " style="stroke-width: 1.42 ;&st7; " /><path d=" M 3469.55,  154.76  L 3465.30,  154.76 " style="stroke-width: 1.42 ;&st7; " /><path d=" M 3407.93,  469.21  L 3416.43,  469.21 " style="stroke-width: 1.42 ;&st7; " /><path d=" M 3376.06,  163.26  L 3371.81,  163.26 " style="stroke-width: 1.42 ;&st7; " /><path d=" M 3376.06,  154.76  L 3371.81,  154.76 " style="stroke-width: 1.42 ;&st7; " /><path d=" M 3376.06,  120.77  L 3371.81,  120.77 " style="stroke-width: 1.42 ;&st7; " /><path d=" M 3376.06,  112.27  L 3371.81,  112.27 " style="stroke-width: 1.42 ;&st7; " /><path d=" M 3484.42,  367.22  L 3492.92,  367.22 " style="stroke-width: 1.42 ;&st7; " /><path d=" M 3418.55,  163.26  L 3414.30,  163.26 " style="stroke-width: 1.42 ;&st7; " /><path d=" M 3418.55,  154.76  L 3414.30,  154.76 " style="stroke-width: 1.42 ;&st7; " /><path d=" M 3418.55,  120.77  L 3414.30,  120.77 " style="stroke-width: 1.42 ;&st7; " /><path d=" M 3418.55,  112.27  L 3414.30,  112.27 " style="stroke-width: 1.42 ;&st7; " /><path d=" M 3263.45,   69.77  L 3263.45,   95.27 " style="stroke-width: 0.85 ;&st7; " /><path d=" M 3265.58,   95.27  L 3261.33,   95.27 " style="stroke-width: 1.42 ;&st7; " /><path d=" M 3265.58,  103.77  L 3261.33,  103.77 " style="stroke-width: 1.42 ;&st7; " /><path d=" M 3248.58,  435.21  L 3244.33,  435.21 " style="stroke-width: 1.42 ;&st7; " /><path d=" M 3248.58,  443.71  L 3244.33,  443.71 " style="stroke-width: 1.42 ;&st7; " /><path d=" M 3017.00,  418.22  L 3011.94,  406.85 " style="stroke-width: 1.42 ;&st7; " /><path d=" M 3017.00,  418.22  L 3022.06,  406.85 " style="stroke-width: 1.42 ;&st7; " /><path d=" M 3050.99,  418.22  L 3045.93,  406.85 " style="stroke-width: 1.42 ;&st7; " /><path d=" M 3050.99,  418.22  L 3056.05,  406.85 " style="stroke-width: 1.42 ;&st7; " /><path d=" M 3203.96,  503.20  L 3135.97,  503.20  L 3135.97,  469.21  L 3203.96,  469.21  L 3203.96,  503.20 " style="stroke-width: 1.42 ;&st7; " /><path d=" M 3246.46,  406.11  L 3249.29,  408.95  L 3249.29,  404.70  L 3246.46,  401.86  L 3243.62,  404.70  L 3243.62,  408.95  L 3246.46,  406.11 " style="stroke-width: 0.28 ;&st9;" /><path d=" M 3467.42,  149.86  L 3464.59,  147.03  L 3464.59,  151.28  L 3467.42,  154.11  L 3470.25,  151.28  L 3470.25,  147.03  L 3467.42,  149.86 " style="stroke-width: 0.28 ;&st9;" /><path d=" M 3415.24,  136.76  L 3414.96,  137.23  L 3414.87,  137.76  L 3414.96,  138.30  L 3415.24,  138.77  L 3415.65,  139.11  L 3416.16,  139.30  L 3416.70,  139.30  L 3417.21,  139.11  L 3417.62,  138.77  L 3417.89,  138.30  L 3417.99,  137.76  L 3417.89,  137.23  L 3417.62,  136.76  L 3417.21,  136.41  L 3416.70,  136.23  L 3416.16,  136.23  L 3415.65,  136.41  L 3415.24,  136.76  L 3415.63,  137.47  L 3415.63,  138.05  L 3416.00,  138.50  L 3416.58,  138.60  L 3417.08,  138.31  L 3417.28,  137.76  L 3417.08,  137.22  L 3416.58,  136.93  L 3416.00,  137.03  L 3416.43,  137.76 " style="stroke-width: 0.85 ;&st7; " /><path d=" M 3412.18,  478.27  L 3416.43,  474.02  L 3420.68,  478.27 " style="stroke-width: 1.42 ;&st7; " /><path d=" M 3420.68,  474.87  L 3416.43,  470.62  L 3412.18,  474.87 " style="stroke-width: 1.42 ;&st7; " /><path d=" M 3373.93,  154.76  L 3373.93,  120.77 " style="stroke-width: 0.85 ;&st7; " /><path d=" M 3373.93,  149.86  L 3371.10,  147.03  L 3371.10,  151.28  L 3373.93,  154.11  L 3376.77,  151.28  L 3376.77,  147.03  L 3373.93,  149.86 " style="stroke-width: 0.28 ;&st9;" /><path d=" M 3373.93,  125.66  L 3376.77,  128.49  L 3376.77,  124.24  L 3373.93,  121.41  L 3371.10,  124.24  L 3371.10,  128.49  L 3373.93,  125.66 " style="stroke-width: 0.28 ;&st9;" /><path d=" M 3497.16,  361.56  L 3492.91,  365.81  L 3488.67,  361.56 " style="stroke-width: 1.42 ;&st7; " /><path d=" M 3322.94,   35.78  L 3322.94,   69.77  L 3560.90,   69.77  L 3560.90,   35.78  L 3322.94,   35.78 " style="stroke-width: 1.42 ;&st7; " /><path d=" M 3416.43,  149.86  L 3413.59,  147.03  L 3413.59,  151.28  L 3416.43,  154.11  L 3419.26,  151.28  L 3419.26,  147.03  L 3416.43,  149.86 " style="stroke-width: 0.28 ;&st9;" /><path d=" M 3488.67,  358.16  L 3492.91,  362.41  L 3497.16,  358.16 " style="stroke-width: 1.42 ;&st7; " /><path d=" M 3416.43,  125.66  L 3419.26,  128.49  L 3419.26,  124.24  L 3416.43,  121.41  L 3413.59,  124.24  L 3413.59,  128.49  L 3416.43,  125.66 " style="stroke-width: 0.28 ;&st9;" /><path d=" M 3416.43,  154.76  L 3416.43,  120.77 " style="stroke-width: 0.85 ;&st7; " /><path d=" M 3276.20,   78.27  L 3276.20,   35.78  L 3250.71,   35.78  L 3250.71,   78.27  L 3276.20,   78.27 " style="stroke-width: 1.42 ;&st7; " /><path d=" M 3263.45,   90.37  L 3260.62,   87.54  L 3260.62,   91.79  L 3263.45,   94.62  L 3266.29,   91.79  L 3266.29,   87.54  L 3263.45,   90.37 " style="stroke-width: 0.28 ;&st9;" /><path d=" M 3127.48,  129.26  L 3127.48,  163.26  L 3212.46,  163.26  L 3212.46,  129.26  L 3127.48,  129.26 " style="stroke-width: 1.42 ;&st7; " /><path d=" M 3246.46,  430.32  L 3243.62,  427.48  L 3243.62,  431.73  L 3246.46,  434.57  L 3249.29,  431.73  L 3249.29,  427.48  L 3246.46,  430.32 " style="stroke-width: 0.28 ;&st9;" /><path d=" M 3016.99,  154.76  L 3016.99,  188.75  L 3084.98,  188.75  L 3084.98,  154.76  L 3016.99,  154.76 " style="stroke-width: 1.42 ;&st7; " /><path d=" M 3246.46,  401.22  L 3246.46,  435.21 " style="stroke-width: 0.85 ;&st7; " /><path d=" M 3161.47,  185.92  L 3169.97,  185.92 " style="stroke-width: 0.85 ;&st7;stroke-dasharray:3, 1.5;" /><path d=" M 3161.47,  176.86  L 3174.22,  176.86 " style="stroke-width: 0.85 ;&st7;stroke-dasharray:3, 1.5;" /><path d=" M 3161.47,  167.79  L 3169.97,  167.79 " style="stroke-width: 0.85 ;&st7;stroke-dasharray:3, 1.5;" /><path d=" M 3416.43,  137.76  L 3467.42,  137.76  L 3467.42,  154.76 " style="stroke-width: 0.85 ;&st7; " /><path d=" M 3186.97,  273.17  L 3186.97,  273.74 " style="stroke-width: 0.85 ;&st7; " /><path d=" M 3161.47,  204.05  L 3169.97,  204.05 " style="stroke-width: 0.85 ;&st7;stroke-dasharray:3, 1.5;" /><path d=" M 3161.47,  194.99  L 3169.97,  194.99 " style="stroke-width: 0.85 ;&st7;stroke-dasharray:3, 1.5;" /><path d=" M 3191.50,  329.26  C 3191.50   326.76  3189.47   324.73  3186.97   324.73 " style="stroke-width: 1.42 ;&st7; " /><path d=" M 3186.97,  324.73  C 3184.46   324.73  3182.43   326.76  3182.43   329.26 " style="stroke-width: 1.42 ;&st7; " /><path d=" M 3182.43,  329.26  C 3182.43   331.77  3184.46   333.80  3186.97   333.80 " style="stroke-width: 1.42 ;&st7; " /><path d=" M 3186.97,  333.80  C 3189.47   333.80  3191.50   331.77  3191.50   329.26 " style="stroke-width: 1.42 ;&st7; " /><path d=" M 3157.51,  329.26  C 3157.51   326.76  3155.48   324.73  3152.97   324.73 " style="stroke-width: 1.42 ;&st7; " /><path d=" M 3152.97,  324.73  C 3150.47   324.73  3148.44   326.76  3148.44   329.26 " style="stroke-width: 1.42 ;&st7; " /><path d=" M 3148.44,  329.26  C 3148.44   331.77  3150.47   333.80  3152.97   333.80 " style="stroke-width: 1.42 ;&st7; " /><path d=" M 3152.97,  333.80  C 3155.48   333.80  3157.51   331.77  3157.51   329.26 " style="stroke-width: 1.42 ;&st7; " /><path d=" M 3378.47,  329.26  C 3378.47   326.76  3376.44   324.73  3373.94   324.73 " style="stroke-width: 1.42 ;&st7; " /><path d=" M 3373.94,  324.73  C 3371.43   324.73  3369.40   326.76  3369.40   329.26 " style="stroke-width: 1.42 ;&st7; " /><path d=" M 3369.40,  329.26  C 3369.40   331.77  3371.43   333.80  3373.94   333.80 " style="stroke-width: 1.42 ;&st7; " /><path d=" M 3373.94,  333.80  C 3376.44   333.80  3378.47   331.77  3378.47   329.26 " style="stroke-width: 1.42 ;&st7; " /><path d=" M 3252.83,  396.97  C 3252.83   394.62  3250.93   392.72  3248.58   392.72 " style="stroke-width: 1.42 ;&st7; " /><path d=" M 3248.58,  401.22  C 3250.93   401.22  3252.83   399.32  3252.83   396.97 " style="stroke-width: 1.42 ;&st7; " /><path d=" M 3240.08,  396.97  C 3240.08   399.32  3241.99   401.22  3244.33   401.22 " style="stroke-width: 1.42 ;&st7; " /><path d=" M 3244.33,  392.72  C 3241.99   392.72  3240.08   394.62  3240.08   396.97 " style="stroke-width: 1.42 ;&st7; " /><path d=" M 3473.79,  159.01  C 3473.79   156.66  3471.89   154.76  3469.55   154.76 " style="stroke-width: 1.42 ;&st7; " /><path d=" M 3469.55,  163.26  C 3471.89   163.26  3473.79   161.36  3473.79   159.01 " style="stroke-width: 1.42 ;&st7; " /><path d=" M 3461.05,  159.01  C 3461.05   161.36  3462.95   163.26  3465.30   163.26 " style="stroke-width: 1.42 ;&st7; " /><path d=" M 3465.30,  154.76  C 3462.95   154.76  3461.05   156.66  3461.05   159.01 " style="stroke-width: 1.42 ;&st7; " /><path d=" M 3420.96,  329.26  C 3420.96   326.76  3418.93   324.73  3416.43   324.73 " style="stroke-width: 1.42 ;&st7; " /><path d=" M 3416.43,  324.73  C 3413.93   324.73  3411.90   326.76  3411.90   329.26 " style="stroke-width: 1.42 ;&st7; " /><path d=" M 3411.90,  329.26  C 3411.90   331.77  3413.93   333.80  3416.43   333.80 " style="stroke-width: 1.42 ;&st7; " /><path d=" M 3416.43,  333.80  C 3418.93   333.80  3420.96   331.77  3420.96   329.26 " style="stroke-width: 1.42 ;&st7; " /><path d=" M 3380.31,  159.01  C 3380.31   156.66  3378.41   154.76  3376.06   154.76 " style="stroke-width: 1.42 ;&st7; " /><path d=" M 3376.06,  163.26  C 3378.41   163.26  3380.31   161.36  3380.31   159.01 " style="stroke-width: 1.42 ;&st7; " /><path d=" M 3367.56,  159.01  C 3367.56   161.36  3369.46   163.26  3371.81   163.26 " style="stroke-width: 1.42 ;&st7; " /><path d=" M 3371.81,  154.76  C 3369.46   154.76  3367.56   156.66  3367.56   159.01 " style="stroke-width: 1.42 ;&st7; " /><path d=" M 3380.31,  116.52  C 3380.31   114.17  3378.41   112.27  3376.06   112.27 " style="stroke-width: 1.42 ;&st7; " /><path d=" M 3376.06,  120.77  C 3378.41   120.77  3380.31   118.86  3380.31   116.52 " style="stroke-width: 1.42 ;&st7; " /><path d=" M 3367.56,  116.52  C 3367.56   118.86  3369.46   120.77  3371.81   120.77 " style="stroke-width: 1.42 ;&st7; " /><path d=" M 3371.81,  112.27  C 3369.46   112.27  3367.56   114.17  3367.56   116.52 " style="stroke-width: 1.42 ;&st7; " /><path d=" M 3420.96,  277.71  C 3420.96   275.20  3418.93   273.17  3416.43   273.17 " style="stroke-width: 1.42 ;&st7; " /><path d=" M 3416.43,  273.17  C 3413.93   273.17  3411.90   275.20  3411.90   277.71 " style="stroke-width: 1.42 ;&st7; " /><path d=" M 3411.90,  277.71  C 3411.90   280.21  3413.93   282.24  3416.43   282.24 " style="stroke-width: 1.42 ;&st7; " /><path d=" M 3416.43,  282.24  C 3418.93   282.24  3420.96   280.21  3420.96   277.71 " style="stroke-width: 1.42 ;&st7; " /><path d=" M 3335.98,  329.26  C 3335.98   326.76  3333.95   324.73  3331.44   324.73 " style="stroke-width: 1.42 ;&st7; " /><path d=" M 3331.44,  324.73  C 3328.94   324.73  3326.91   326.76  3326.91   329.26 " style="stroke-width: 1.42 ;&st7; " /><path d=" M 3326.91,  329.26  C 3326.91   331.77  3328.94   333.80  3331.44   333.80 " style="stroke-width: 1.42 ;&st7; " /><path d=" M 3331.44,  333.80  C 3333.95   333.80  3335.98   331.77  3335.98   329.26 " style="stroke-width: 1.42 ;&st7; " /><path d=" M 3422.80,  116.52  C 3422.80   114.17  3420.90   112.27  3418.55   112.27 " style="stroke-width: 1.42 ;&st7; " /><path d=" M 3418.55,  163.26  C 3420.90   163.26  3422.80   161.36  3422.80   159.01 " style="stroke-width: 1.42 ;&st7; " /><path d=" M 3414.30,  154.76  C 3411.96   154.76  3410.06   156.66  3410.06   159.01 " style="stroke-width: 1.42 ;&st7; " /><path d=" M 3422.80,  159.01  C 3422.80   156.66  3420.90   154.76  3418.55   154.76 " style="stroke-width: 1.42 ;&st7; " /><path d=" M 3244.33,  435.21  C 3241.99   435.21  3240.08   437.12  3240.08   439.46 " style="stroke-width: 1.42 ;&st7; " /><path d=" M 3240.08,  439.46  C 3240.08   441.81  3241.99   443.71  3244.33   443.71 " style="stroke-width: 1.42 ;&st7; " /><path d=" M 3248.58,  443.71  C 3250.93   443.71  3252.83   441.81  3252.83   439.46 " style="stroke-width: 1.42 ;&st7; " /><path d=" M 3252.83,  439.46  C 3252.83   437.12  3250.93   435.21  3248.58   435.21 " style="stroke-width: 1.42 ;&st7; " /><path d=" M 3293.48,  329.26  C 3293.48   326.76  3291.45   324.73  3288.95   324.73 " style="stroke-width: 1.42 ;&st7; " /><path d=" M 3288.95,  324.73  C 3286.45   324.73  3284.42   326.76  3284.42   329.26 " style="stroke-width: 1.42 ;&st7; " /><path d=" M 3284.42,  329.26  C 3284.42   331.77  3286.45   333.80  3288.95   333.80 " style="stroke-width: 1.42 ;&st7; " /><path d=" M 3288.95,  333.80  C 3291.45   333.80  3293.48   331.77  3293.48   329.26 " style="stroke-width: 1.42 ;&st7; " /><path d=" M 3157.51,  277.71  C 3157.51   275.20  3155.48   273.17  3152.97   273.17 " style="stroke-width: 1.42 ;&st7; " /><path d=" M 3152.97,  273.17  C 3150.47   273.17  3148.44   275.20  3148.44   277.71 " style="stroke-width: 1.42 ;&st7; " /><path d=" M 3148.44,  277.71  C 3148.44   280.21  3150.47   282.24  3152.97   282.24 " style="stroke-width: 1.42 ;&st7; " /><path d=" M 3152.97,  282.24  C 3155.48   282.24  3157.51   280.21  3157.51   277.71 " style="stroke-width: 1.42 ;&st7; " /><path d=" M 3191.50,  277.71  C 3191.50   275.20  3189.47   273.17  3186.97   273.17 " style="stroke-width: 1.42 ;&st7; " /><path d=" M 3186.97,  273.17  C 3184.46   273.17  3182.43   275.20  3182.43   277.71 " style="stroke-width: 1.42 ;&st7; " /><path d=" M 3182.43,  277.71  C 3182.43   280.21  3184.46   282.24  3186.97   282.24 " style="stroke-width: 1.42 ;&st7; " /><path d=" M 3186.97,  282.24  C 3189.47   282.24  3191.50   280.21  3191.50   277.71 " style="stroke-width: 1.42 ;&st7; " /><path d=" M 3021.53,  329.26  C 3021.53   326.76  3019.50   324.73  3017.00   324.73 " style="stroke-width: 1.42 ;&st7; " /><path d=" M 3017.00,  324.73  C 3014.49   324.73  3012.46   326.76  3012.46   329.26 " style="stroke-width: 1.42 ;&st7; " /><path d=" M 3012.46,  329.26  C 3012.46   331.77  3014.49   333.80  3017.00   333.80 " style="stroke-width: 1.42 ;&st7; " /><path d=" M 3017.00,  333.80  C 3019.50   333.80  3021.53   331.77  3021.53   329.26 " style="stroke-width: 1.42 ;&st7; " /><path d=" M 3055.52,  329.26  C 3055.52   326.76  3053.49   324.73  3050.99   324.73 " style="stroke-width: 1.42 ;&st7; " /><path d=" M 3050.99,  324.73  C 3048.49   324.73  3046.46   326.76  3046.46   329.26 " style="stroke-width: 1.42 ;&st7; " /><path d=" M 3046.46,  329.26  C 3046.46   331.77  3048.49   333.80  3050.99   333.80 " style="stroke-width: 1.42 ;&st7; " /><path d=" M 3050.99,  333.80  C 3053.49   333.80  3055.52   331.77  3055.52   329.26 " style="stroke-width: 1.42 ;&st7; " /><path d=" M 3414.30,  112.27  C 3411.96   112.27  3410.06   114.17  3410.06   116.52 " style="stroke-width: 1.42 ;&st7; " /><path d=" M 3410.06,  159.01  C 3410.06   161.36  3411.96   163.26  3414.30   163.26 " style="stroke-width: 1.42 ;&st7; " /><path d=" M 3378.47,  277.71  C 3378.47   275.20  3376.44   273.17  3373.94   273.17 " style="stroke-width: 1.42 ;&st7; " /><path d=" M 3373.94,  273.17  C 3371.43   273.17  3369.40   275.20  3369.40   277.71 " style="stroke-width: 1.42 ;&st7; " /><path d=" M 3369.40,  277.71  C 3369.40   280.21  3371.43   282.24  3373.94   282.24 " style="stroke-width: 1.42 ;&st7; " /><path d=" M 3373.94,  282.24  C 3376.44   282.24  3378.47   280.21  3378.47   277.71 " style="stroke-width: 1.42 ;&st7; " /><path d=" M 3250.99,  329.26  C 3250.99   326.76  3248.96   324.73  3246.46   324.73 " style="stroke-width: 1.42 ;&st7; " /><path d=" M 3246.46,  324.73  C 3243.95   324.73  3241.92   326.76  3241.92   329.26 " style="stroke-width: 1.42 ;&st7; " /><path d=" M 3241.92,  329.26  C 3241.92   331.77  3243.95   333.80  3246.46   333.80 " style="stroke-width: 1.42 ;&st7; " /><path d=" M 3246.46,  333.80  C 3248.96   333.80  3250.99   331.77  3250.99   329.26 " style="stroke-width: 1.42 ;&st7; " /><path d=" M 3410.06,  116.52  C 3410.06   118.86  3411.96   120.77  3414.30   120.77 " style="stroke-width: 1.42 ;&st7; " /><path d=" M 3418.55,  120.77  C 3420.90   120.77  3422.80   118.86  3422.80   116.52 " style="stroke-width: 1.42 ;&st7; " /><path d=" M 3263.45,   47.11  C 3260.72    48.72  3259.80    52.25  3261.42    54.99 " style="stroke-width: 1.42 ;&st7; " /><path d=" M 3261.42,   54.99  C 3261.94    55.87  3262.57    56.51  3263.45    57.03 " style="stroke-width: 1.42 ;&st7; " /><path d=" M 3263.45,   66.94  C 3266.19    65.33  3267.10    61.80  3265.49    59.06 " style="stroke-width: 1.42 ;&st7; " /><path d=" M 3265.49,   59.06  C 3264.97    58.18  3264.34    57.55  3263.45    57.03 " style="stroke-width: 1.42 ;&st7; " /><path d=" M 3264.87,   45.69  C 3264.87    44.91  3264.24    44.28  3263.45    44.28 " style="stroke-width: 0.85 ;&st7; " /><path d=" M 3263.45,   44.28  C 3262.67    44.28  3262.04    44.91  3262.04    45.69 " style="stroke-width: 0.85 ;&st7; " /><path d=" M 3262.04,   45.69  C 3262.04    46.48  3262.67    47.11  3263.45    47.11 " style="stroke-width: 0.85 ;&st7; " /><path d=" M 3263.45,   47.11  C 3264.24    47.11  3264.87    46.48  3264.87    45.69 " style="stroke-width: 0.85 ;&st7; " /><path d=" M 3264.87,   68.36  C 3264.87    67.57  3264.24    66.94  3263.45    66.94 " style="stroke-width: 0.85 ;&st7; " /><path d=" M 3263.45,   66.94  C 3262.67    66.94  3262.04    67.57  3262.04    68.36 " style="stroke-width: 0.85 ;&st7; " /><path d=" M 3262.04,   68.36  C 3262.04    69.14  3262.67    69.77  3263.45    69.77 " style="stroke-width: 0.85 ;&st7; " /><path d=" M 3263.45,   69.77  C 3264.24    69.77  3264.87    69.14  3264.87    68.36 " style="stroke-width: 0.85 ;&st7; " /><path d=" M 3261.33,   95.27  C 3258.98    95.27  3257.08    97.17  3257.08    99.52 " style="stroke-width: 1.42 ;&st7; " /><path d=" M 3257.08,   99.52  C 3257.08   101.87  3258.98   103.77  3261.33   103.77 " style="stroke-width: 1.42 ;&st7; " /><path d=" M 3269.83,   99.52  C 3269.83    97.17  3267.93    95.27  3265.58    95.27 " style="stroke-width: 1.42 ;&st7; " /><path d=" M 3265.58,  103.77  C 3267.93   103.77  3269.83   101.87  3269.83    99.52 " style="stroke-width: 1.42 ;&st7; " /><path d=" M 3038.53,  277.71  C 3038.53   275.20  3036.50   273.17  3033.99   273.17 " style="stroke-width: 1.42 ;&st7; " /><path d=" M 3033.99,  273.17  C 3031.49   273.17  3029.46   275.20  3029.46   277.71 " style="stroke-width: 1.42 ;&st7; " /><path d=" M 3029.46,  277.71  C 3029.46   280.21  3031.49   282.24  3033.99   282.24 " style="stroke-width: 1.42 ;&st7; " /><path d=" M 3033.99,  282.24  C 3036.50   282.24  3038.53   280.21  3038.53   277.71 " style="stroke-width: 1.42 ;&st7; " /><path d=" M 3072.52,  277.71  C 3072.52   275.20  3070.49   273.17  3067.99   273.17 " style="stroke-width: 1.42 ;&st7; " /><path d=" M 3067.99,  273.17  C 3065.48   273.17  3063.45   275.20  3063.45   277.71 " style="stroke-width: 1.42 ;&st7; " /><path d=" M 3063.45,  277.71  C 3063.45   280.21  3065.48   282.24  3067.99   282.24 " style="stroke-width: 1.42 ;&st7; " /><path d=" M 3067.99,  282.24  C 3070.49   282.24  3072.52   280.21  3072.52   277.71 " style="stroke-width: 1.42 ;&st7; " /><path d=" M 3157.51,  167.79  C 3157.51   165.29  3155.48   163.26  3152.97   163.26 " style="stroke-width: 1.42 ;&st7; " /><path d=" M 3152.97,  163.26  C 3150.47   163.26  3148.44   165.29  3148.44   167.79 " style="stroke-width: 1.42 ;&st7; " /><path d=" M 3148.44,  167.79  C 3148.44   170.29  3150.47   172.32  3152.97   172.32 " style="stroke-width: 1.42 ;&st7; " /><path d=" M 3152.97,  172.32  C 3155.48   172.32  3157.51   170.29  3157.51   167.79 " style="stroke-width: 1.42 ;&st7; " /><path d=" M 3157.51,  176.86  C 3157.51   174.35  3155.48   172.32  3152.97   172.32 " style="stroke-width: 1.42 ;&st7; " /><path d=" M 3152.97,  172.32  C 3150.47   172.32  3148.44   174.35  3148.44   176.86 " style="stroke-width: 1.42 ;&st7; " /><path d=" M 3148.44,  176.86  C 3148.44   179.36  3150.47   181.39  3152.97   181.39 " style="stroke-width: 1.42 ;&st7; " /><path d=" M 3152.97,  181.39  C 3155.48   181.39  3157.51   179.36  3157.51   176.86 " style="stroke-width: 1.42 ;&st7; " /><path d=" M 3157.51,  185.92  C 3157.51   183.42  3155.48   181.39  3152.97   181.39 " style="stroke-width: 1.42 ;&st7; " /><path d=" M 3152.97,  181.39  C 3150.47   181.39  3148.44   183.42  3148.44   185.92 " style="stroke-width: 1.42 ;&st7; " /><path d=" M 3148.44,  185.92  C 3148.44   188.42  3150.47   190.45  3152.97   190.45 " style="stroke-width: 1.42 ;&st7; " /><path d=" M 3152.97,  190.45  C 3155.48   190.45  3157.51   188.42  3157.51   185.92 " style="stroke-width: 1.42 ;&st7; " /><path d=" M 3157.51,  194.99  C 3157.51   192.48  3155.48   190.45  3152.97   190.45 " style="stroke-width: 1.42 ;&st7; " /><path d=" M 3152.97,  190.45  C 3150.47   190.45  3148.44   192.48  3148.44   194.99 " style="stroke-width: 1.42 ;&st7; " /><path d=" M 3148.44,  194.99  C 3148.44   197.49  3150.47   199.52  3152.97   199.52 " style="stroke-width: 1.42 ;&st7; " /><path d=" M 3152.97,  199.52  C 3155.48   199.52  3157.51   197.49  3157.51   194.99 " style="stroke-width: 1.42 ;&st7; " /><path d=" M 3157.51,  204.05  C 3157.51   201.55  3155.48   199.52  3152.97   199.52 " style="stroke-width: 1.42 ;&st7; " /><path d=" M 3152.97,  199.52  C 3150.47   199.52  3148.44   201.55  3148.44   204.05 " style="stroke-width: 1.42 ;&st7; " /><path d=" M 3148.44,  204.05  C 3148.44   206.55  3150.47   208.58  3152.97   208.58 " style="stroke-width: 1.42 ;&st7; " /><path d=" M 3152.97,  208.58  C 3155.48   208.58  3157.51   206.55  3157.51   204.05 " style="stroke-width: 1.42 ;&st7; " /><path d=" M 3191.50,  167.79  C 3191.50   165.29  3189.47   163.26  3186.97   163.26 " style="stroke-width: 1.42 ;&st7; " /><path d=" M 3186.97,  163.26  C 3184.46   163.26  3182.43   165.29  3182.43   167.79 " style="stroke-width: 1.42 ;&st7; " /><path d=" M 3182.43,  167.79  C 3182.43   170.29  3184.46   172.32  3186.97   172.32 " style="stroke-width: 1.42 ;&st7; " /><path d=" M 3186.97,  172.32  C 3189.47   172.32  3191.50   170.29  3191.50   167.79 " style="stroke-width: 1.42 ;&st7; " /><path d=" M 3191.50,  176.86  C 3191.50   174.35  3189.47   172.32  3186.97   172.32 " style="stroke-width: 1.42 ;&st7; " /><path d=" M 3186.97,  172.32  C 3184.46   172.32  3182.43   174.35  3182.43   176.86 " style="stroke-width: 1.42 ;&st7; " /><path d=" M 3182.43,  176.86  C 3182.43   179.36  3184.46   181.39  3186.97   181.39 " style="stroke-width: 1.42 ;&st7; " /><path d=" M 3186.97,  181.39  C 3189.47   181.39  3191.50   179.36  3191.50   176.86 " style="stroke-width: 1.42 ;&st7; " /><path d=" M 3191.50,  185.92  C 3191.50   183.42  3189.47   181.39  3186.97   181.39 " style="stroke-width: 1.42 ;&st7; " /><path d=" M 3186.97,  181.39  C 3184.46   181.39  3182.43   183.42  3182.43   185.92 " style="stroke-width: 1.42 ;&st7; " /><path d=" M 3182.43,  185.92  C 3182.43   188.42  3184.46   190.45  3186.97   190.45 " style="stroke-width: 1.42 ;&st7; " /><path d=" M 3186.97,  190.45  C 3189.47   190.45  3191.50   188.42  3191.50   185.92 " style="stroke-width: 1.42 ;&st7; " /><path d=" M 3191.50,  194.99  C 3191.50   192.48  3189.47   190.45  3186.97   190.45 " style="stroke-width: 1.42 ;&st7; " /><path d=" M 3186.97,  190.45  C 3184.46   190.45  3182.43   192.48  3182.43   194.99 " style="stroke-width: 1.42 ;&st7; " /><path d=" M 3182.43,  194.99  C 3182.43   197.49  3184.46   199.52  3186.97   199.52 " style="stroke-width: 1.42 ;&st7; " /><path d=" M 3186.97,  199.52  C 3189.47   199.52  3191.50   197.49  3191.50   194.99 " style="stroke-width: 1.42 ;&st7; " /><path d=" M 3191.50,  204.05  C 3191.50   201.55  3189.47   199.52  3186.97   199.52 " style="stroke-width: 1.42 ;&st7; " /><path d=" M 3186.97,  199.52  C 3184.46   199.52  3182.43   201.55  3182.43   204.05 " style="stroke-width: 1.42 ;&st7; " /><path d=" M 3182.43,  204.05  C 3182.43   206.55  3184.46   208.58  3186.97   208.58 " style="stroke-width: 1.42 ;&st7; " /><path d=" M 3186.97,  208.58  C 3189.47   208.58  3191.50   206.55  3191.50   204.05 " style="stroke-width: 1.42 ;&st7; " /><text style="&st18;" transform="matrix(&st16;  3254.34  32.08 )">(BAT)</text><text style="&st18;" transform="matrix(&st16;  3141.95  118.46 )">A 9(A),(B),(C),A45(E),A48(D)</text><text style="&st18;" transform="matrix(&st16;  3241.72  441.43 )">2Q</text><text style="&st18;" transform="matrix(&st16;  3229.81  441.43 )">32</text><text style="&st18;" transform="matrix(&st17;  3242.76  463.04 )">P</text><text style="&st18;" transform="matrix(&st16;  3278.1  331.23 )">3</text><text style="&st18;" transform="matrix(&st16;  3287.18  331.23 )">J</text><text style="&st18;" transform="matrix(&st16;  3283.58  321.03 )">DM</text><text style="&st18;" transform="matrix(&st17;  3285.26  374.32 )">G-B</text><text ewd:textID="19" style="&st18;" transform="matrix(&st16;  3141.95  125.57 )">A/C Amplifier</text><text style="&st18;" transform="matrix(&st16;  3146.58  289.87 )">AC1</text><text style="&st18;" transform="matrix(&st16;  3150.64  279.67 )">K</text><text style="&st18;" transform="matrix(&st16;  3138.95  279.67 )">18</text><text style="&st18;" transform="matrix(&st17;  3149.28  248.26 )">Y(*4)</text><text style="&st18;" transform="matrix(&st16;  3146.58  159.56 )">AC1</text><text style="&st18;" transform="matrix(&st16;  3150.64  169.76 )">A</text><text style="&st18;" transform="matrix(&st16;  3138.14  169.76 )">35</text><text style="&st18;" transform="matrix(&st16;  3172.13  169.76 )">39</text><text style="&st18;" transform="matrix(&st16;  3180.04  159.56 )">ACT</text><text style="&st18;" transform="matrix(&st16;  3184.64  279.67 )">K</text><text style="&st18;" transform="matrix(&st16;  3180.04  289.87 )">ACT</text><text style="&st18;" transform="matrix(&st16;  3184.64  169.76 )">A</text><text style="&st18;" transform="matrix(&st17;  3183.27  252.39 )">R-L(*4)</text><text style="&st18;" transform="matrix(&st16;  3172.94  279.67 )">19</text><text style="&st18;" transform="matrix(&st16;  3138.92  178.82 )">14</text><text style="&st18;" transform="matrix(&st16;  3150.64  178.82 )">B</text><text style="&st18;" transform="matrix(&st16;  3176.09  178.82 )">2</text><text style="&st18;" transform="matrix(&st16;  3184.64  178.82 )">B</text><text style="&st18;" transform="matrix(&st16;  3192.94  178.82 )">(*6)</text><text style="&st18;" transform="matrix(&st16;  3008.38  321.03 )">OILM</text><text style="&st18;" transform="matrix(&st16;  3014.66  331.23 )">K</text><text style="&st18;" transform="matrix(&st16;  3002.94  331.23 )">31</text><text style="&st18;" transform="matrix(&st16;  3027.21  185.06 )">AC2</text><text style="&st18;" transform="matrix(&st16;  3061.06  185.06 )">ACT</text><text ewd:textID="60" style="&st18;" transform="matrix(&st16;  3022.97  145.11 )">Viscous Heater <tspan dy="6" x="0">Amplifier</tspan></text><text style="&st18;" transform="matrix(&st16;  3022.97  138.01 )">V 6</text><text style="&st18;" transform="matrix(&st16;  3027.2  196.95 )">5</text><text style="&st18;" transform="matrix(&st16;  3058.02  196.95 )">12</text><text style="&st18;" transform="matrix(&st16;  3150.5  187.89 )">C</text><text style="&st18;" transform="matrix(&st16;  3138.14  187.89 )">35</text><text style="&st18;" transform="matrix(&st16;  3176.99  465.52 )">12</text><text style="&st18;" transform="matrix(&st16;  3138.17  331.23 )">30</text><text style="&st18;" transform="matrix(&st16;  3150.64  331.23 )">K</text><text style="&st18;" transform="matrix(&st16;  3230.59  398.94 )">16</text><text style="&st18;" transform="matrix(&st16;  3241.72  398.94 )">2Q</text><text style="&st18;" transform="matrix(&st17;  3463.73  306.94 )">B-W</text><text style="&st18;" transform="matrix(&st16;  3450.77  160.98 )">22</text><text style="&st18;" transform="matrix(&st16;  3462.69  160.98 )">2O</text><text style="&st18;" transform="matrix(&st17;  3412.73  374.04 )">R-B</text><text style="&st18;" transform="matrix(&st16;  3413.07  321.03 )">W</text><text style="&st18;" transform="matrix(&st16;  3402.39  466.93 )">1</text><text style="&st18;" transform="matrix(&st16;  3414.66  331.23 )">J</text><text style="&st18;" transform="matrix(&st16;  3402.4  331.23 )">12</text><text style="&st18;" transform="matrix(&st17;  3370.24  246.42 )">P-B</text><text style="&st18;" transform="matrix(&st16;  3361.25  160.98 )">5</text><text style="&st18;" transform="matrix(&st16;  3369.2  160.98 )">2Q</text><text style="&st18;" transform="matrix(&st16;  3358.07  118.49 )">21</text><text style="&st18;" transform="matrix(&st16;  3369.2  118.49 )">2Q</text><text style="&st18;" transform="matrix(&st16;  3409.51  66.08 )">TAC</text><text style="&st18;" transform="matrix(&st17;  3412.73  102.97 )">B-W</text><text style="&st18;" transform="matrix(&st16;  3371.41  24.98 )">D 1</text><text style="&st18;" transform="matrix(&st16;  3317.42  331.23 )">17</text><text style="&st18;" transform="matrix(&st16;  3329.11  331.23 )">K</text><text style="&st18;" transform="matrix(&st17;  3370.24  101.94 )">P-B</text><text style="&st18;" transform="matrix(&st16;  3487.83  66.08 )">SG</text><text style="&st18;" transform="matrix(&st16;  3486.13  77.97 )">5</text><text style="&st18;" transform="matrix(&st17;  3489.22  304.04 )">BR</text><text style="&st18;" transform="matrix(&st16;  3405.58  279.67 )">4</text><text style="&st18;" transform="matrix(&st16;  3411.7  118.49 )">2O</text><text style="&st18;" transform="matrix(&st16;  3403.74  118.49 )">6</text><text style="&st18;" transform="matrix(&st16;  3369.34  289.87 )">TC</text><text style="&st18;" transform="matrix(&st16;  3414.66  279.67 )">J</text><text style="&st18;" transform="matrix(&st16;  3363.97  77.97 )">13</text><text style="&st18;" transform="matrix(&st16;  3369.34  66.08 )">TC</text><text style="&st18;" transform="matrix(&st16;  3407.03  289.87 )">TACH</text><text style="&st18;" transform="matrix(&st16;  3324.31  321.03 )">SPD</text><text style="&st18;" transform="matrix(&st17;  3327.75  374.04 )">V-R</text><text style="&st18;" transform="matrix(&st17;  3242.76  369.55 )">P</text><text style="&st18;" transform="matrix(&st16;  3235.75  321.03 )">THWO</text><text style="&st18;" transform="matrix(&st17;  3412.73  247.45 )">B-W</text><text style="&st18;" transform="matrix(&st16;  3409.64  77.97 )">9</text><text style="&st18;" transform="matrix(&st16;  3372.17  279.67 )">J</text><text style="&st18;" transform="matrix(&st16;  3360.69  279.67 )">11</text><text style="&st18;" transform="matrix(&st16;  3403.74  160.98 )">6</text><text style="&st18;" transform="matrix(&st16;  3474.92  373.44 )">18</text><text style="&st18;" transform="matrix(&st16;  3244.69  331.23 )">J</text><text style="&st18;" transform="matrix(&st16;  3411.98  160.98 )">2N</text><text style="&st18;" transform="matrix(&st16;  3235.61  331.23 )">2</text><text style="&st18;" transform="matrix(&st16;  3280.76  56.17 )">7.5A <tspan dy="6" x="0">OBD</tspan></text><text style="&st18;" transform="matrix(&st16;  3259.0  101.49 )">2D</text><text style="&st18;" transform="matrix(&st16;  3247.59  101.49 )">14</text><text style="&st18;" transform="matrix(&st17;  3149.28  374.32 )">Y-G</text><text style="&st18;" transform="matrix(&st16;  3143.0  465.52 )">13</text><text style="&st18;" transform="matrix(&st16;  3172.16  331.23 )">29</text><text style="&st18;" transform="matrix(&st16;  3184.64  331.23 )">K</text><text style="&st18;" transform="matrix(&st17;  3370.24  374.04 )">Y-R</text><text style="&st18;" transform="matrix(&st16;  3365.25  321.03 )">GIND</text><text style="&st18;" transform="matrix(&st16;  3372.17  331.23 )">J</text><text style="&st18;" transform="matrix(&st16;  3359.91  331.23 )">14</text><text style="&st18;" transform="matrix(&st17;  3183.27  373.9 )">Y-B</text><text style="&st18;" transform="matrix(&st16;  3371.41  32.08 )">DLC3</text><text style="&st18;" transform="matrix(&st16;  3148.1  321.03 )">IMI</text><text style="&st18;" transform="matrix(&st16;  3180.33  321.03 )">IMO</text><text style="&st18;" transform="matrix(&st16;  3141.95  510.81 )">T21</text><text style="&st18;" transform="matrix(&st16;  3180.54  476.84 )">EFII</text><text style="&st18;" transform="matrix(&st16;  3144.78  476.84 )">EFIO</text><text ewd:textID="53" style="&st18;" transform="matrix(&st16;  3141.95  517.92 )">Transponder Key ECU</text><text style="&st18;" transform="matrix(&st17;  3013.3  382.04 )">P-L</text><text ewd:textID="25" style="&st18;" transform="matrix(&st17;  3016.15  460.92 )">Combination <tspan dy="6" x="0">Meter</tspan></text><text style="&st18;" transform="matrix(&st16;  3019.94  279.67 )">13</text><text style="&st18;" transform="matrix(&st16;  3031.66  279.67 )">K</text><text style="&st18;" transform="matrix(&st16;  3057.11  279.67 )">4</text><text style="&st18;" transform="matrix(&st16;  3065.66  279.67 )">K</text><text style="&st18;" transform="matrix(&st16;  3026.72  289.87 )">VCH</text><text style="&st18;" transform="matrix(&st16;  3061.06  289.87 )">VCT</text><text style="&st18;" transform="matrix(&st16;  3329.97  77.97 )">16</text><text style="&st18;" transform="matrix(&st16;  3333.16  66.08 )">BAT</text><text style="&st18;" transform="matrix(&st16;  3294.69  142.56 )">G</text><text style="&st18;" transform="matrix(&st17;  3489.22  423.02 )">BR</text><text style="&st18;" transform="matrix(&st16;  3131.17  609.99 )">BR</text><text style="&st18;" transform="matrix(&st16;  3080.18  609.99 )">BR</text><text style="&st18;" transform="matrix(&st16;  3131.17  626.98 )">BR</text><text style="&st18;" transform="matrix(&st16;  3080.18  626.98 )">BR</text><text style="&st18;" transform="matrix(&st17;  3047.3  383.07 )">L-W</text><text style="&st18;" transform="matrix(&st17;  3058.63  381.9 )">(*3)</text><text style="&st18;" transform="matrix(&st16;  3138.14  196.96 )">35</text><text style="&st18;" transform="matrix(&st16;  3150.5  196.96 )">D</text><text style="&st18;" transform="matrix(&st16;  3138.14  206.02 )">35</text><text style="&st18;" transform="matrix(&st16;  3150.64  206.02 )">E</text><text style="&st18;" transform="matrix(&st16;  3192.94  196.96 )">(*11 *10)</text><text style="&st18;" transform="matrix(&st16;  3172.13  196.96 )">39</text><text style="&st18;" transform="matrix(&st16;  3184.49  196.96 )">D</text><text style="&st18;" transform="matrix(&st16;  3192.94  206.02 )">(*7 *10)</text><text style="&st18;" transform="matrix(&st16;  3172.13  206.02 )">39</text><text style="&st18;" transform="matrix(&st16;  3184.64  206.02 )">E</text><text style="&st18;" transform="matrix(&st16;  3184.49  187.89 )">C</text><text style="&st18;" transform="matrix(&st16;  3172.13  187.89 )">39</text><text style="&st18;" transform="matrix(&st16;  3036.93  331.23 )">16</text><text style="&st18;" transform="matrix(&st16;  3048.66  331.23 )">K</text><text style="&st18;" transform="matrix(&st16;  3042.83  321.03 )">HSW</text><text ewd:textID="19" style="&st18;" transform="matrix(&st17;  3052.97  463.56 )">A/C Amplifier</text><text style="&st18;" transform="matrix(&st16;  3192.94  169.76 )">(*8 *9)</text><text style="&st18;" transform="matrix(&st16;  3192.94  187.89 )">(*7 *9)</text><text style="&st18;" transform="matrix(&st17;  3064.29  235.39 )">R-L(*2)</text><text style="&st18;" transform="matrix(&st17;  3030.3  233.73 )">BR(*2)</text><text style="&st18;" transform="matrix(&st17;  3296.59  373.4 )">(*5)</text><text style="&st18;" transform="matrix(&st16;  3218.44  302.6 )">E 5(J),E 6(K),E 7(L),E 8(M)</text><text ewd:textID="30" style="&st18;" transform="matrix(&st16;  3218.44  309.7 )">Engine ECU</text><text style="&st18;" transform="matrix(&st17;  3424.07  373.4 )">(*9)</text><text style="&st18;" transform="matrix(&st17;  3438.23  374.04 )">R-B</text><text style="&st18;" transform="matrix(&st17;  3449.56  374.99 )">(*10)</text></svg>