﻿<?xml version="1.0" encoding="utf-8"?>
<!DOCTYPE svg PUBLIC "-//W3C//DTD SVG 1.0//EN" "http://www.w3.org/TR/2001/REC-SVG-20010904/DTD/svg10.dtd"[
	<!ENTITY ns_flows "http://ns.adobe.com/Flows/1.0/">
	<!ENTITY ns_svg "http://www.w3.org/2000/svg">
	<!ENTITY ns_xlink "http://www.w3.org/1999/xlink">
	<!ENTITY st0 "font-size:7px;font-family:'MS-PGothic';adobe-font-script:japanese;">
	<!ENTITY st1 "font-size:6px;font-family:'ArialMT';">
	<!-- White fill  -->
	<!ENTITY st2 "fill:#FFFFFF;stroke:#000000; stroke-width:1.41;stroke-linecap:round;stroke-linejoin:round;">
	<!-- Yellow fill  -->
	<!ENTITY st3 "fill:#FFFFCC;stroke:#FFFFCC; stroke-width:0.1;stroke-linecap:round;stroke-linejoin:round;">
	<!-- Gray fill  -->
	<!ENTITY st4 "fill:#CCCCCC;stroke:#CCCCCC; stroke-width:0.1;stroke-linecap:round;stroke-linejoin:round;">
	<!-- Light-blue fill -->
	<!ENTITY st5 "fill:#CCECF4;stroke:#000000; stroke-width:1.133;stroke-linecap:round;stroke-linejoin:round;">
	<!ENTITY st6 "fill:none;stroke-linecap:butt; stroke-linejoin:round;">
	<!ENTITY st7 "fill:none;stroke:#000000;stroke-linecap:round;stroke-linejoin:round;">
	<!ENTITY st8 "enable-background:new    ;">
	<!-- Black fill -->
	<!ENTITY st9 "fill:#000000;stroke:#000000; stroke-linecap:round;stroke-linejoin:round;">
	<!-- SRS note   -->
	<!ENTITY st10 "font-size:9px;font-family:'ArialMT';">
	<!ENTITY st11 "font-size:9px;font-family:'Svg Symbol';">
	<!ENTITY st12 "font-size:6px;font-family:'Svg Symbol';">
	<!ENTITY st13 "fill:none;stroke:#ff0000;stroke-linecap:round;stroke-linejoin:round;">
	<!-- Yellow fill  -->
	<!ENTITY st14 "fill:#FFFF00;stroke:#FFFF00; stroke-width:0.1;stroke-linecap:round;stroke-linejoin:round;">
	<!ENTITY st15 "font-size:6px;font-family:'MS-PGothic';adobe-font-script:japanese;">
	<!ENTITY st16 "1.00 0.00 0.00 1.00">
	<!ENTITY st17 "0.00 -1.00 1.00 0.00">
	<!ENTITY st18 "font-size:6px;font-family:'Arial';">
	<!ENTITY st19 "font-size:9px;font-family:'Arial';">
	<!ENTITY st20 "font-size:6px;font-family:'MS-PGothic','MS PGothic';adobe-font-script:japanese;">
	<!ENTITY st21 "font-size:7px;font-family:'MS-PGothic','MS PGothic';adobe-font-script:japanese;">
	<!ATTLIST svg
		xmlns:ewd CDATA #FIXED "http://shcl.co.jp/ewd"
		xmlns:a CDATA #FIXED "http://ns.adobe.com/AdobeSVGViewerExtensions/3.0/"
		ewd:ver CDATA #IMPLIED
	>
	<!ATTLIST a
		ewd:lineID CDATA #IMPLIED
		ewd:groupID CDATA #IMPLIED
		ewd:figtype CDATA #IMPLIED
		ewd:code CDATA #IMPLIED
		ewd:figID CDATA #IMPLIED
		ewd:pinNo CDATA #IMPLIED
		ewd:comment CDATA #IMPLIED >
	<!ATTLIST g
		ewd:lineID CDATA #IMPLIED
		ewd:groupID CDATA #IMPLIED
		ewd:figtype CDATA #IMPLIED
		ewd:code CDATA #IMPLIED
		ewd:figID CDATA #IMPLIED
		ewd:pinNo CDATA #IMPLIED
		ewd:comment CDATA #IMPLIED >
	<!ATTLIST text
		ewd:textID CDATA #IMPLIED >
	<!ATTLIST title
		ewd:textID CDATA #IMPLIED >
]>
<!-- Generator: Shintec Hozumi YS   -->
<svg onload="call_execInitLoadProc_svg('system')" style="overflow:visible;  enable-background:new 0 0 4122.520 710.000" viewBox="0 0 4122.520 710.000" height="710.000" width="4122.520" xml:space="preserve" ewd:ver="L2.1.2.7" xmlns="&ns_svg;" xmlns:a="http://ns.adobe.com/AdobeSVGViewerExtensions/3.0/" xmlns:ewd="http://shcl.co.jp/ewd" xmlns:xlink="&ns_xlink;">
<path d=" M 2303.12,  571.76  L 2303.12,  622.18  L 2813.03,  622.18  L 2813.03,  401.22 " style="stroke:#000000;stroke-width: 0.85 ;&st7;stroke-dasharray:3, 1.5;" /><path d=" M 2354.11,  519.63  L 2354.11,  392.72  L 2643.06,  392.72 " style="stroke:#000000;stroke-width: 0.85 ;&st7;stroke-dasharray:3, 1.5;" /><path d=" M 2167.14,  188.75  L 2167.14,  176.01 " style="stroke-width: 0.85 ;&st7; " /><path d=" M 2169.97,  166.09  L 2164.31,  168.92 " style="stroke-width: 0.85 ;&st7; " /><path d=" M 2164.31,  168.92  L 2169.97,  171.76 " style="stroke-width: 0.85 ;&st7; " /><path d=" M 2167.14,  159.01  L 2169.97,  160.43 " style="stroke-width: 0.85 ;&st7; " /><path d=" M 2164.31,  174.59  L 2167.14,  176.01 " style="stroke-width: 0.85 ;&st7; " /><path d=" M 2167.14,  159.01  L 2167.14,  146.26 " style="stroke-width: 0.85 ;&st7; " /><path d=" M 2158.64,  159.01  L 2158.64,  176.01 " style="stroke-width: 0.85 ;&st7; " /><path d=" M 2175.64,  159.01  L 2175.64,  176.01 " style="stroke-width: 0.85 ;&st7; " /><path d=" M 2226.63,   39.31  L 2231.60,   44.28 " style="stroke-width: 1.42 ;&st7; " /><path d=" M 2238.65,   44.28  L 2243.63,   39.31 " style="stroke-width: 1.42 ;&st7; " /><path d=" M 2231.60,   27.28  L 2226.63,   32.25 " style="stroke-width: 1.42 ;&st7; " /><path d=" M 2379.60,   32.25  L 2374.63,   27.28 " style="stroke-width: 1.42 ;&st7; " /><path d=" M 2362.61,   39.31  L 2367.57,   44.28 " style="stroke-width: 1.42 ;&st7; " /><path d=" M 2374.63,   44.28  L 2379.60,   39.31 " style="stroke-width: 1.42 ;&st7; " /><path d=" M 2367.58,   27.28  L 2362.61,   32.25 " style="stroke-width: 1.42 ;&st7; " /><path d=" M 2141.64,   32.25  L 2136.67,   27.28 " style="stroke-width: 1.42 ;&st7; " /><path d=" M 2124.65,   39.31  L 2129.61,   44.28 " style="stroke-width: 1.42 ;&st7; " /><path d=" M 2136.67,   44.28  L 2141.64,   39.31 " style="stroke-width: 1.42 ;&st7; " /><path d=" M 2129.62,   27.28  L 2124.65,   32.25 " style="stroke-width: 1.42 ;&st7; " /><path d=" M 2141.64,   83.24  L 2136.67,   78.27 " style="stroke-width: 1.42 ;&st7; " /><path d=" M 2124.65,   90.30  L 2129.61,   95.27 " style="stroke-width: 1.42 ;&st7; " /><path d=" M 2136.67,   95.27  L 2141.64,   90.30 " style="stroke-width: 1.42 ;&st7; " /><path d=" M 2129.62,   78.27  L 2124.65,   83.24 " style="stroke-width: 1.42 ;&st7; " /><path d=" M 2456.09,   32.25  L 2451.12,   27.28 " style="stroke-width: 1.42 ;&st7; " /><path d=" M 2439.09,   39.31  L 2444.06,   44.28 " style="stroke-width: 1.42 ;&st7; " /><path d=" M 2451.12,   44.28  L 2456.09,   39.31 " style="stroke-width: 1.42 ;&st7; " /><path d=" M 2444.06,   27.28  L 2439.09,   32.25 " style="stroke-width: 1.42 ;&st7; " /><path d=" M 2277.62,  219.22  L 2272.65,  214.25 " style="stroke-width: 1.42 ;&st7; " /><path d=" M 2260.62,  226.28  L 2265.59,  231.25 " style="stroke-width: 1.42 ;&st7; " /><path d=" M 2272.65,  231.25  L 2277.62,  226.28 " style="stroke-width: 1.42 ;&st7; " /><path d=" M 2265.59,  214.25  L 2260.62,  219.22 " style="stroke-width: 1.42 ;&st7; " /><path d=" M 2379.60,  219.22  L 2374.63,  214.25 " style="stroke-width: 1.42 ;&st7; " /><path d=" M 2362.61,  226.28  L 2367.57,  231.25 " style="stroke-width: 1.42 ;&st7; " /><path d=" M 2374.63,  231.25  L 2379.60,  226.28 " style="stroke-width: 1.42 ;&st7; " /><path d=" M 2367.58,  214.25  L 2362.61,  219.22 " style="stroke-width: 1.42 ;&st7; " /><path d=" M 2243.63,   32.25  L 2238.65,   27.28 " style="stroke-width: 1.42 ;&st7; " /><path d=" M 2169.97,  160.43  L 2164.31,  163.26 " style="stroke-width: 0.85 ;&st7; " /><path d=" M 2164.31,  163.26  L 2169.97,  166.09 " style="stroke-width: 0.85 ;&st7; " /><path d=" M 2169.97,  171.76  L 2164.31,  174.59 " style="stroke-width: 0.85 ;&st7; " /><path d=" M 2575.07,  112.27  L 2430.59,  112.27  L 2430.59,  146.26  L 2575.07,  146.26  L 2575.07,  112.27 " style="stroke-width: 1.42 ;&st7; " /><path d=" M 2286.12,  112.27  L 2218.13,  112.27  L 2218.13,  146.26  L 2286.12,  146.26  L 2286.12,  112.27 " style="stroke-width: 1.42 ;&st7; " /><path d=" M 2154.39,  188.75  L 2154.39,  146.26  L 2179.88,  146.26  L 2179.88,  188.75  L 2154.39,  188.75 " style="stroke-width: 1.42 ;&st7; " /><path d=" M 2352.91,  544.69  L 2352.64,  545.16  L 2352.55,  545.69  L 2352.64,  546.23  L 2352.91,  546.70  L 2353.33,  547.04  L 2353.83,  547.23  L 2354.38,  547.23  L 2354.88,  547.04  L 2355.30,  546.70  L 2355.57,  546.23  L 2355.66,  545.69  L 2355.57,  545.16  L 2355.30,  544.69  L 2354.88,  544.35  L 2354.38,  544.16  L 2353.83,  544.16  L 2353.33,  544.35  L 2352.91,  544.69  L 2353.31,  545.40  L 2353.31,  545.99  L 2353.68,  546.43  L 2354.25,  546.53  L 2354.76,  546.24  L 2354.96,  545.69  L 2354.76,  545.15  L 2354.25,  544.86  L 2353.68,  544.96  L 2354.11,  545.69 " style="stroke-width: 0.85 ;&st7; " /><path d=" M 2301.92,  544.69  L 2301.65,  545.16  L 2301.56,  545.69  L 2301.65,  546.23  L 2301.92,  546.70  L 2302.34,  547.04  L 2302.84,  547.23  L 2303.39,  547.23  L 2303.89,  547.04  L 2304.31,  546.70  L 2304.58,  546.23  L 2304.67,  545.69  L 2304.58,  545.16  L 2304.31,  544.69  L 2303.89,  544.35  L 2303.39,  544.16  L 2302.84,  544.16  L 2302.34,  544.35  L 2301.92,  544.69  L 2302.32,  545.40  L 2302.32,  545.99  L 2302.69,  546.43  L 2303.26,  546.53  L 2303.77,  546.24  L 2303.96,  545.69  L 2303.77,  545.15  L 2303.26,  544.86  L 2302.69,  544.96  L 2303.11,  545.69 " style="stroke-width: 0.85 ;&st7; " /><path d=" M 2354.11,  562.69  L 2354.11,  528.70 " style="stroke-width: 0.85 ;&st7; " /><path d=" M 2328.61,  562.69  L 2328.61,  528.70 " style="stroke-width: 0.85 ;&st7; " /><path d=" M 2158.64,  528.70  L 2362.60,  528.70  L 2362.60,  562.69  L 2158.64,  562.69  L 2158.64,  528.70 " style="stroke-width: 1.42 ;&st7; " /><path d=" M 2226.63,  545.69  L 2226.63,  528.70 " style="stroke-width: 0.85 ;&st7; " /><path d=" M 2252.12,  545.69  L 2252.12,  528.70 " style="stroke-width: 0.85 ;&st7; " /><path d=" M 2354.11,  545.69  L 2226.63,  545.69 " style="stroke-width: 0.85 ;&st7; " /><path d=" M 2362.60,  537.20  L 2158.64,  537.20 " style="stroke-width: 1.13 ;&st7;stroke-dasharray:3, 1.5;" /><path d=" M 2362.60,  554.19  L 2158.64,  554.19 " style="stroke-width: 1.13 ;&st7;stroke-dasharray:3, 1.5;" /><path d=" M 2303.11,  562.69  L 2303.11,  528.70 " style="stroke-width: 0.85 ;&st7; " /><path d=" M 2277.62,  562.69  L 2277.62,  528.70 " style="stroke-width: 0.85 ;&st7; " /><path d=" M 2327.42,  544.69  L 2327.15,  545.16  L 2327.05,  545.69  L 2327.15,  546.23  L 2327.42,  546.70  L 2327.83,  547.04  L 2328.34,  547.23  L 2328.88,  547.23  L 2329.39,  547.04  L 2329.80,  546.70  L 2330.07,  546.23  L 2330.17,  545.69  L 2330.07,  545.16  L 2329.80,  544.69  L 2329.39,  544.35  L 2328.88,  544.16  L 2328.34,  544.16  L 2327.83,  544.35  L 2327.42,  544.69  L 2327.81,  545.40  L 2327.81,  545.99  L 2328.19,  546.43  L 2328.76,  546.53  L 2329.26,  546.24  L 2329.46,  545.69  L 2329.26,  545.15  L 2328.76,  544.86  L 2328.19,  544.96  L 2328.61,  545.69 " style="stroke-width: 0.85 ;&st7; " /><path d=" M 2276.43,  544.69  L 2276.15,  545.16  L 2276.06,  545.69  L 2276.15,  546.23  L 2276.43,  546.70  L 2276.84,  547.04  L 2277.35,  547.23  L 2277.89,  547.23  L 2278.40,  547.04  L 2278.81,  546.70  L 2279.08,  546.23  L 2279.18,  545.69  L 2279.08,  545.16  L 2278.81,  544.69  L 2278.40,  544.35  L 2277.89,  544.16  L 2277.35,  544.16  L 2276.84,  544.35  L 2276.43,  544.69  L 2276.82,  545.40  L 2276.82,  545.99  L 2277.19,  546.43  L 2277.77,  546.53  L 2278.27,  546.24  L 2278.47,  545.69  L 2278.27,  545.15  L 2277.77,  544.86  L 2277.19,  544.96  L 2277.62,  545.69 " style="stroke-width: 0.85 ;&st7; " /><path d=" M 2250.93,  544.69  L 2250.66,  545.16  L 2250.56,  545.69  L 2250.66,  546.23  L 2250.93,  546.70  L 2251.34,  547.04  L 2251.85,  547.23  L 2252.39,  547.23  L 2252.90,  547.04  L 2253.32,  546.70  L 2253.59,  546.23  L 2253.68,  545.69  L 2253.59,  545.16  L 2253.32,  544.69  L 2252.90,  544.35  L 2252.39,  544.16  L 2251.85,  544.16  L 2251.34,  544.35  L 2250.93,  544.69  L 2251.32,  545.40  L 2251.32,  545.99  L 2251.70,  546.43  L 2252.27,  546.53  L 2252.77,  546.24  L 2252.97,  545.69  L 2252.77,  545.15  L 2252.27,  544.86  L 2251.70,  544.96  L 2252.12,  545.69 " style="stroke-width: 0.85 ;&st7; " /><path d=" M 2320.11,  112.27  L 2320.11,  146.26  L 2388.10,  146.26  L 2388.10,  112.27  L 2320.11,  112.27 " style="stroke-width: 1.42 ;&st7; " /><path d=" M 2368.27,  127.85  L 2328.61,  127.85  L 2328.61,  146.26 " style="stroke-width: 0.85 ;&st7; " /><path d=" M 2368.27,  127.85  L 2364.73,  129.31  L 2364.73,  126.38  L 2368.27,  127.85  L 2366.79,  127.85  L 2365.30,  128.47  L 2365.30,  127.23  L 2366.79,  127.85  L 2366.05,  127.85  L 2365.58,  128.04  L 2365.58,  127.65  L 2366.05,  127.85 " style="stroke-width: 0.85 ;&st7; " /><path d=" M 2371.10,  112.27  L 2371.10,  120.77  L 2368.27,  122.18  L 2373.94,  125.01  L 2368.27,  127.85  L 2373.94,  130.68  L 2368.27,  133.51  L 2373.94,  136.35  L 2371.10,  137.76  L 2371.10,  146.26 " style="stroke-width: 0.85 ;&st7; " /><path d=" M 2167.14,  528.70  L 2167.14,  545.69  L 2192.63,  545.69  L 2192.63,  528.70 " style="stroke-width: 0.85 ;&st7; " /><path d=" M 2430.59,  545.69  L 2430.59,  528.70  L 2549.57,  528.70  L 2549.57,  545.69  L 2430.59,  545.69 " style="stroke-width: 1.42 ;&st7; " /><path d=" M 2439.09,  537.20  L 2439.09,  545.69 " style="stroke-width: 0.85 ;&st7; " /><path d=" M 2541.07,  537.20  L 2439.09,  537.20 " style="stroke-width: 0.85 ;&st7; " /><path d=" M 2464.59,  528.70  L 2464.59,  545.69 " style="stroke-width: 0.85 ;&st7; " /><path d=" M 2490.08,  528.70  L 2490.08,  545.69 " style="stroke-width: 0.85 ;&st7; " /><path d=" M 2488.89,  536.19  L 2488.62,  536.66  L 2488.52,  537.20  L 2488.62,  537.73  L 2488.89,  538.20  L 2489.30,  538.54  L 2489.81,  538.73  L 2490.35,  538.73  L 2490.86,  538.54  L 2491.28,  538.20  L 2491.55,  537.73  L 2491.64,  537.20  L 2491.55,  536.66  L 2491.28,  536.19  L 2490.86,  535.85  L 2490.35,  535.66  L 2489.81,  535.66  L 2489.30,  535.85  L 2488.89,  536.19  L 2489.28,  536.90  L 2489.28,  537.49  L 2489.66,  537.93  L 2490.23,  538.03  L 2490.73,  537.74  L 2490.93,  537.20  L 2490.73,  536.65  L 2490.23,  536.36  L 2489.66,  536.46  L 2490.08,  537.20 " style="stroke-width: 0.85 ;&st7; " /><path d=" M 2463.39,  536.19  L 2463.12,  536.66  L 2463.03,  537.20  L 2463.12,  537.73  L 2463.39,  538.20  L 2463.81,  538.54  L 2464.32,  538.73  L 2464.86,  538.73  L 2465.37,  538.54  L 2465.78,  538.20  L 2466.05,  537.73  L 2466.15,  537.20  L 2466.05,  536.66  L 2465.78,  536.19  L 2465.37,  535.85  L 2464.86,  535.66  L 2464.32,  535.66  L 2463.81,  535.85  L 2463.39,  536.19  L 2463.79,  536.90  L 2463.79,  537.49  L 2464.16,  537.93  L 2464.73,  538.03  L 2465.24,  537.74  L 2465.44,  537.20  L 2465.24,  536.65  L 2464.73,  536.36  L 2464.16,  536.46  L 2464.59,  537.20 " style="stroke-width: 0.85 ;&st7; " /><path d=" M 2035.69,  184.79  C 2035.69   182.28  2033.66   180.26  2031.16   180.26 " style="stroke-width: 1.42 ;&st7; " /><path d=" M 2031.16,  180.26  C 2028.66   180.26  2026.63   182.28  2026.63   184.79 " style="stroke-width: 1.42 ;&st7; " /><path d=" M 2026.63,  184.79  C 2026.63   187.29  2028.66   189.32  2031.16   189.32 " style="stroke-width: 1.42 ;&st7; " /><path d=" M 2031.16,  189.32  C 2033.66   189.32  2035.69   187.29  2035.69   184.79 " style="stroke-width: 1.42 ;&st7; " /><path d=" M 2375.64,  277.71  C 2375.64   275.20  2373.61   273.17  2371.10   273.17 " style="stroke-width: 1.42 ;&st7; " /><path d=" M 2371.10,  273.17  C 2368.60   273.17  2366.57   275.20  2366.57   277.71 " style="stroke-width: 1.42 ;&st7; " /><path d=" M 2366.57,  277.71  C 2366.57   280.21  2368.60   282.24  2371.10   282.24 " style="stroke-width: 1.42 ;&st7; " /><path d=" M 2371.10,  282.24  C 2373.61   282.24  2375.64   280.21  2375.64   277.71 " style="stroke-width: 1.42 ;&st7; " /><path d=" M 2239.66,  277.71  C 2239.66   275.20  2237.63   273.17  2235.13   273.17 " style="stroke-width: 1.42 ;&st7; " /><path d=" M 2235.13,  273.17  C 2232.62   273.17  2230.59   275.20  2230.59   277.71 " style="stroke-width: 1.42 ;&st7; " /><path d=" M 2230.59,  277.71  C 2230.59   280.21  2232.62   282.24  2235.13   282.24 " style="stroke-width: 1.42 ;&st7; " /><path d=" M 2235.13,  282.24  C 2237.63   282.24  2239.66   280.21  2239.66   277.71 " style="stroke-width: 1.42 ;&st7; " /><path d=" M 2171.67,  277.71  C 2171.67   275.20  2169.64   273.17  2167.14   273.17 " style="stroke-width: 1.42 ;&st7; " /><path d=" M 2167.14,  273.17  C 2164.63   273.17  2162.61   275.20  2162.61   277.71 " style="stroke-width: 1.42 ;&st7; " /><path d=" M 2162.61,  277.71  C 2162.61   280.21  2164.63   282.24  2167.14   282.24 " style="stroke-width: 1.42 ;&st7; " /><path d=" M 2167.14,  282.24  C 2169.64   282.24  2171.67   280.21  2171.67   277.71 " style="stroke-width: 1.42 ;&st7; " /><path d=" M 2137.68,  277.71  C 2137.68   275.20  2135.65   273.17  2133.14   273.17 " style="stroke-width: 1.42 ;&st7; " /><path d=" M 2133.14,  273.17  C 2130.64   273.17  2128.61   275.20  2128.61   277.71 " style="stroke-width: 1.42 ;&st7; " /><path d=" M 2128.61,  277.71  C 2128.61   280.21  2130.64   282.24  2133.14   282.24 " style="stroke-width: 1.42 ;&st7; " /><path d=" M 2133.14,  282.24  C 2135.65   282.24  2137.68   280.21  2137.68   277.71 " style="stroke-width: 1.42 ;&st7; " /><path d=" M 2035.69,  141.73  C 2035.69   139.23  2033.66   137.20  2031.16   137.20 " style="stroke-width: 1.42 ;&st7; " /><path d=" M 2031.16,  137.20  C 2028.66   137.20  2026.63   139.23  2026.63   141.73 " style="stroke-width: 1.42 ;&st7; " /><path d=" M 2026.63,  141.73  C 2026.63   144.23  2028.66   146.26  2031.16   146.26 " style="stroke-width: 1.42 ;&st7; " /><path d=" M 2031.16,  146.26  C 2033.66   146.26  2035.69   144.23  2035.69   141.73 " style="stroke-width: 1.42 ;&st7; " /><path d=" M 2175.64,  159.01  C 2175.64   154.32  2171.83   150.51  2167.14   150.51 " style="stroke-width: 0.85 ;&st7; " /><path d=" M 2167.14,  150.51  C 2162.44   150.51  2158.64   154.32  2158.64   159.01 " style="stroke-width: 0.85 ;&st7; " /><path d=" M 2158.64,  176.01  C 2158.64   180.70  2162.44   184.50  2167.14   184.50 " style="stroke-width: 0.85 ;&st7; " /><path d=" M 2167.14,  184.50  C 2171.83   184.50  2175.64   180.70  2175.64   176.01 " style="stroke-width: 0.85 ;&st7; " /><path d=" M 2282.15,  567.22  C 2282.15   564.72  2280.12   562.69  2277.62   562.69 " style="stroke-width: 1.42 ;&st7; " /><path d=" M 2277.62,  562.69  C 2275.12   562.69  2273.09   564.72  2273.09   567.22 " style="stroke-width: 1.42 ;&st7; " /><path d=" M 2273.09,  567.22  C 2273.09   569.73  2275.12   571.76  2277.62   571.76 " style="stroke-width: 1.42 ;&st7; " /><path d=" M 2277.62,  571.76  C 2280.12   571.76  2282.15   569.73  2282.15   567.22 " style="stroke-width: 1.42 ;&st7; " /><path d=" M 2282.15,  524.16  C 2282.15   521.66  2280.12   519.63  2277.62   519.63 " style="stroke-width: 1.42 ;&st7; " /><path d=" M 2277.62,  519.63  C 2275.12   519.63  2273.09   521.66  2273.09   524.16 " style="stroke-width: 1.42 ;&st7; " /><path d=" M 2273.09,  524.16  C 2273.09   526.67  2275.12   528.70  2277.62   528.70 " style="stroke-width: 1.42 ;&st7; " /><path d=" M 2277.62,  528.70  C 2280.12   528.70  2282.15   526.67  2282.15   524.16 " style="stroke-width: 1.42 ;&st7; " /><path d=" M 2256.66,  524.16  C 2256.66   521.66  2254.63   519.63  2252.12   519.63 " style="stroke-width: 1.42 ;&st7; " /><path d=" M 2252.12,  519.63  C 2249.62   519.63  2247.59   521.66  2247.59   524.16 " style="stroke-width: 1.42 ;&st7; " /><path d=" M 2247.59,  524.16  C 2247.59   526.67  2249.62   528.70  2252.12   528.70 " style="stroke-width: 1.42 ;&st7; " /><path d=" M 2252.12,  528.70  C 2254.63   528.70  2256.66   526.67  2256.66   524.16 " style="stroke-width: 1.42 ;&st7; " /><path d=" M 2307.65,  567.22  C 2307.65   564.72  2305.62   562.69  2303.12   562.69 " style="stroke-width: 1.42 ;&st7; " /><path d=" M 2303.12,  562.69  C 2300.61   562.69  2298.58   564.72  2298.58   567.22 " style="stroke-width: 1.42 ;&st7; " /><path d=" M 2298.58,  567.22  C 2298.58   569.73  2300.61   571.76  2303.12   571.76 " style="stroke-width: 1.42 ;&st7; " /><path d=" M 2303.12,  571.76  C 2305.62   571.76  2307.65   569.73  2307.65   567.22 " style="stroke-width: 1.42 ;&st7; " /><path d=" M 2333.14,  567.22  C 2333.14   564.72  2331.11   562.69  2328.61   562.69 " style="stroke-width: 1.42 ;&st7; " /><path d=" M 2328.61,  562.69  C 2326.11   562.69  2324.08   564.72  2324.08   567.22 " style="stroke-width: 1.42 ;&st7; " /><path d=" M 2324.08,  567.22  C 2324.08   569.73  2326.11   571.76  2328.61   571.76 " style="stroke-width: 1.42 ;&st7; " /><path d=" M 2328.61,  571.76  C 2331.11   571.76  2333.14   569.73  2333.14   567.22 " style="stroke-width: 1.42 ;&st7; " /><path d=" M 2307.65,  524.16  C 2307.65   521.66  2305.62   519.63  2303.12   519.63 " style="stroke-width: 1.42 ;&st7; " /><path d=" M 2303.12,  519.63  C 2300.61   519.63  2298.58   521.66  2298.58   524.16 " style="stroke-width: 1.42 ;&st7; " /><path d=" M 2298.58,  524.16  C 2298.58   526.67  2300.61   528.70  2303.12   528.70 " style="stroke-width: 1.42 ;&st7; " /><path d=" M 2303.12,  528.70  C 2305.62   528.70  2307.65   526.67  2307.65   524.16 " style="stroke-width: 1.42 ;&st7; " /><path d=" M 2333.14,  524.16  C 2333.14   521.66  2331.11   519.63  2328.61   519.63 " style="stroke-width: 1.42 ;&st7; " /><path d=" M 2328.61,  519.63  C 2326.11   519.63  2324.08   521.66  2324.08   524.16 " style="stroke-width: 1.42 ;&st7; " /><path d=" M 2324.08,  524.16  C 2324.08   526.67  2326.11   528.70  2328.61   528.70 " style="stroke-width: 1.42 ;&st7; " /><path d=" M 2328.61,  528.70  C 2331.11   528.70  2333.14   526.67  2333.14   524.16 " style="stroke-width: 1.42 ;&st7; " /><path d=" M 2358.64,  524.16  C 2358.64   521.66  2356.61   519.63  2354.11   519.63 " style="stroke-width: 1.42 ;&st7; " /><path d=" M 2354.11,  519.63  C 2351.60   519.63  2349.57   521.66  2349.57   524.16 " style="stroke-width: 1.42 ;&st7; " /><path d=" M 2349.57,  524.16  C 2349.57   526.67  2351.60   528.70  2354.11   528.70 " style="stroke-width: 1.42 ;&st7; " /><path d=" M 2354.11,  528.70  C 2356.61   528.70  2358.64   526.67  2358.64   524.16 " style="stroke-width: 1.42 ;&st7; " /><path d=" M 2333.14,  277.71  C 2333.14   275.20  2331.11   273.17  2328.61   273.17 " style="stroke-width: 1.42 ;&st7; " /><path d=" M 2328.61,  273.17  C 2326.11   273.17  2324.08   275.20  2324.08   277.71 " style="stroke-width: 1.42 ;&st7; " /><path d=" M 2324.08,  277.71  C 2324.08   280.21  2326.11   282.24  2328.61   282.24 " style="stroke-width: 1.42 ;&st7; " /><path d=" M 2328.61,  282.24  C 2331.11   282.24  2333.14   280.21  2333.14   277.71 " style="stroke-width: 1.42 ;&st7; " /><path d=" M 2452.12,  107.73  C 2452.12   105.23  2450.09   103.20  2447.59   103.20 " style="stroke-width: 1.42 ;&st7; " /><path d=" M 2447.59,  103.20  C 2445.09   103.20  2443.06   105.23  2443.06   107.73 " style="stroke-width: 1.42 ;&st7; " /><path d=" M 2443.06,  107.73  C 2443.06   110.24  2445.09   112.27  2447.59   112.27 " style="stroke-width: 1.42 ;&st7; " /><path d=" M 2447.59,  112.27  C 2450.09   112.27  2452.12   110.24  2452.12   107.73 " style="stroke-width: 1.42 ;&st7; " /><path d=" M 2452.12,  150.79  C 2452.12   148.29  2450.09   146.26  2447.59   146.26 " style="stroke-width: 1.42 ;&st7; " /><path d=" M 2447.59,  146.26  C 2445.09   146.26  2443.06   148.29  2443.06   150.79 " style="stroke-width: 1.42 ;&st7; " /><path d=" M 2443.06,  150.79  C 2443.06   153.30  2445.09   155.33  2447.59   155.33 " style="stroke-width: 1.42 ;&st7; " /><path d=" M 2447.59,  155.33  C 2450.09   155.33  2452.12   153.30  2452.12   150.79 " style="stroke-width: 1.42 ;&st7; " /><path d=" M 2486.12,  150.79  C 2486.12   148.29  2484.09   146.26  2481.59   146.26 " style="stroke-width: 1.42 ;&st7; " /><path d=" M 2481.59,  146.26  C 2479.08   146.26  2477.05   148.29  2477.05   150.79 " style="stroke-width: 1.42 ;&st7; " /><path d=" M 2477.05,  150.79  C 2477.05   153.30  2479.08   155.33  2481.59   155.33 " style="stroke-width: 1.42 ;&st7; " /><path d=" M 2481.59,  155.33  C 2484.09   155.33  2486.12   153.30  2486.12   150.79 " style="stroke-width: 1.42 ;&st7; " /><path d=" M 2486.12,  277.71  C 2486.12   275.20  2484.09   273.17  2481.59   273.17 " style="stroke-width: 1.42 ;&st7; " /><path d=" M 2481.59,  273.17  C 2479.08   273.17  2477.05   275.20  2477.05   277.71 " style="stroke-width: 1.42 ;&st7; " /><path d=" M 2477.05,  277.71  C 2477.05   280.21  2479.08   282.24  2481.59   282.24 " style="stroke-width: 1.42 ;&st7; " /><path d=" M 2481.59,  282.24  C 2484.09   282.24  2486.12   280.21  2486.12   277.71 " style="stroke-width: 1.42 ;&st7; " /><path d=" M 2358.64,  567.22  C 2358.64   564.72  2356.61   562.69  2354.11   562.69 " style="stroke-width: 1.42 ;&st7; " /><path d=" M 2354.11,  562.69  C 2351.60   562.69  2349.57   564.72  2349.57   567.22 " style="stroke-width: 1.42 ;&st7; " /><path d=" M 2349.57,  567.22  C 2349.57   569.73  2351.60   571.76  2354.11   571.76 " style="stroke-width: 1.42 ;&st7; " /><path d=" M 2354.11,  571.76  C 2356.61   571.76  2358.64   569.73  2358.64   567.22 " style="stroke-width: 1.42 ;&st7; " /><path d=" M 2171.67,  141.73  C 2171.67   139.23  2169.64   137.20  2167.14   137.20 " style="stroke-width: 1.42 ;&st7; " /><path d=" M 2167.14,  137.20  C 2164.63   137.20  2162.61   139.23  2162.61   141.73 " style="stroke-width: 1.42 ;&st7; " /><path d=" M 2162.61,  141.73  C 2162.61   144.23  2164.63   146.26  2167.14   146.26 " style="stroke-width: 1.42 ;&st7; " /><path d=" M 2167.14,  146.26  C 2169.64   146.26  2171.67   144.23  2171.67   141.73 " style="stroke-width: 1.42 ;&st7; " /><path d=" M 2171.67,  193.29  C 2171.67   190.78  2169.64   188.75  2167.14   188.75 " style="stroke-width: 1.42 ;&st7; " /><path d=" M 2167.14,  188.75  C 2164.63   188.75  2162.61   190.78  2162.61   193.29 " style="stroke-width: 1.42 ;&st7; " /><path d=" M 2162.61,  193.29  C 2162.61   195.79  2164.63   197.82  2167.14   197.82 " style="stroke-width: 1.42 ;&st7; " /><path d=" M 2167.14,  197.82  C 2169.64   197.82  2171.67   195.79  2171.67   193.29 " style="stroke-width: 1.42 ;&st7; " /><path d=" M 2231.16,  524.16  C 2231.16   521.66  2229.13   519.63  2226.63   519.63 " style="stroke-width: 1.42 ;&st7; " /><path d=" M 2226.63,  519.63  C 2224.12   519.63  2222.10   521.66  2222.10   524.16 " style="stroke-width: 1.42 ;&st7; " /><path d=" M 2222.10,  524.16  C 2222.10   526.67  2224.12   528.70  2226.63   528.70 " style="stroke-width: 1.42 ;&st7; " /><path d=" M 2226.63,  528.70  C 2229.13   528.70  2231.16   526.67  2231.16   524.16 " style="stroke-width: 1.42 ;&st7; " /><path d=" M 2197.17,  524.16  C 2197.17   521.66  2195.14   519.63  2192.63   519.63 " style="stroke-width: 1.42 ;&st7; " /><path d=" M 2192.63,  519.63  C 2190.13   519.63  2188.10   521.66  2188.10   524.16 " style="stroke-width: 1.42 ;&st7; " /><path d=" M 2188.10,  524.16  C 2188.10   526.67  2190.13   528.70  2192.63   528.70 " style="stroke-width: 1.42 ;&st7; " /><path d=" M 2192.63,  528.70  C 2195.14   528.70  2197.17   526.67  2197.17   524.16 " style="stroke-width: 1.42 ;&st7; " /><path d=" M 2171.67,  524.16  C 2171.67   521.66  2169.64   519.63  2167.14   519.63 " style="stroke-width: 1.42 ;&st7; " /><path d=" M 2167.14,  519.63  C 2164.63   519.63  2162.61   521.66  2162.61   524.16 " style="stroke-width: 1.42 ;&st7; " /><path d=" M 2162.61,  524.16  C 2162.61   526.67  2164.63   528.70  2167.14   528.70 " style="stroke-width: 1.42 ;&st7; " /><path d=" M 2167.14,  528.70  C 2169.64   528.70  2171.67   526.67  2171.67   524.16 " style="stroke-width: 1.42 ;&st7; " /><text style="&st18;" transform="matrix(&st16;  2026.36  176.56 )">VC</text><text style="&st18;" transform="matrix(&st16;  2020.31  143.7 )">2</text><text style="&st18;" transform="matrix(&st16;  2028.83  143.7 )">B</text><text ewd:textID="41" style="&st18;" transform="matrix(&st17;  2194.6  191.28 )">Inlet Air Temp. Sensor <tspan dy="6" x="0">(Inter Cooler)</tspan></text><text style="&st18;" transform="matrix(&st16;  2365.09  154.45 )">1</text><text style="&st18;" transform="matrix(&st16;  2321.82  154.45 )">3</text><text style="&st18;" transform="matrix(&st16;  2364.31  108.58 )">2</text><text ewd:textID="29" style="&st18;" transform="matrix(&st17;  2402.82  148.79 )">EGR Valve <tspan dy="6" x="-0.01">Position </tspan><tspan dy="6" x="-0.01">Sensor</tspan></text><text style="&st18;" transform="matrix(&st17;  2395.71  148.79 )">E 2</text><text style="&st18;" transform="matrix(&st16;  2331.44  142.57 )">EGLS</text><text style="&st18;" transform="matrix(&st16;  2373.94  142.57 )">VC</text><text style="&st18;" transform="matrix(&st16;  2373.94  120.46 )">E2</text><text style="&st18;" transform="matrix(&st17;  2324.92  254.57 )">L-Y</text><text style="&st18;" transform="matrix(&st16;  2442.79  142.56 )">VC</text><text style="&st18;" transform="matrix(&st16;  2443.28  119.9 )">E2</text><text style="&st18;" transform="matrix(&st16;  2264.32  142.56 )">VC</text><text style="&st18;" transform="matrix(&st16;  2228.91  142.56 )">PIM</text><text style="&st18;" transform="matrix(&st16;  2232.8  119.9 )">E</text><text style="&st18;" transform="matrix(&st16;  2366.3  289.87 )">VC</text><text style="&st18;" transform="matrix(&st17;  2231.43  203.57 )">L-B</text><text style="&st18;" transform="matrix(&st16;  2228.91  289.87 )">PIM</text><text style="&st18;" transform="matrix(&st16;  2128.83  289.87 )">E2</text><text style="&st18;" transform="matrix(&st16;  2159.23  289.87 )">THIA</text><text style="&st18;" transform="matrix(&st17;  2163.44  255.34 )">Y-G</text><text style="&st18;" transform="matrix(&st16;  2229.11  108.58 )">1</text><text style="&st18;" transform="matrix(&st16;  2368.21  279.67 )">M</text><text style="&st18;" transform="matrix(&st16;  2357.08  279.67 )">18</text><text style="&st18;" transform="matrix(&st16;  2220.32  279.67 )">28</text><text style="&st18;" transform="matrix(&st16;  2233.15  279.67 )">L</text><text style="&st18;" transform="matrix(&st16;  2164.24  279.67 )">M</text><text style="&st18;" transform="matrix(&st16;  2152.33  279.67 )">20</text><text style="&st18;" transform="matrix(&st16;  2130.25  279.67 )">M</text><text style="&st18;" transform="matrix(&st16;  2118.34  279.67 )">28</text><text style="&st18;" transform="matrix(&st16;  2228.34  154.45 )">2</text><text style="&st18;" transform="matrix(&st16;  2262.33  154.45 )">3</text><text style="&st18;" transform="matrix(&st17;  2187.5  191.28 )">I 4(B)</text><text ewd:textID="35" style="&st18;" transform="matrix(&st16;  2462.06  102.62 )">Fuel Pressure <tspan dy="6" x="0">Sensor</tspan></text><text style="&st18;" transform="matrix(&st16;  2462.06  95.51 )">F 9(A)</text><text ewd:textID="55" style="&st18;" transform="matrix(&st17;  2300.84  148.79 )">Turbo Pressure <tspan dy="6" x="-0.01">Sensor</tspan></text><text style="&st18;" transform="matrix(&st17;  2293.73  148.79 )">T 9</text><text style="&st18;" transform="matrix(&st16;  2026.85  153.9 )">E2</text><text style="&st18;" transform="matrix(&st16;  2028.83  186.76 )">B</text><text style="&st18;" transform="matrix(&st16;  2021.09  186.76 )">1</text><text ewd:textID="42" style="&st18;" transform="matrix(&st16;  2190.11  577.41 )">Junction <tspan dy="6" x="0">Connector</tspan></text><text style="&st18;" transform="matrix(&st16;  2249.79  526.13 )">A</text><text style="&st18;" transform="matrix(&st16;  2224.3  526.13 )">A</text><text style="&st18;" transform="matrix(&st16;  2275.29  569.19 )">B</text><text style="&st18;" transform="matrix(&st16;  2242.05  526.13 )">1</text><text style="&st18;" transform="matrix(&st17;  2273.92  508.99 )">(*1)</text><text style="&st18;" transform="matrix(&st17;  2299.42  508.99 )">(*1)</text><text style="&st18;" transform="matrix(&st17;  2324.92  508.99 )">(*1)</text><text style="&st18;" transform="matrix(&st17;  2350.41  508.99 )">(*1)</text><text style="&st18;" transform="matrix(&st17;  2299.42  593.98 )">(*1)</text><text style="&st18;" transform="matrix(&st17;  2273.92  592.99 )">BR</text><text style="&st18;" transform="matrix(&st16;  2190.11  570.3 )">J 9(A),J10(B)</text><text style="&st18;" transform="matrix(&st16;  2292.27  569.19 )">3</text><text style="&st18;" transform="matrix(&st16;  2266.77  569.19 )">2</text><text style="&st18;" transform="matrix(&st16;  2300.78  569.19 )">B</text><text style="&st18;" transform="matrix(&st16;  2326.28  569.19 )">B</text><text style="&st18;" transform="matrix(&st16;  2318.54  569.19 )">1</text><text style="&st18;" transform="matrix(&st16;  2266.77  526.13 )">2</text><text style="&st18;" transform="matrix(&st16;  2275.29  526.13 )">A</text><text style="&st18;" transform="matrix(&st16;  2300.78  526.13 )">A</text><text style="&st18;" transform="matrix(&st16;  2292.27  526.13 )">3</text><text style="&st18;" transform="matrix(&st16;  2317.76  526.13 )">4</text><text style="&st18;" transform="matrix(&st16;  2326.28  526.13 )">A</text><text style="&st18;" transform="matrix(&st16;  2351.78  526.13 )">A</text><text style="&st18;" transform="matrix(&st16;  2343.26  526.13 )">6</text><text style="&st18;" transform="matrix(&st17;  2324.92  592.99 )">BR</text><text style="&st18;" transform="matrix(&st16;  2179.36  526.13 )">11</text><text style="&st18;" transform="matrix(&st16;  2153.08  526.13 )">10</text><text style="&st18;" transform="matrix(&st16;  2309.09  302.6 )">E 5(J),E 6(K),E 7(L),E 8(M)</text><text ewd:textID="30" style="&st18;" transform="matrix(&st16;  2309.09  309.7 )">Engine ECU</text><text style="&st18;" transform="matrix(&st16;  2404.54  32.08 )">BR</text><text style="&st18;" transform="matrix(&st17;  2443.9  70.33 )">BR</text><text style="&st18;" transform="matrix(&st17;  2367.41  70.33 )">BR</text><text style="&st18;" transform="matrix(&st17;  2129.45  70.33 )">BR</text><text style="&st18;" transform="matrix(&st17;  2129.45  253.05 )">BR</text><text style="&st18;" transform="matrix(&st16;  2034.59  389.02 )">(*1)(*14)</text><text style="&st18;" transform="matrix(&st16;  2034.59  406.02 )">(*1)(*14)</text><text style="&st18;" transform="matrix(&st16;  2034.59  440.01 )">(*1)(*14)</text><text style="&st18;" transform="matrix(&st16;  2034.59  457.01 )">(*1)(*14)</text><text style="&st18;" transform="matrix(&st16;  2085.59  389.02 )">(*1)(*14)</text><text style="&st18;" transform="matrix(&st16;  2085.59  406.02 )">(*1)(*14)</text><text style="&st18;" transform="matrix(&st16;  2085.59  440.01 )">(*1)(*14)</text><text style="&st18;" transform="matrix(&st16;  2085.59  457.01 )">(*1)(*14)</text><text style="&st18;" transform="matrix(&st16;  2034.59  355.03 )">(*1)(*14)</text><text style="&st18;" transform="matrix(&st16;  2085.59  355.03 )">(*1)(*14)</text><text style="&st18;" transform="matrix(&st17;  2265.43  205.09 )">R-W</text><text style="&st18;" transform="matrix(&st16;  2337.77  219.05 )">R-W</text><text style="&st18;" transform="matrix(&st16;  2388.76  219.05 )">R-W</text><text style="&st18;" transform="matrix(&st17;  2231.43  70.33 )">BR</text><text style="&st18;" transform="matrix(&st17;  2367.41  179.6 )">R-W</text><text style="&st18;" transform="matrix(&st16;  2323.81  32.08 )">BR</text><text style="&st18;" transform="matrix(&st17;  2163.44  125.57 )">BR</text><text style="&st18;" transform="matrix(&st16;  2040.32  219.05 )">R-W</text><text style="&st18;" transform="matrix(&st16;  2091.31  219.05 )">R-W</text><text style="&st18;" transform="matrix(&st16;  2094.35  32.08 )">BR</text><text style="&st18;" transform="matrix(&st16;  2043.35  32.08 )">BR</text><text style="&st18;" transform="matrix(&st17;  2367.41  256.08 )">R-W</text><text style="&st18;" transform="matrix(&st16;  2157.04  143.7 )">1</text><text style="&st18;" transform="matrix(&st16;  2164.81  143.7 )">B</text><text style="&st18;" transform="matrix(&st16;  2156.26  195.26 )">2</text><text style="&st18;" transform="matrix(&st16;  2164.81  195.26 )">B</text><text style="&st18;" transform="matrix(&st16;  2036.18  474.01 )">(*1)(*9)</text><text style="&st18;" transform="matrix(&st16;  2042.36  491.01 )">(*1)</text><text style="&st18;" transform="matrix(&st16;  2040.39  502.34 )">(*16)</text><text style="&st18;" transform="matrix(&st16;  2093.36  491.01 )">(*1)</text><text style="&st18;" transform="matrix(&st16;  2091.38  502.34 )">(*16)</text><text style="&st18;" transform="matrix(&st16;  2087.18  474.01 )">(*1)(*9)</text><text style="&st18;" transform="matrix(&st16;  2215.75  526.13 )">5</text><text style="&st18;" transform="matrix(&st16;  2190.3  526.13 )">A</text><text style="&st18;" transform="matrix(&st16;  2164.81  526.13 )">A</text><text style="&st18;" transform="matrix(&st16;  2200.58  499.5 )">BR</text><text style="&st18;" transform="matrix(&st16;  2197.61  510.84 )">(*16)</text><text style="&st18;" transform="matrix(&st16;  2319.22  289.87 )">EGLS</text><text style="&st18;" transform="matrix(&st16;  2326.63  279.67 )">L</text><text style="&st18;" transform="matrix(&st16;  2313.81  279.67 )">33</text><text style="&st18;" transform="matrix(&st16;  2445.26  109.7 )">A</text><text style="&st18;" transform="matrix(&st16;  2436.74  109.7 )">4</text><text style="&st18;" transform="matrix(&st16;  2445.26  152.76 )">A</text><text style="&st18;" transform="matrix(&st16;  2436.74  152.76 )">6</text><text style="&st18;" transform="matrix(&st16;  2496.23  152.76 )">2</text><text style="&st18;" transform="matrix(&st16;  2479.25  152.76 )">A</text><text style="&st18;" transform="matrix(&st16;  2471.51  152.76 )">1</text><text style="&st18;" transform="matrix(&st16;  2497.83  289.87 )">PCR2</text><text style="&st18;" transform="matrix(&st16;  2492.28  279.67 )">33</text><text style="&st18;" transform="matrix(&st16;  2474.45  142.56 )">VCS</text><text style="&st18;" transform="matrix(&st17;  2477.89  255.59 )">L-W</text><text style="&st18;" transform="matrix(&st16;  2474.45  289.87 )">VCS</text><text style="&st18;" transform="matrix(&st16;  2479.61  279.67 )">L</text><text style="&st18;" transform="matrix(&st16;  2470.74  279.67 )">2</text><text style="&st18;" transform="matrix(&st16;  2351.78  569.19 )">B</text><text style="&st18;" transform="matrix(&st16;  2343.26  569.19 )">5</text><text style="&st18;" transform="matrix(&st17;  2375.91  508.99 )">(*1)</text><text style="&st18;" transform="matrix(&st17;  2285.26  595.96 )">(*14)</text><text style="&st18;" transform="matrix(&st17;  2336.25  595.96 )">(*14)</text><text style="&st18;" transform="matrix(&st17;  2387.24  510.97 )">(*14)</text><text style="&st18;" transform="matrix(&st17;  2310.75  595.96 )">(*14)</text><text style="&st18;" transform="matrix(&st17;  2285.26  510.97 )">(*14)</text><text style="&st18;" transform="matrix(&st17;  2310.75  510.97 )">(*14)</text><text style="&st18;" transform="matrix(&st17;  2336.25  510.97 )">(*14)</text><text style="&st18;" transform="matrix(&st17;  2361.74  510.97 )">(*14)</text><text style="&st18;" transform="matrix(&st16;  2483.29  525.01 )">8</text><text style="&st18;" transform="matrix(&st16;  2457.8  525.01 )">6</text><text style="&st18;" transform="matrix(&st17;  2486.39  578.89 )">W-B</text><text style="&st18;" transform="matrix(&st17;  2497.72  578.96 )">(*15)</text><text style="&st18;" transform="matrix(&st17;  2460.89  508.99 )">(*1)</text><text style="&st18;" transform="matrix(&st17;  2472.22  510.97 )">(*15)</text><text style="&st18;" transform="matrix(&st17;  2486.39  508.99 )">(*1)</text><text style="&st18;" transform="matrix(&st17;  2497.72  510.97 )">(*15)</text><text style="&st18;" transform="matrix(&st16;  2432.3  553.89 )">5</text><text style="&st18;" transform="matrix(&st17;  2435.4  576.98 )">(*1)</text><text style="&st18;" transform="matrix(&st17;  2446.73  578.96 )">(*15)</text><text style="&st18;" transform="matrix(&st17;  2472.22  578.96 )">(*15)</text><text style="&st18;" transform="matrix(&st17;  2460.89  576.98 )">(*1)</text><text style="&st18;" transform="matrix(&st16;  2457.8  553.89 )">7</text><text style="&st18;" transform="matrix(&st16;  2040.39  553.33 )">(*15)</text><text style="&st18;" transform="matrix(&st16;  2042.36  542.0 )">(*1)</text><text style="&st18;" transform="matrix(&st16;  2093.36  542.0 )">(*1)</text><text style="&st18;" transform="matrix(&st16;  2091.38  553.33 )">(*15)</text><text style="&st18;" transform="matrix(&st16;  2091.38  595.82 )">(*15)</text><text style="&st18;" transform="matrix(&st16;  2093.36  584.49 )">(*1)</text><text style="&st18;" transform="matrix(&st16;  2042.36  584.49 )">(*1)</text><text style="&st18;" transform="matrix(&st16;  2040.39  595.82 )">(*15)</text><text style="&st18;" transform="matrix(&st17;  2004.8  519.47 )">(*14)</text><text style="&st18;" transform="matrix(&st16;  2034.59  338.03 )">(*1)(*15)</text><text style="&st18;" transform="matrix(&st16;  2085.59  338.03 )">(*1)(*15)</text><text style="&st18;" transform="matrix(&st16;  2034.59  372.03 )">(*1)(*15)</text><text style="&st18;" transform="matrix(&st16;  2085.59  372.03 )">(*1)(*15)</text><text style="&st18;" transform="matrix(&st16;  2034.59  423.02 )">(*1)(*15)</text><text style="&st18;" transform="matrix(&st16;  2085.59  423.02 )">(*1)(*15)</text><text style="&st18;" transform="matrix(&st16;  2480.12  553.89 )">10</text><text style="&st18;" transform="matrix(&st16;  2083.68  686.47 )">W-B(*15)</text><text style="&st18;" transform="matrix(&st16;  2032.69  686.47 )">W-B(*15)</text><text style="&st18;" transform="matrix(&st16;  2094.35  83.07 )">BR</text><text style="&st18;" transform="matrix(&st16;  2043.35  83.07 )">BR</text><text style="&st18;" transform="matrix(&st16;  2179.33  32.08 )">BR</text></svg>