﻿<?xml version="1.0" encoding="utf-8"?>
<!DOCTYPE svg PUBLIC "-//W3C//DTD SVG 1.0//EN" "http://www.w3.org/TR/2001/REC-SVG-20010904/DTD/svg10.dtd"[
	<!ENTITY ns_flows "http://ns.adobe.com/Flows/1.0/">
	<!ENTITY ns_svg "http://www.w3.org/2000/svg">
	<!ENTITY ns_xlink "http://www.w3.org/1999/xlink">
	<!ENTITY st0 "font-size:7px;font-family:'MS-PGothic';adobe-font-script:japanese;">
	<!ENTITY st1 "font-size:6px;font-family:'ArialMT';">
	<!-- White fill  -->
	<!ENTITY st2 "fill:#FFFFFF;stroke:#000000; stroke-width:1.41;stroke-linecap:round;stroke-linejoin:round;">
	<!-- Yellow fill  -->
	<!ENTITY st3 "fill:#FFFFCC;stroke:#FFFFCC; stroke-width:0.1;stroke-linecap:round;stroke-linejoin:round;">
	<!-- Gray fill  -->
	<!ENTITY st4 "fill:#CCCCCC;stroke:#CCCCCC; stroke-width:0.1;stroke-linecap:round;stroke-linejoin:round;">
	<!-- Light-blue fill -->
	<!ENTITY st5 "fill:#CCECF4;stroke:#000000; stroke-width:1.133;stroke-linecap:round;stroke-linejoin:round;">
	<!ENTITY st6 "fill:none;stroke-linecap:butt; stroke-linejoin:round;">
	<!ENTITY st7 "fill:none;stroke:#000000;stroke-linecap:round;stroke-linejoin:round;">
	<!ENTITY st8 "enable-background:new    ;">
	<!-- Black fill -->
	<!ENTITY st9 "fill:#000000;stroke:#000000; stroke-linecap:round;stroke-linejoin:round;">
	<!-- SRS note   -->
	<!ENTITY st10 "font-size:9px;font-family:'ArialMT';">
	<!ENTITY st11 "font-size:9px;font-family:'Svg Symbol';">
	<!ENTITY st12 "font-size:6px;font-family:'Svg Symbol';">
	<!ENTITY st13 "fill:none;stroke:#ff0000;stroke-linecap:round;stroke-linejoin:round;">
	<!-- Yellow fill  -->
	<!ENTITY st14 "fill:#FFFF00;stroke:#FFFF00; stroke-width:0.1;stroke-linecap:round;stroke-linejoin:round;">
	<!ENTITY st15 "font-size:6px;font-family:'MS-PGothic';adobe-font-script:japanese;">
	<!ENTITY st16 "1.00 0.00 0.00 1.00">
	<!ENTITY st17 "0.00 -1.00 1.00 0.00">
	<!ENTITY st18 "font-size:6px;font-family:'Arial';">
	<!ENTITY st19 "font-size:9px;font-family:'Arial';">
	<!ENTITY st20 "font-size:6px;font-family:'MS-PGothic','MS PGothic';adobe-font-script:japanese;">
	<!ENTITY st21 "font-size:7px;font-family:'MS-PGothic','MS PGothic';adobe-font-script:japanese;">
	<!ATTLIST svg
		xmlns:ewd CDATA #FIXED "http://shcl.co.jp/ewd"
		xmlns:a CDATA #FIXED "http://ns.adobe.com/AdobeSVGViewerExtensions/3.0/"
		ewd:ver CDATA #IMPLIED
	>
	<!ATTLIST a
		ewd:lineID CDATA #IMPLIED
		ewd:groupID CDATA #IMPLIED
		ewd:figtype CDATA #IMPLIED
		ewd:code CDATA #IMPLIED
		ewd:figID CDATA #IMPLIED
		ewd:pinNo CDATA #IMPLIED
		ewd:comment CDATA #IMPLIED >
	<!ATTLIST g
		ewd:lineID CDATA #IMPLIED
		ewd:groupID CDATA #IMPLIED
		ewd:figtype CDATA #IMPLIED
		ewd:code CDATA #IMPLIED
		ewd:figID CDATA #IMPLIED
		ewd:pinNo CDATA #IMPLIED
		ewd:comment CDATA #IMPLIED >
	<!ATTLIST text
		ewd:textID CDATA #IMPLIED >
	<!ATTLIST title
		ewd:textID CDATA #IMPLIED >
]>
<!-- Generator: Shintec Hozumi YS   -->
<svg onload="call_execInitLoadProc_svg('system')" style="overflow:visible;  enable-background:new 0 0 1555.908 710.000" viewBox="0 0 1555.908 710.000" height="710.000" width="1555.908" xml:space="preserve" ewd:ver="L2.1.2.7" xmlns="&ns_svg;" xmlns:a="http://ns.adobe.com/AdobeSVGViewerExtensions/3.0/" xmlns:ewd="http://shcl.co.jp/ewd" xmlns:xlink="&ns_xlink;"><script type="text/javascript" xlink:href="../../../../../system/js/ewd/fig/svgfig.js" xmlns:xlink="http://www.w3.org/1999/xlink" /><defs><font horiz-adv-x="1229"><font-face font-family="Svg Symbol" units-per-em="2048" panose-1="5 5 1 2 1 7 6 2 5 7" ascent="2059" descent="450" alphabetic="0" /><missing-glyph d="M 103,0 l 0,1280 1024,0 0,-1280 -1024,0 z m 32,32 l 960,0 0,1216 -960,0 0,-1216 z" /><glyph unicode="" horiz-adv-x="1573" d="M 1517,0 l -567,0 24,279 q 141,59 207.5,168 66.5,109 66.5,306    0,272 -132.5,417.5 -132.5,145.5 -333.5,145.5 -194,0 -328,-147.5 -134,-147.5 -134,-401.5 0,-200 68.5,-319 68.5,-119     206.5,-169 l 25,-279 -564,0 0,279 35,0 q 3,-61 32,-83 45,-35 137,-35 l 270,0 0,70 q -210,61 -324.5,209 -114.5,148     -114.5,349 0,252 186.5,425 186.5,173 504.5,173 195,0 358.5,-73.5 163.5,-73.5 252,-214.5 88.5,-141 88.5,-310 0,-207     -121.5,-360.5 -121.5,-153.5 -317.5,-197.5 l -8,-70 275,0 q 92,0 128,28 36,28 42,90 l 38,0 0,-279 z" /></font></defs>
<g id="ewd_top"><a ewd:code="J21" ewd:figID="1" ewd:figtype="conn" style="cursor:pointer;"><path d=" M 1300.28,  596.69  L 1300.28,  613.68  L 1317.28,  613.68  L 1317.28,  596.69  L 1300.28,  596.69 " style="&st5;" /><title ewd:textID="41">Junction Connector</title></a><a ewd:code="J47" ewd:figID="2" ewd:figtype="conn" style="cursor:pointer;"><path d=" M 1266.29,  375.72  L 1266.29,  392.72  L 1283.29,  392.72  L 1283.29,  375.72  L 1266.29,  375.72 " style="&st5;" /><title ewd:textID="41">Junction Connector</title></a><a ewd:code="J4,J5" ewd:figID="3" ewd:figtype="conn" style="cursor:pointer;"><path d=" M  297.45,  197.25  L  297.45,  222.75  L  314.45,  222.75  L  314.45,  197.25  L  297.45,  197.25 " style="&st5;" /><title ewd:textID="41">Junction Connector</title></a><a ewd:code="C8,C25,C26" ewd:figID="4" ewd:figtype="conn" style="cursor:pointer;"><path d=" M  722.38,  256.74  L  671.39,  256.74  L  671.39,  316.23  L  722.38,  316.23  L  722.38,  256.74 " style="&st5;" /><title ewd:textID="32">Combination Meter</title></a><a ewd:code="J2,J3" ewd:figID="5" ewd:figtype="conn" style="cursor:pointer;"><path d=" M  203.97,  426.71  L   93.48,  426.71  L   93.48,  460.71  L  203.97,  460.71  L  203.97,  426.71 " style="&st5;" /><title ewd:textID="41">Junction Connector</title></a><a ewd:code="J2,J3" ewd:figID="6" ewd:figtype="conn" style="cursor:pointer;"><path d=" M  577.90,   86.77  L  577.90,  120.77  L  620.40,  120.77  L  620.40,   86.77  L  577.90,   86.77 " style="&st5;" /><title ewd:textID="41">Junction Connector</title></a><a ewd:code="J57" ewd:figID="7" ewd:figtype="conn" style="cursor:pointer;"><path d=" M 1096.32,  605.18  L 1096.32,  622.18  L 1113.31,  622.18  L 1113.31,  605.18  L 1096.32,  605.18 " style="&st5;" /><title ewd:textID="41">Junction Connector</title></a><a ewd:code="C10" ewd:figID="8" ewd:figtype="conn" style="cursor:pointer;"><path d=" M 1070.82,  367.22  L 1070.82,  503.20  L 1232.29,  503.20  L 1232.29,  367.22  L 1070.82,  367.22 " style="&st5;" /><title ewd:textID="33">Combination SW</title></a><a ewd:code="F2,F45" ewd:figID="9" ewd:figtype="conn" style="cursor:pointer;"><path d=" M  161.47,  554.19  L  161.47,  554.19  C  161.47   549.47   157.64   545.64   152.92   545.64  L  152.92,  545.64  C  148.19   545.64   144.36   549.47   144.36   554.20  L  144.36,  554.20  C  144.36   558.92   148.19   562.75   152.92   562.75  L  152.92,  562.75  C  157.64   562.75   161.47   558.92   161.47   554.20 " style="&st5;" /><title ewd:textID="36">Fog Lamp (Front LH)</title></a><a ewd:code="F3,F44" ewd:figID="10" ewd:figtype="conn" style="cursor:pointer;"><path d=" M  254.96,  554.19  L  254.96,  554.19  C  254.96   549.47   251.13   545.64   246.40   545.64  L  246.40,  545.64  C  241.68   545.64   237.85   549.47   237.85   554.20  L  237.85,  554.20  C  237.85   558.92   241.68   562.75   246.40   562.75  L  246.40,  562.75  C  251.13   562.75   254.96   558.92   254.96   554.20 " style="&st5;" /><title ewd:textID="37">Fog Lamp (Front RH)</title></a><a ewd:code="C24" ewd:figID="11" ewd:figtype="conn" style="cursor:pointer;"><path d=" M 1342.78,  367.22  L 1342.78,  503.20  L 1495.75,  503.20  L 1495.75,  367.22  L 1342.78,  367.22 " style="&st5;" /><title ewd:textID="33">Combination SW</title></a><a ewd:code="J1" ewd:figID="12" ewd:figtype="conn" style="cursor:pointer;"><path d=" M  144.48,  622.18  L  144.48,  639.18  L  161.47,  639.18  L  161.47,  622.18  L  144.48,  622.18 " style="&st5;" /><title ewd:textID="41">Junction Connector</title></a><a ewd:code="J57" ewd:figID="13" ewd:figtype="conn" style="cursor:pointer;"><path d=" M 1470.25,  605.18  L 1470.25,  622.18  L 1487.25,  622.18  L 1487.25,  605.18  L 1470.25,  605.18 " style="&st5;" /><title ewd:textID="41">Junction Connector</title></a><a ewd:code="T30,T40" ewd:figID="14" ewd:figtype="conn" style="cursor:pointer;"><path d=" M 1487.25,  188.75  L 1444.76,  188.75  L 1444.76,  222.75  L 1487.25,  222.75  L 1487.25,  188.75 " style="&st5;" /><title ewd:textID="45">Tail Lamp Relay</title></a><a ewd:code="D13,D23" ewd:figID="15" ewd:figtype="conn" style="cursor:pointer;"><path d=" M 1257.79,  460.71  L 1257.79,  494.70  L 1325.78,  494.70  L 1325.78,  460.71  L 1257.79,  460.71 " style="&st5;" /><title ewd:textID="34">Daytime Running Light Relay</title></a><a ewd:code="2" ewd:figID="16" ewd:figtype="jb" style="cursor:pointer;"><path d=" M  679.89,   69.77  L  679.89,  120.77  L  705.38,  120.77  L  705.38,   69.77  L  679.89,   69.77 " style="&st4;" /></a><a ewd:code="1" ewd:figID="17" ewd:figtype="jb" style="cursor:pointer;"><path d=" M   50.99,  290.74  L  254.96,  290.74  L  254.96,  188.75  L  144.48,  188.75  L  144.48,   35.78  L   50.99,   35.78  L   50.99,  290.74 " style="&st4;" /></a><a ewd:code="2" ewd:figID="18" ewd:figtype="jb" style="cursor:pointer;"><path d=" M 1172.80,   35.78  L 1172.80,  103.77  L 1232.29,  103.77  L 1232.29,   35.78  L 1172.80,   35.78 " style="&st4;" /></a><a ewd:code="2" ewd:figID="19" ewd:figtype="jb" style="cursor:pointer;"><path d=" M  645.89,  367.22  L  645.89,  418.22  L  705.38,  418.22  L  705.38,  367.22  L  645.89,  367.22 " style="&st4;" /></a><a ewd:code="2" ewd:figID="20" ewd:figtype="jb" style="cursor:pointer;"><path d=" M  679.89,  154.76  L  679.89,  205.75  L  764.87,  205.75  L  764.87,  154.76  L  679.89,  154.76 " style="&st4;" /></a><a ewd:code="FUSE5,FUSE11" ewd:figID="21" ewd:figtype="fuse" style="cursor:pointer;"><path d=" M  140.23,   78.27  L  114.73,   78.27  L  114.73,   35.78  L  140.23,   35.78  L  140.23,   78.27 " style="&st7;" /></a><a ewd:code="FUSE49" ewd:figID="22" ewd:figtype="fuse" style="cursor:pointer;"><path d=" M 1228.04,   78.27  L 1228.04,   35.78  L 1202.55,   35.78  L 1202.55,   78.27  L 1228.04,   78.27 " style="&st7;" /></a><a ewd:lineID="1" style="cursor:pointer;"><path d=" M  152.97,  290.74  L  152.97,  299.24  L  144.48,  307.73  L  101.98,  307.73  L  101.98,  417.65 " style="stroke:#FF0000;stroke-width: 5.10 ;&st6;" /><path d=" M  152.97,  290.74  L  152.97,  299.24  L  144.48,  307.73  L  101.98,  307.73  L  101.98,  417.65 " style="stroke:#FFFFFF;stroke-width: 1.13 ;&st6;" /></a><a ewd:lineID="2" style="cursor:pointer;"><path d=" M  152.97,  527.56  L  152.97,  520.20  L  144.48,  511.70  L  127.48,  511.70  L  127.48,  469.77 " style="stroke:#FF0000;stroke-width: 5.10 ;&st6;" /><path d=" M  152.97,  527.56  L  152.97,  520.20  L  144.48,  511.70  L  127.48,  511.70  L  127.48,  469.77 " style="stroke:#FFFFFF;stroke-width: 1.13 ;&st6;" /></a><a ewd:lineID="3" style="cursor:pointer;"><path d=" M  127.48,  417.65  L  127.48,  358.73  L  246.46,  358.73  L  246.46,  527.56 " style="stroke:#FF0000;stroke-width: 5.10 ;&st6;" /><path d=" M  127.48,  417.65  L  127.48,  358.73  L  246.46,  358.73  L  246.46,  527.56 " style="stroke:#FFFFFF;stroke-width: 1.13 ;&st6;" /></a><a ewd:lineID="4" style="cursor:pointer;"><path d=" M  152.97,  639.18  L  152.97,  681.67 " style="stroke:#000000;stroke-width: 5.10 ;&st6;" /><path d=" M  152.97,  639.18  L  152.97,  681.67 " style="stroke:#FFFFFF;stroke-width: 4.53 ;&st6;" /><path d=" M  152.97,  639.18  L  152.97,  681.67 " style="stroke:#000000;stroke-width: 1.13 ;&st6;" /></a><a ewd:lineID="5" style="cursor:pointer;"><path d=" M  152.97,  580.82  L  152.97,  622.18 " style="stroke:#000000;stroke-width: 5.10 ;&st6;" /><path d=" M  152.97,  580.82  L  152.97,  622.18 " style="stroke:#FFFFFF;stroke-width: 4.53 ;&st6;" /><path d=" M  152.97,  580.82  L  152.97,  622.18 " style="stroke:#000000;stroke-width: 1.13 ;&st6;" /></a><a ewd:lineID="6" style="cursor:pointer;"><path d=" M  152.97,  469.77  L  152.97,  527.56 " style="stroke:#FF0000;stroke-width: 5.10 ;&st6;" /><path d=" M  152.97,  469.77  L  152.97,  527.56 " style="stroke:#FFFFFF;stroke-width: 1.13 ;&st6;" /></a><a ewd:lineID="7" style="cursor:pointer;"><path d=" M  152.97,  290.74  L  152.97,  417.65 " style="stroke:#FF0000;stroke-width: 5.10 ;&st6;" /><path d=" M  152.97,  290.74  L  152.97,  417.65 " style="stroke:#FFFFFF;stroke-width: 1.13 ;&st6;" /></a><a ewd:lineID="8" style="cursor:pointer;"><path d=" M  161.47,  630.68  L  237.96,  630.68 " style="stroke:#000000;stroke-width: 5.10 ;&st6;" /><path d=" M  161.47,  630.68  L  237.96,  630.68 " style="stroke:#FFFFFF;stroke-width: 4.53 ;&st6;" /><path d=" M  161.47,  630.68  L  237.96,  630.68 " style="stroke:#000000;stroke-width: 1.13 ;&st6;" /></a><a ewd:lineID="9" style="cursor:pointer;"><path d=" M  178.47,  290.74  L  178.47,  341.73  L  662.89,  341.73  L  662.89,  367.22 " style="stroke:#008837;stroke-width: 5.10 ;&st6;" /><path d=" M  178.47,  290.74  L  178.47,  341.73  L  662.89,  341.73  L  662.89,  367.22 " style="stroke:#FFFFFF;stroke-width: 2.27 ;&st6;" /><path d=" M  178.47,  290.74  L  178.47,  341.73  L  662.89,  341.73  L  662.89,  367.22 " style="stroke:#000000;stroke-width: 1.13 ;&st6;" /></a><a ewd:lineID="10" style="cursor:pointer;"><path d=" M  246.46,  188.75  L  246.46,  171.76  L  186.97,  171.76  L  178.47,  180.26  L  178.47,  188.75 " style="stroke:#FF0000;stroke-width: 5.10 ;&st6;" /></a><a ewd:lineID="11" style="cursor:pointer;"><path d=" M  178.47,  188.75  L  178.47,  146.26  L  305.95,  146.26  L  305.95,  146.26  L  586.40,  146.26  L  586.40,  129.83 " style="stroke:#FF0000;stroke-width: 5.10 ;&st6;" /></a><a ewd:lineID="12" style="cursor:pointer;"><path d=" M  696.88,   69.77  L  696.88,   35.78  L  161.47,   35.78  L  161.47,  163.26  L  178.47,  180.26  L  178.47,  188.75 " style="stroke:#008837;stroke-width: 5.10 ;&st6;" /></a><a ewd:lineID="13" style="cursor:pointer;"><path d=" M  195.47,  417.65  L  195.47,  375.72  L  229.46,  375.72  L  229.46,  503.20  L  246.46,  520.20  L  246.46,  527.56 " style="stroke:#FF0000;stroke-width: 5.10 ;&st6;" /><path d=" M  195.47,  417.65  L  195.47,  375.72  L  229.46,  375.72  L  229.46,  503.20  L  246.46,  520.20  L  246.46,  527.56 " style="stroke:#FFFFFF;stroke-width: 1.13 ;&st6;" /></a><a ewd:lineID="14" style="cursor:pointer;"><path d=" M  246.46,  681.67  L  246.46,  639.18 " style="stroke:#000000;stroke-width: 5.10 ;&st6;" /><path d=" M  246.46,  681.67  L  246.46,  639.18 " style="stroke:#FFFFFF;stroke-width: 4.53 ;&st6;" /><path d=" M  246.46,  681.67  L  246.46,  639.18 " style="stroke:#000000;stroke-width: 1.13 ;&st6;" /></a><a ewd:lineID="15" style="cursor:pointer;"><path d=" M  246.46,  622.18  L  246.46,  580.82 " style="stroke:#000000;stroke-width: 5.10 ;&st6;" /><path d=" M  246.46,  622.18  L  246.46,  580.82 " style="stroke:#FFFFFF;stroke-width: 4.53 ;&st6;" /><path d=" M  246.46,  622.18  L  246.46,  580.82 " style="stroke:#000000;stroke-width: 1.13 ;&st6;" /></a><a ewd:lineID="16" style="cursor:pointer;"><path d=" M  246.46,  188.75  L  246.46,  180.26  L  254.96,  171.76  L  305.95,  171.76  L  305.95,  188.19 " style="stroke:#FF0000;stroke-width: 5.10 ;&st6;" /></a><a ewd:lineID="17" style="cursor:pointer;"><path d=" M  611.90,  194.99  L  611.90,  256.74  L  305.95,  256.74  L  305.95,  231.81 " style="stroke:#FF0000;stroke-width: 5.10 ;&st6;" /></a><a ewd:lineID="18" style="cursor:pointer;"><path d=" M  611.90,  129.83  L  611.90,  180.26 " style="stroke:#FF0000;stroke-width: 5.10 ;&st6;" /></a><a ewd:lineID="19" style="cursor:pointer;"><path d=" M  611.90,   77.71  L  611.90,   52.78  L  688.38,   52.78  L  696.88,   61.28  L  696.88,   69.77 " style="stroke:#008837;stroke-width: 5.10 ;&st6;" /></a><a ewd:lineID="20" style="cursor:pointer;"><path d=" M 1138.81,  521.33  L 1138.81,  579.69  L  696.88,  579.69  L  696.88,  418.22 " style="stroke:#008837;stroke-width: 5.10 ;&st6;" /><path d=" M 1138.81,  521.33  L 1138.81,  579.69  L  696.88,  579.69  L  696.88,  418.22 " style="stroke:#FFFFFF;stroke-width: 2.27 ;&st6;" /><path d=" M 1138.81,  521.33  L 1138.81,  579.69  L  696.88,  579.69  L  696.88,  418.22 " style="stroke:#000000;stroke-width: 1.13 ;&st6;" /></a><a ewd:lineID="21" style="cursor:pointer;"><path d=" M  696.88,  418.22  L  696.88,  426.71  L  688.38,  435.21  L  662.89,  435.21  L  662.89,  647.68  L 1402.27,  647.68  L 1402.27,  521.33 " style="stroke:#008837;stroke-width: 5.10 ;&st6;" /><path d=" M  696.88,  418.22  L  696.88,  426.71  L  688.38,  435.21  L  662.89,  435.21  L  662.89,  647.68  L 1402.27,  647.68  L 1402.27,  521.33 " style="stroke:#FFFFFF;stroke-width: 2.27 ;&st6;" /><path d=" M  696.88,  418.22  L  696.88,  426.71  L  688.38,  435.21  L  662.89,  435.21  L  662.89,  647.68  L 1402.27,  647.68  L 1402.27,  521.33 " style="stroke:#000000;stroke-width: 1.13 ;&st6;" /></a><a ewd:lineID="22" style="cursor:pointer;"><path d=" M  696.88,  334.36  L  696.88,  367.22 " style="stroke:#008837;stroke-width: 5.10 ;&st6;" /><path d=" M  696.88,  334.36  L  696.88,  367.22 " style="stroke:#FFFFFF;stroke-width: 2.27 ;&st6;" /><path d=" M  696.88,  334.36  L  696.88,  367.22 " style="stroke:#000000;stroke-width: 1.13 ;&st6;" /></a><a ewd:lineID="23" style="cursor:pointer;"><path d=" M  696.88,  205.75  L  696.88,  238.61 " style="stroke:#008837;stroke-width: 5.10 ;&st6;" /></a><a ewd:lineID="24" style="cursor:pointer;"><path d=" M  696.88,  154.76  L  696.88,  120.77 " style="stroke:#008837;stroke-width: 5.10 ;&st6;" /></a><a ewd:lineID="25" style="cursor:pointer;"><path d=" M 1189.80,  349.09  L 1189.80,  307.73  L  756.37,  307.73  L  756.37,  205.75 " style="stroke:#008837;stroke-width: 5.10 ;&st6;" /></a><a ewd:lineID="26" style="cursor:pointer;"><path d=" M 1453.26,  240.88  L 1453.26,  273.74  L  773.37,  273.74  L  773.37,  231.25  L  756.37,  214.25  L  756.37,  205.75 " style="stroke:#008837;stroke-width: 5.10 ;&st6;" /></a><a ewd:lineID="27" style="cursor:pointer;"><path d=" M 1104.82,  622.18  L 1104.82,  664.67  L 1300.28,  664.67  L 1308.78,  673.17  L 1308.78,  681.67 " style="stroke:#000000;stroke-width: 5.10 ;&st6;" /><path d=" M 1104.82,  622.18  L 1104.82,  664.67  L 1300.28,  664.67  L 1308.78,  673.17  L 1308.78,  681.67 " style="stroke:#FFFFFF;stroke-width: 4.53 ;&st6;" /><path d=" M 1104.82,  622.18  L 1104.82,  664.67  L 1300.28,  664.67  L 1308.78,  673.17  L 1308.78,  681.67 " style="stroke:#000000;stroke-width: 1.13 ;&st6;" /></a><a ewd:lineID="28" style="cursor:pointer;"><path d=" M 1104.82,  605.18  L 1104.82,  545.69  L 1053.82,  545.69  L 1053.82,  333.23  L 1181.30,  333.23  L 1189.80,  341.73  L 1189.80,  349.09 " style="stroke:#56077D;stroke-width: 5.10 ;&st6;" /></a><a ewd:lineID="29" style="cursor:pointer;"><path d=" M 1274.79,  512.83  L 1274.79,  545.69  L 1198.30,  545.69  L 1181.30,  528.70  L 1181.30,  521.33 " style="stroke:#FF0000;stroke-width: 5.10 ;&st6;" /></a><a ewd:lineID="30" style="cursor:pointer;"><path d=" M 1181.30,  521.33  L 1181.30,  571.19  L 1291.78,  571.19  L 1308.78,  588.19  L 1308.78,  596.69 " style="stroke:#F668B2;stroke-width: 5.10 ;&st6;" /></a><a ewd:lineID="31" style="cursor:pointer;"><path d=" M 1215.30,  349.09  L 1215.30,  103.77 " style="stroke:#008837;stroke-width: 5.10 ;&st6;" /><path d=" M 1215.30,  349.09  L 1215.30,  103.77 " style="stroke:#FFFFFF;stroke-width: 1.13 ;&st6;" /></a><a ewd:lineID="32" style="cursor:pointer;"><path d=" M 1215.30,  349.09  L 1215.30,  341.73  L 1223.80,  333.23  L 1274.79,  333.23  L 1274.79,  366.66 " style="stroke:#008837;stroke-width: 5.10 ;&st6;" /></a><a ewd:lineID="33" style="cursor:pointer;"><path d=" M 1453.26,  170.62  L 1453.26,  163.26  L 1436.26,  146.26  L 1436.26,  120.77  L 1223.80,  120.77  L 1215.30,  112.27  L 1215.30,  103.77 " style="stroke:#008837;stroke-width: 5.10 ;&st6;" /><path d=" M 1453.26,  170.62  L 1453.26,  163.26  L 1436.26,  146.26  L 1436.26,  120.77  L 1223.80,  120.77  L 1215.30,  112.27  L 1215.30,  103.77 " style="stroke:#FFFFFF;stroke-width: 1.13 ;&st6;" /></a><a ewd:lineID="34" style="cursor:pointer;"><path d=" M 1274.79,  401.78  L 1274.79,  442.58 " style="stroke:#008837;stroke-width: 5.10 ;&st6;" /></a><a ewd:lineID="35" style="cursor:pointer;"><path d=" M 1308.78,  613.68  L 1308.78,  681.67 " style="stroke:#000000;stroke-width: 5.10 ;&st6;" /><path d=" M 1308.78,  613.68  L 1308.78,  681.67 " style="stroke:#FFFFFF;stroke-width: 4.53 ;&st6;" /><path d=" M 1308.78,  613.68  L 1308.78,  681.67 " style="stroke:#000000;stroke-width: 1.13 ;&st6;" /></a><a ewd:lineID="36" style="cursor:pointer;"><path d=" M 1308.78,  512.83  L 1308.78,  596.69 " style="stroke:#F668B2;stroke-width: 5.10 ;&st6;" /></a><a ewd:lineID="37" style="cursor:pointer;"><path d=" M 1444.76,  521.33  L 1444.76,  571.19  L 1325.78,  571.19  L 1308.78,  588.19  L 1308.78,  596.69 " style="stroke:#F668B2;stroke-width: 5.10 ;&st6;" /></a><a ewd:lineID="38" style="cursor:pointer;"><path d=" M 1308.78,  442.58  L 1308.78,  290.74  L 1478.75,  290.74  L 1478.75,  240.88 " style="stroke:#7FC97F;stroke-width: 5.10 ;&st6;" /><path d=" M 1308.78,  442.58  L 1308.78,  290.74  L 1478.75,  290.74  L 1478.75,  240.88 " style="stroke:#FFFFFF;stroke-width: 2.27 ;&st6;" /><path d=" M 1308.78,  442.58  L 1308.78,  290.74  L 1478.75,  290.74  L 1478.75,  240.88 " style="stroke:#000000;stroke-width: 1.13 ;&st6;" /></a><a ewd:lineID="39" style="cursor:pointer;"><path d=" M 1478.75,  170.62  L 1478.75,  120.77  L 1453.26,  120.77  L 1453.26,  170.62 " style="stroke:#008837;stroke-width: 5.10 ;&st6;" /><path d=" M 1478.75,  170.62  L 1478.75,  120.77  L 1453.26,  120.77  L 1453.26,  170.62 " style="stroke:#FFFFFF;stroke-width: 1.13 ;&st6;" /></a><a ewd:lineID="40" style="cursor:pointer;"><path d=" M 1461.76,  349.09  L 1461.76,  324.73  L 1504.25,  324.73  L 1504.25,  256.74  L 1487.25,  256.74  L 1478.75,  248.24  L 1478.75,  240.88 " style="stroke:#7FC97F;stroke-width: 5.10 ;&st6;" /><path d=" M 1461.76,  349.09  L 1461.76,  324.73  L 1504.25,  324.73  L 1504.25,  256.74  L 1487.25,  256.74  L 1478.75,  248.24  L 1478.75,  240.88 " style="stroke:#FFFFFF;stroke-width: 2.27 ;&st6;" /><path d=" M 1461.76,  349.09  L 1461.76,  324.73  L 1504.25,  324.73  L 1504.25,  256.74  L 1487.25,  256.74  L 1478.75,  248.24  L 1478.75,  240.88 " style="stroke:#000000;stroke-width: 1.13 ;&st6;" /></a><a ewd:lineID="41" style="cursor:pointer;"><path d=" M 1478.75,  622.18  L 1478.75,  681.67 " style="stroke:#000000;stroke-width: 5.10 ;&st6;" /><path d=" M 1478.75,  622.18  L 1478.75,  681.67 " style="stroke:#FFFFFF;stroke-width: 4.53 ;&st6;" /><path d=" M 1478.75,  622.18  L 1478.75,  681.67 " style="stroke:#000000;stroke-width: 1.13 ;&st6;" /></a><a ewd:lineID="42" style="cursor:pointer;"><path d=" M 1478.75,  605.18  L 1478.75,  521.33 " style="stroke:#000000;stroke-width: 5.10 ;&st6;" /><path d=" M 1478.75,  605.18  L 1478.75,  521.33 " style="stroke:#FFFFFF;stroke-width: 4.53 ;&st6;" /></a><a ewd:code="IF8" ewd:figID="23" ewd:figtype="w2w" ewd:pinNo="18" style="cursor:pointer;"><path d=" M  620.40,  180.26  L  603.40,  180.26  L  603.40,  188.75  L  620.40,  188.75  L  620.40,  180.26 " style="&st2;" /><text style="&st8;" transform="matrix(&st16;  606.54  187.0 )"><tspan style="&st18;" x="0" y="0">IF8</tspan></text></a><a ewd:code="EB" ewd:figID="24" ewd:figtype="gp" style="cursor:pointer;"><path d=" M  142.35,  681.67  L  163.60,  681.67  L  152.97,  697.25  L  142.35,  681.67 " style="&st2;" /><text style="&st8;" transform="matrix(&st16;  148.07  689.83 )"><tspan style="&st18;" x="0" y="0">EB</tspan></text></a><a ewd:code="IE" ewd:figID="25" ewd:figtype="gp" style="cursor:pointer;"><path d=" M 1468.13,  681.67  L 1489.38,  681.67  L 1478.75,  697.25  L 1468.13,  681.67 " style="&st2;" /><text style="&st8;" transform="matrix(&st16;  1475.26  689.83 )"><tspan style="&st18;" x="0" y="0">IE</tspan></text></a><a ewd:code="EA" ewd:figID="26" ewd:figtype="gp" style="cursor:pointer;"><path d=" M  235.84,  681.67  L  257.08,  681.67  L  246.46,  697.25  L  235.84,  681.67 " style="&st2;" /><text style="&st8;" transform="matrix(&st16;  241.55  689.83 )"><tspan style="&st18;" x="0" y="0">EA</tspan></text></a><a ewd:code="ID" ewd:figID="27" ewd:figtype="gp" style="cursor:pointer;"><path d=" M 1298.16,  681.67  L 1319.40,  681.67  L 1308.78,  697.25  L 1298.16,  681.67 " style="&st2;" /><text style="&st8;" transform="matrix(&st16;  1305.14  689.83 )"><tspan style="&st18;" x="0" y="0">ID</tspan></text></a><a ewd:code="2881" ewd:figID="28" ewd:figtype="sp" style="cursor:pointer;"><path d=" M  242.21,  622.18  L  250.71,  622.18  L  254.96,  626.43  L  254.96,  634.93  L  250.71,  639.18  L  242.21,  639.18  L  237.96,  634.93  L  237.96,  626.43  L  242.21,  622.18 " style="&st2;" /></a></g></svg>