﻿<?xml version="1.0" encoding="utf-8"?>
<!DOCTYPE svg PUBLIC "-//W3C//DTD SVG 1.0//EN" "http://www.w3.org/TR/2001/REC-SVG-20010904/DTD/svg10.dtd"[
	<!ENTITY ns_flows "http://ns.adobe.com/Flows/1.0/">
	<!ENTITY ns_svg "http://www.w3.org/2000/svg">
	<!ENTITY ns_xlink "http://www.w3.org/1999/xlink">
	<!ENTITY st0 "font-size:7px;font-family:'MS-PGothic';adobe-font-script:japanese;">
	<!ENTITY st1 "font-size:6px;font-family:'ArialMT';">
	<!-- White fill  -->
	<!ENTITY st2 "fill:#FFFFFF;stroke:#000000; stroke-width:1.41;stroke-linecap:round;stroke-linejoin:round;">
	<!-- Yellow fill  -->
	<!ENTITY st3 "fill:#FFFFCC;stroke:#FFFFCC; stroke-width:0.1;stroke-linecap:round;stroke-linejoin:round;">
	<!-- Gray fill  -->
	<!ENTITY st4 "fill:#CCCCCC;stroke:#CCCCCC; stroke-width:0.1;stroke-linecap:round;stroke-linejoin:round;">
	<!-- Light-blue fill -->
	<!ENTITY st5 "fill:#CCECF4;stroke:#000000; stroke-width:1.133;stroke-linecap:round;stroke-linejoin:round;">
	<!ENTITY st6 "fill:none;stroke-linecap:butt; stroke-linejoin:round;">
	<!ENTITY st7 "fill:none;stroke:#000000;stroke-linecap:round;stroke-linejoin:round;">
	<!ENTITY st8 "enable-background:new    ;">
	<!-- Black fill -->
	<!ENTITY st9 "fill:#000000;stroke:#000000; stroke-linecap:round;stroke-linejoin:round;">
	<!-- SRS note   -->
	<!ENTITY st10 "font-size:9px;font-family:'ArialMT';">
	<!ENTITY st11 "font-size:9px;font-family:'Svg Symbol';">
	<!ENTITY st12 "font-size:6px;font-family:'Svg Symbol';">
	<!ENTITY st13 "fill:none;stroke:#ff0000;stroke-linecap:round;stroke-linejoin:round;">
	<!-- Yellow fill  -->
	<!ENTITY st14 "fill:#FFFF00;stroke:#FFFF00; stroke-width:0.1;stroke-linecap:round;stroke-linejoin:round;">
	<!ENTITY st15 "font-size:6px;font-family:'MS-PGothic';adobe-font-script:japanese;">
	<!ENTITY st16 "1.00 0.00 0.00 1.00">
	<!ENTITY st17 "0.00 -1.00 1.00 0.00">
	<!ENTITY st18 "font-size:6px;font-family:'Arial';">
	<!ENTITY st19 "font-size:9px;font-family:'Arial';">
	<!ENTITY st20 "font-size:6px;font-family:'MS-PGothic','MS PGothic';adobe-font-script:japanese;">
	<!ENTITY st21 "font-size:7px;font-family:'MS-PGothic','MS PGothic';adobe-font-script:japanese;">
	<!ATTLIST svg
		xmlns:ewd CDATA #FIXED "http://shcl.co.jp/ewd"
		xmlns:a CDATA #FIXED "http://ns.adobe.com/AdobeSVGViewerExtensions/3.0/"
		ewd:ver CDATA #IMPLIED
	>
	<!ATTLIST a
		ewd:lineID CDATA #IMPLIED
		ewd:groupID CDATA #IMPLIED
		ewd:figtype CDATA #IMPLIED
		ewd:code CDATA #IMPLIED
		ewd:figID CDATA #IMPLIED
		ewd:pinNo CDATA #IMPLIED
		ewd:comment CDATA #IMPLIED >
	<!ATTLIST g
		ewd:lineID CDATA #IMPLIED
		ewd:groupID CDATA #IMPLIED
		ewd:figtype CDATA #IMPLIED
		ewd:code CDATA #IMPLIED
		ewd:figID CDATA #IMPLIED
		ewd:pinNo CDATA #IMPLIED
		ewd:comment CDATA #IMPLIED >
	<!ATTLIST text
		ewd:textID CDATA #IMPLIED >
	<!ATTLIST title
		ewd:textID CDATA #IMPLIED >
]>
<!-- Generator: Shintec Hozumi YS   -->
<svg onload="call_execInitLoadProc_svg('system')" style="overflow:visible;  enable-background:new 0 0 1545.325 710.000" viewBox="0 0 1545.325 710.000" height="710.000" width="1545.325" xml:space="preserve" ewd:ver="L2.1.2.7" xmlns="&ns_svg;" xmlns:a="http://ns.adobe.com/AdobeSVGViewerExtensions/3.0/" xmlns:ewd="http://shcl.co.jp/ewd" xmlns:xlink="&ns_xlink;">
<path d=" M 1172.80,   44.28  L 1529.74,   44.28  L 1529.74,  588.19 " style="stroke:#000000;stroke-width: 0.85 ;&st7;stroke-dasharray:3, 1.5;" /><path d=" M 1402.27,  197.25  L 1427.76,  197.25  L 1427.76,  588.19 " style="stroke:#000000;stroke-width: 0.85 ;&st7;stroke-dasharray:3, 1.5;" /><path d=" M 1399.78,  191.24  L 1419.26,  171.76  L 1470.25,  171.76  L 1470.25,  588.19 " style="stroke:#000000;stroke-width: 0.85 ;&st7;stroke-dasharray:3, 1.5;" /><path d=" M 1164.31,  120.77  L 1062.32,  120.77  L 1062.32,  154.76  L 1164.31,  154.76  L 1164.31,   52.78 " style="stroke:#000000;stroke-width: 0.85 ;&st7;stroke-dasharray:3, 1.5;" /><path d=" M 1257.79,  588.19  L 1257.79,  341.73  L 1172.80,  341.73  L 1172.80,  375.72  L 1257.79,  375.72 " style="stroke:#000000;stroke-width: 0.85 ;&st7;stroke-dasharray:3, 1.5;" /><path d=" M 1368.27,  588.19  L 1368.27,  341.73  L 1283.29,  341.73  L 1283.29,  375.72  L 1368.27,  375.72 " style="stroke:#000000;stroke-width: 0.85 ;&st7;stroke-dasharray:3, 1.5;" /><path d=" M 1385.27,  197.25  L 1274.79,  197.25  L 1274.79,  231.25  L 1393.77,  231.25  L 1393.77,  205.75 " style="stroke:#000000;stroke-width: 0.85 ;&st7;stroke-dasharray:3, 1.5;" /><path d=" M 1402.27,  193.73  L 1397.29,  188.75 " style="stroke-width: 1.42 ;&st7; " /><path d=" M 1385.27,  200.78  L 1390.24,  205.75 " style="stroke-width: 1.42 ;&st7; " /><path d=" M 1397.29,  205.75  L 1402.27,  200.78 " style="stroke-width: 1.42 ;&st7; " /><path d=" M 1390.24,  188.75  L 1385.27,  193.73 " style="stroke-width: 1.42 ;&st7; " /><path d=" M 1172.80,   40.75  L 1167.83,   35.78 " style="stroke-width: 1.42 ;&st7; " /><path d=" M 1155.81,   47.81  L 1160.78,   52.78 " style="stroke-width: 1.42 ;&st7; " /><path d=" M 1167.83,   52.78  L 1172.80,   47.81 " style="stroke-width: 1.42 ;&st7; " /><path d=" M 1160.78,   35.78  L 1155.81,   40.75 " style="stroke-width: 1.42 ;&st7; " /><path d=" M 1300.28,  409.72  L 1300.28,  418.22 " style="stroke-width: 1.42 ;&st7; " /><path d=" M 1317.28,  409.72  L 1317.28,  418.22 " style="stroke-width: 1.42 ;&st7; " /><path d=" M 1300.28,  426.71  L 1300.28,  418.22 " style="stroke-width: 1.42 ;&st7; " /><path d=" M 1317.28,  426.71  L 1317.28,  418.22 " style="stroke-width: 1.42 ;&st7; " /><path d=" M 1308.78,  401.22  L 1308.78,  409.72 " style="stroke-width: 0.85 ;&st7; " /><path d=" M 1308.78,  426.71  L 1308.78,  435.21 " style="stroke-width: 0.85 ;&st7; " /><path d=" M 1163.11,  119.76  L 1162.84,  120.23  L 1162.75,  120.77  L 1162.84,  121.30  L 1163.11,  121.77  L 1163.53,  122.11  L 1164.03,  122.30  L 1164.58,  122.30  L 1165.08,  122.11  L 1165.50,  121.77  L 1165.77,  121.30  L 1165.86,  120.77  L 1165.77,  120.23  L 1165.50,  119.76  L 1165.08,  119.42  L 1164.58,  119.23  L 1164.03,  119.23  L 1163.53,  119.42  L 1163.11,  119.76  L 1163.51,  120.47  L 1163.51,  121.06  L 1163.88,  121.50  L 1164.45,  121.60  L 1164.96,  121.31  L 1165.15,  120.77  L 1164.96,  120.22  L 1164.45,  119.93  L 1163.88,  120.03  L 1164.30,  120.77 " style="stroke-width: 0.85 ;&st7; " /><path d=" M 1426.34,  710.00  L 1429.18,  710.00 " style="stroke-width: 0.85 ;&st7; " /><path d=" M 1424.93,  707.17  L 1430.59,  707.17 " style="stroke-width: 0.85 ;&st7; " /><path d=" M 1423.51,  704.33  L 1432.01,  704.33 " style="stroke-width: 0.85 ;&st7; " /><path d=" M 1419.26,  701.50  L 1436.26,  701.50 " style="stroke-width: 0.85 ;&st7; " /><path d=" M 1427.76,  697.25  L 1427.76,  701.50 " style="stroke-width: 0.85 ;&st7; " /><path d=" M 1419.26,  588.19  L 1436.26,  588.19  L 1436.26,  605.18  L 1419.26,  605.18  L 1419.26,  588.19 " style="stroke-width: 1.42 ;&st7; " /><path d=" M 1427.76,  588.19  L 1427.76,  605.18 " style="stroke-width: 0.85 ;&st7; " /><path d=" M 1368.27,  307.73  L 1070.82,  307.73  L 1070.82,  265.24  L 1368.27,  265.24  L 1368.27,  307.73 " style="stroke-width: 1.42 ;&st7; " /><path d=" M 1359.77,  163.26  L 1291.78,  163.26  L 1291.78,  129.26  L 1359.77,  129.26  L 1359.77,  163.26 " style="stroke-width: 1.42 ;&st7; " /><path d=" M 1130.31,  103.77  L 1079.32,  103.77  L 1079.32,   69.77  L 1130.31,   69.77  L 1130.31,  103.77 " style="stroke-width: 1.42 ;&st7; " /><path d=" M 1079.32,  188.75  L 1079.32,  214.25  L 1096.32,  214.25  L 1096.32,  188.75  L 1079.32,  188.75 " style="stroke-width: 1.42 ;&st7; " /><path d=" M 1079.32,  197.25  L 1096.32,  197.25 " style="stroke-width: 1.13 ;&st7;stroke-dasharray:3, 1.5;" /><path d=" M 1079.32,  205.75  L 1096.32,  205.75 " style="stroke-width: 1.13 ;&st7;stroke-dasharray:3, 1.5;" /><path d=" M 1087.82,  188.75  L 1087.82,  214.25 " style="stroke-width: 0.85 ;&st7; " /><path d=" M 1096.32,  330.40  L 1104.81,  330.40 " style="stroke-width: 0.85 ;&st7;stroke-dasharray:3, 1.5;" /><path d=" M 1096.32,  321.33  L 1104.81,  321.33 " style="stroke-width: 0.85 ;&st7;stroke-dasharray:3, 1.5;" /><path d=" M 1096.32,  339.46  L 1109.06,  339.46 " style="stroke-width: 0.85 ;&st7;stroke-dasharray:3, 1.5;" /><path d=" M 1366.85,  710.00  L 1369.69,  710.00 " style="stroke-width: 0.85 ;&st7; " /><path d=" M 1365.44,  707.17  L 1371.10,  707.17 " style="stroke-width: 0.85 ;&st7; " /><path d=" M 1364.02,  704.33  L 1372.52,  704.33 " style="stroke-width: 0.85 ;&st7; " /><path d=" M 1359.77,  701.50  L 1376.77,  701.50 " style="stroke-width: 0.85 ;&st7; " /><path d=" M 1368.27,  697.25  L 1368.27,  701.50 " style="stroke-width: 0.85 ;&st7; " /><path d=" M 1359.77,  588.19  L 1376.77,  588.19  L 1376.77,  605.18  L 1359.77,  605.18  L 1359.77,  588.19 " style="stroke-width: 1.42 ;&st7; " /><path d=" M 1368.27,  588.19  L 1368.27,  605.18 " style="stroke-width: 0.85 ;&st7; " /><path d=" M 1491.50,  704.33  L 1500.00,  704.33 " style="stroke-width: 0.85 ;&st7; " /><path d=" M 1256.37,  710.00  L 1259.21,  710.00 " style="stroke-width: 0.85 ;&st7; " /><path d=" M 1254.96,  707.17  L 1260.62,  707.17 " style="stroke-width: 0.85 ;&st7; " /><path d=" M 1253.54,  704.33  L 1262.04,  704.33 " style="stroke-width: 0.85 ;&st7; " /><path d=" M 1249.29,  701.50  L 1266.29,  701.50 " style="stroke-width: 0.85 ;&st7; " /><path d=" M 1257.79,  697.25  L 1257.79,  701.50 " style="stroke-width: 0.85 ;&st7; " /><path d=" M 1249.29,  588.19  L 1266.29,  588.19  L 1266.29,  605.18  L 1249.29,  605.18  L 1249.29,  588.19 " style="stroke-width: 1.42 ;&st7; " /><path d=" M 1257.79,  588.19  L 1257.79,  605.18 " style="stroke-width: 0.85 ;&st7; " /><path d=" M 1096.32,  312.27  L 1104.81,  312.27 " style="stroke-width: 0.85 ;&st7;stroke-dasharray:3, 1.5;" /><path d=" M 1181.30,  401.22  L 1215.30,  401.22  L 1215.30,  435.21  L 1181.30,  435.21  L 1181.30,  401.22 " style="stroke-width: 1.42 ;&st7; " /><path d=" M 1308.78,  251.64  L 1334.28,  251.64 " style="stroke-width: 0.85 ;&st7;stroke-dasharray:3, 1.5;" /><path d=" M 1308.78,  260.71  L 1338.55,  260.71 " style="stroke-width: 0.85 ;&st7;stroke-dasharray:3, 1.5;" /><path d=" M 1096.32,  348.53  L 1104.81,  348.53 " style="stroke-width: 0.85 ;&st7;stroke-dasharray:3, 1.5;" /><path d=" M 1256.60,  374.72  L 1256.32,  375.19  L 1256.23,  375.72  L 1256.32,  376.26  L 1256.60,  376.73  L 1257.01,  377.07  L 1257.52,  377.26  L 1258.06,  377.26  L 1258.57,  377.07  L 1258.98,  376.73  L 1259.25,  376.26  L 1259.35,  375.72  L 1259.25,  375.19  L 1258.98,  374.72  L 1258.57,  374.37  L 1258.06,  374.19  L 1257.52,  374.19  L 1257.01,  374.37  L 1256.60,  374.72  L 1256.99,  375.43  L 1256.99,  376.01  L 1257.36,  376.46  L 1257.94,  376.56  L 1258.44,  376.27  L 1258.64,  375.72  L 1258.44,  375.18  L 1257.94,  374.89  L 1257.36,  374.99  L 1257.79,  375.72 " style="stroke-width: 0.85 ;&st7; " /><path d=" M 1367.08,  374.72  L 1366.81,  375.19  L 1366.71,  375.72  L 1366.81,  376.26  L 1367.08,  376.73  L 1367.49,  377.07  L 1368.00,  377.26  L 1368.54,  377.26  L 1369.05,  377.07  L 1369.46,  376.73  L 1369.74,  376.26  L 1369.83,  375.72  L 1369.74,  375.19  L 1369.46,  374.72  L 1369.05,  374.37  L 1368.54,  374.19  L 1368.00,  374.19  L 1367.49,  374.37  L 1367.08,  374.72  L 1367.47,  375.43  L 1367.47,  376.01  L 1367.85,  376.46  L 1368.42,  376.56  L 1368.92,  376.27  L 1369.12,  375.72  L 1368.92,  375.18  L 1368.42,  374.89  L 1367.85,  374.99  L 1368.27,  375.72 " style="stroke-width: 0.85 ;&st7; " /><path d=" M 1487.25,  701.50  L 1504.25,  701.50 " style="stroke-width: 0.85 ;&st7; " /><path d=" M 1494.33,  710.00  L 1497.17,  710.00 " style="stroke-width: 0.85 ;&st7; " /><path d=" M 1492.92,  707.17  L 1498.58,  707.17 " style="stroke-width: 0.85 ;&st7; " /><path d=" M 1495.75,  697.25  L 1495.75,  701.50 " style="stroke-width: 0.85 ;&st7; " /><path d=" M 1461.76,  588.19  L 1478.75,  588.19  L 1478.75,  605.18  L 1461.76,  605.18  L 1461.76,  588.19 " style="stroke-width: 1.42 ;&st7; " /><path d=" M 1470.25,  588.19  L 1470.25,  605.18 " style="stroke-width: 0.85 ;&st7; " /><path d=" M 1304.82,  260.71  C 1304.82   258.21  1302.79   256.18  1300.28   256.18 " style="stroke-width: 1.42 ;&st7; " /><path d=" M 1300.28,  256.18  C 1297.78   256.18  1295.75   258.21  1295.75   260.71 " style="stroke-width: 1.42 ;&st7; " /><path d=" M 1295.75,  260.71  C 1295.75   263.21  1297.78   265.24  1300.28   265.24 " style="stroke-width: 1.42 ;&st7; " /><path d=" M 1300.28,  265.24  C 1302.79   265.24  1304.82   263.21  1304.82   260.71 " style="stroke-width: 1.42 ;&st7; " /><path d=" M 1355.81,  260.71  C 1355.81   258.21  1353.78   256.18  1351.27   256.18 " style="stroke-width: 1.42 ;&st7; " /><path d=" M 1351.27,  256.18  C 1348.77   256.18  1346.74   258.21  1346.74   260.71 " style="stroke-width: 1.42 ;&st7; " /><path d=" M 1346.74,  260.71  C 1346.74   263.21  1348.77   265.24  1351.27   265.24 " style="stroke-width: 1.42 ;&st7; " /><path d=" M 1351.27,  265.24  C 1353.78   265.24  1355.81   263.21  1355.81   260.71 " style="stroke-width: 1.42 ;&st7; " /><path d=" M 1092.35,  260.71  C 1092.35   258.21  1090.32   256.18  1087.82   256.18 " style="stroke-width: 1.42 ;&st7; " /><path d=" M 1087.82,  256.18  C 1085.32   256.18  1083.29   258.21  1083.29   260.71 " style="stroke-width: 1.42 ;&st7; " /><path d=" M 1083.29,  260.71  C 1083.29   263.21  1085.32   265.24  1087.82   265.24 " style="stroke-width: 1.42 ;&st7; " /><path d=" M 1087.82,  265.24  C 1090.32   265.24  1092.35   263.21  1092.35   260.71 " style="stroke-width: 1.42 ;&st7; " /><path d=" M 1126.35,  260.71  C 1126.35   258.21  1124.32   256.18  1121.81   256.18 " style="stroke-width: 1.42 ;&st7; " /><path d=" M 1121.81,  256.18  C 1119.31   256.18  1117.28   258.21  1117.28   260.71 " style="stroke-width: 1.42 ;&st7; " /><path d=" M 1117.28,  260.71  C 1117.28   263.21  1119.31   265.24  1121.81   265.24 " style="stroke-width: 1.42 ;&st7; " /><path d=" M 1121.81,  265.24  C 1124.32   265.24  1126.35   263.21  1126.35   260.71 " style="stroke-width: 1.42 ;&st7; " /><path d=" M 1092.35,  184.22  C 1092.35   181.72  1090.32   179.69  1087.82   179.69 " style="stroke-width: 1.42 ;&st7; " /><path d=" M 1087.82,  179.69  C 1085.32   179.69  1083.29   181.72  1083.29   184.22 " style="stroke-width: 1.42 ;&st7; " /><path d=" M 1083.29,  184.22  C 1083.29   186.72  1085.32   188.75  1087.82   188.75 " style="stroke-width: 1.42 ;&st7; " /><path d=" M 1087.82,  188.75  C 1090.32   188.75  1092.35   186.72  1092.35   184.22 " style="stroke-width: 1.42 ;&st7; " /><path d=" M 1092.35,  218.78  C 1092.35   216.28  1090.32   214.25  1087.82   214.25 " style="stroke-width: 1.42 ;&st7; " /><path d=" M 1087.82,  214.25  C 1085.32   214.25  1083.29   216.28  1083.29   218.78 " style="stroke-width: 1.42 ;&st7; " /><path d=" M 1083.29,  218.78  C 1083.29   221.29  1085.32   223.31  1087.82   223.31 " style="stroke-width: 1.42 ;&st7; " /><path d=" M 1087.82,  223.31  C 1090.32   223.31  1092.35   221.29  1092.35   218.78 " style="stroke-width: 1.42 ;&st7; " /><path d=" M 1092.35,  339.46  C 1092.35   336.96  1090.32   334.93  1087.82   334.93 " style="stroke-width: 1.42 ;&st7; " /><path d=" M 1087.82,  334.93  C 1085.32   334.93  1083.29   336.96  1083.29   339.46 " style="stroke-width: 1.42 ;&st7; " /><path d=" M 1083.29,  339.46  C 1083.29   341.97  1085.32   343.99  1087.82   343.99 " style="stroke-width: 1.42 ;&st7; " /><path d=" M 1087.82,  343.99  C 1090.32   343.99  1092.35   341.97  1092.35   339.46 " style="stroke-width: 1.42 ;&st7; " /><path d=" M 1092.35,  321.33  C 1092.35   318.83  1090.32   316.80  1087.82   316.80 " style="stroke-width: 1.42 ;&st7; " /><path d=" M 1087.82,  316.80  C 1085.32   316.80  1083.29   318.83  1083.29   321.33 " style="stroke-width: 1.42 ;&st7; " /><path d=" M 1083.29,  321.33  C 1083.29   323.83  1085.32   325.86  1087.82   325.86 " style="stroke-width: 1.42 ;&st7; " /><path d=" M 1087.82,  325.86  C 1090.32   325.86  1092.35   323.83  1092.35   321.33 " style="stroke-width: 1.42 ;&st7; " /><path d=" M 1092.35,  330.40  C 1092.35   327.89  1090.32   325.86  1087.82   325.86 " style="stroke-width: 1.42 ;&st7; " /><path d=" M 1087.82,  325.86  C 1085.32   325.86  1083.29   327.89  1083.29   330.40 " style="stroke-width: 1.42 ;&st7; " /><path d=" M 1083.29,  330.40  C 1083.29   332.90  1085.32   334.93  1087.82   334.93 " style="stroke-width: 1.42 ;&st7; " /><path d=" M 1087.82,  334.93  C 1090.32   334.93  1092.35   332.90  1092.35   330.40 " style="stroke-width: 1.42 ;&st7; " /><path d=" M 1126.35,  339.46  C 1126.35   336.96  1124.32   334.93  1121.81   334.93 " style="stroke-width: 1.42 ;&st7; " /><path d=" M 1121.81,  334.93  C 1119.31   334.93  1117.28   336.96  1117.28   339.46 " style="stroke-width: 1.42 ;&st7; " /><path d=" M 1117.28,  339.46  C 1117.28   341.97  1119.31   343.99  1121.81   343.99 " style="stroke-width: 1.42 ;&st7; " /><path d=" M 1121.81,  343.99  C 1124.32   343.99  1126.35   341.97  1126.35   339.46 " style="stroke-width: 1.42 ;&st7; " /><path d=" M 1126.35,  321.33  C 1126.35   318.83  1124.32   316.80  1121.81   316.80 " style="stroke-width: 1.42 ;&st7; " /><path d=" M 1121.81,  316.80  C 1119.31   316.80  1117.28   318.83  1117.28   321.33 " style="stroke-width: 1.42 ;&st7; " /><path d=" M 1117.28,  321.33  C 1117.28   323.83  1119.31   325.86  1121.81   325.86 " style="stroke-width: 1.42 ;&st7; " /><path d=" M 1121.81,  325.86  C 1124.32   325.86  1126.35   323.83  1126.35   321.33 " style="stroke-width: 1.42 ;&st7; " /><path d=" M 1126.35,  330.40  C 1126.35   327.89  1124.32   325.86  1121.81   325.86 " style="stroke-width: 1.42 ;&st7; " /><path d=" M 1121.81,  325.86  C 1119.31   325.86  1117.28   327.89  1117.28   330.40 " style="stroke-width: 1.42 ;&st7; " /><path d=" M 1117.28,  330.40  C 1117.28   332.90  1119.31   334.93  1121.81   334.93 " style="stroke-width: 1.42 ;&st7; " /><path d=" M 1121.81,  334.93  C 1124.32   334.93  1126.35   332.90  1126.35   330.40 " style="stroke-width: 1.42 ;&st7; " /><path d=" M 1347.31,  312.27  C 1347.31   309.76  1345.28   307.73  1342.78   307.73 " style="stroke-width: 1.42 ;&st7; " /><path d=" M 1342.78,  307.73  C 1340.27   307.73  1338.24   309.76  1338.24   312.27 " style="stroke-width: 1.42 ;&st7; " /><path d=" M 1338.24,  312.27  C 1338.24   314.77  1340.27   316.80  1342.78   316.80 " style="stroke-width: 1.42 ;&st7; " /><path d=" M 1342.78,  316.80  C 1345.28   316.80  1347.31   314.77  1347.31   312.27 " style="stroke-width: 1.42 ;&st7; " /><path d=" M 1313.31,  312.27  C 1313.31   309.76  1311.28   307.73  1308.78   307.73 " style="stroke-width: 1.42 ;&st7; " /><path d=" M 1308.78,  307.73  C 1306.28   307.73  1304.25   309.76  1304.25   312.27 " style="stroke-width: 1.42 ;&st7; " /><path d=" M 1304.25,  312.27  C 1304.25   314.77  1306.28   316.80  1308.78   316.80 " style="stroke-width: 1.42 ;&st7; " /><path d=" M 1308.78,  316.80  C 1311.28   316.80  1313.31   314.77  1313.31   312.27 " style="stroke-width: 1.42 ;&st7; " /><path d=" M 1313.31,  439.75  C 1313.31   437.24  1311.28   435.21  1308.78   435.21 " style="stroke-width: 1.42 ;&st7; " /><path d=" M 1308.78,  435.21  C 1306.28   435.21  1304.25   437.24  1304.25   439.75 " style="stroke-width: 1.42 ;&st7; " /><path d=" M 1304.25,  439.75  C 1304.25   442.25  1306.28   444.28  1308.78   444.28 " style="stroke-width: 1.42 ;&st7; " /><path d=" M 1308.78,  444.28  C 1311.28   444.28  1313.31   442.25  1313.31   439.75 " style="stroke-width: 1.42 ;&st7; " /><path d=" M 1355.81,  167.79  C 1355.81   165.29  1353.78   163.26  1351.27   163.26 " style="stroke-width: 1.42 ;&st7; " /><path d=" M 1351.27,  163.26  C 1348.77   163.26  1346.74   165.29  1346.74   167.79 " style="stroke-width: 1.42 ;&st7; " /><path d=" M 1346.74,  167.79  C 1346.74   170.29  1348.77   172.32  1351.27   172.32 " style="stroke-width: 1.42 ;&st7; " /><path d=" M 1351.27,  172.32  C 1353.78   172.32  1355.81   170.29  1355.81   167.79 " style="stroke-width: 1.42 ;&st7; " /><path d=" M 1304.82,  167.79  C 1304.82   165.29  1302.79   163.26  1300.28   163.26 " style="stroke-width: 1.42 ;&st7; " /><path d=" M 1300.28,  163.26  C 1297.78   163.26  1295.75   165.29  1295.75   167.79 " style="stroke-width: 1.42 ;&st7; " /><path d=" M 1295.75,  167.79  C 1295.75   170.29  1297.78   172.32  1300.28   172.32 " style="stroke-width: 1.42 ;&st7; " /><path d=" M 1300.28,  172.32  C 1302.79   172.32  1304.82   170.29  1304.82   167.79 " style="stroke-width: 1.42 ;&st7; " /><path d=" M 1126.35,  108.30  C 1126.35   105.80  1124.32   103.77  1121.81   103.77 " style="stroke-width: 1.42 ;&st7; " /><path d=" M 1121.81,  103.77  C 1119.31   103.77  1117.28   105.80  1117.28   108.30 " style="stroke-width: 1.42 ;&st7; " /><path d=" M 1117.28,  108.30  C 1117.28   110.80  1119.31   112.83  1121.81   112.83 " style="stroke-width: 1.42 ;&st7; " /><path d=" M 1121.81,  112.83  C 1124.32   112.83  1126.35   110.80  1126.35   108.30 " style="stroke-width: 1.42 ;&st7; " /><path d=" M 1092.35,  108.30  C 1092.35   105.80  1090.32   103.77  1087.82   103.77 " style="stroke-width: 1.42 ;&st7; " /><path d=" M 1087.82,  103.77  C 1085.32   103.77  1083.29   105.80  1083.29   108.30 " style="stroke-width: 1.42 ;&st7; " /><path d=" M 1083.29,  108.30  C 1083.29   110.80  1085.32   112.83  1087.82   112.83 " style="stroke-width: 1.42 ;&st7; " /><path d=" M 1087.82,  112.83  C 1090.32   112.83  1092.35   110.80  1092.35   108.30 " style="stroke-width: 1.42 ;&st7; " /><path d=" M 1126.35,   65.24  C 1126.35    62.74  1124.32    60.71  1121.81    60.71 " style="stroke-width: 1.42 ;&st7; " /><path d=" M 1121.81,   60.71  C 1119.31    60.71  1117.28    62.74  1117.28    65.24 " style="stroke-width: 1.42 ;&st7; " /><path d=" M 1117.28,   65.24  C 1117.28    67.74  1119.31    69.77  1121.81    69.77 " style="stroke-width: 1.42 ;&st7; " /><path d=" M 1121.81,   69.77  C 1124.32    69.77  1126.35    67.74  1126.35    65.24 " style="stroke-width: 1.42 ;&st7; " /><path d=" M 1355.81,  124.73  C 1355.81   122.23  1353.78   120.20  1351.27   120.20 " style="stroke-width: 1.42 ;&st7; " /><path d=" M 1351.27,  120.20  C 1348.77   120.20  1346.74   122.23  1346.74   124.73 " style="stroke-width: 1.42 ;&st7; " /><path d=" M 1346.74,  124.73  C 1346.74   127.23  1348.77   129.26  1351.27   129.26 " style="stroke-width: 1.42 ;&st7; " /><path d=" M 1351.27,  129.26  C 1353.78   129.26  1355.81   127.23  1355.81   124.73 " style="stroke-width: 1.42 ;&st7; " /><path d=" M 1313.31,  396.69  C 1313.31   394.18  1311.28   392.15  1308.78   392.15 " style="stroke-width: 1.42 ;&st7; " /><path d=" M 1308.78,  392.15  C 1306.28   392.15  1304.25   394.18  1304.25   396.69 " style="stroke-width: 1.42 ;&st7; " /><path d=" M 1304.25,  396.69  C 1304.25   399.19  1306.28   401.22  1308.78   401.22 " style="stroke-width: 1.42 ;&st7; " /><path d=" M 1308.78,  401.22  C 1311.28   401.22  1313.31   399.19  1313.31   396.69 " style="stroke-width: 1.42 ;&st7; " /><path d=" M 1202.83,  312.27  C 1202.83   309.76  1200.80   307.73  1198.30   307.73 " style="stroke-width: 1.42 ;&st7; " /><path d=" M 1198.30,  307.73  C 1195.80   307.73  1193.77   309.76  1193.77   312.27 " style="stroke-width: 1.42 ;&st7; " /><path d=" M 1193.77,  312.27  C 1193.77   314.77  1195.80   316.80  1198.30   316.80 " style="stroke-width: 1.42 ;&st7; " /><path d=" M 1198.30,  316.80  C 1200.80   316.80  1202.83   314.77  1202.83   312.27 " style="stroke-width: 1.42 ;&st7; " /><path d=" M 1236.83,  312.27  C 1236.83   309.76  1234.80   307.73  1232.29   307.73 " style="stroke-width: 1.42 ;&st7; " /><path d=" M 1232.29,  307.73  C 1229.79   307.73  1227.76   309.76  1227.76   312.27 " style="stroke-width: 1.42 ;&st7; " /><path d=" M 1227.76,  312.27  C 1227.76   314.77  1229.79   316.80  1232.29   316.80 " style="stroke-width: 1.42 ;&st7; " /><path d=" M 1232.29,  316.80  C 1234.80   316.80  1236.83   314.77  1236.83   312.27 " style="stroke-width: 1.42 ;&st7; " /><path d=" M 1126.35,  312.27  C 1126.35   309.76  1124.32   307.73  1121.81   307.73 " style="stroke-width: 1.42 ;&st7; " /><path d=" M 1121.81,  307.73  C 1119.31   307.73  1117.28   309.76  1117.28   312.27 " style="stroke-width: 1.42 ;&st7; " /><path d=" M 1117.28,  312.27  C 1117.28   314.77  1119.31   316.80  1121.81   316.80 " style="stroke-width: 1.42 ;&st7; " /><path d=" M 1121.81,  316.80  C 1124.32   316.80  1126.35   314.77  1126.35   312.27 " style="stroke-width: 1.42 ;&st7; " /><path d=" M 1092.35,  312.27  C 1092.35   309.76  1090.32   307.73  1087.82   307.73 " style="stroke-width: 1.42 ;&st7; " /><path d=" M 1087.82,  307.73  C 1085.32   307.73  1083.29   309.76  1083.29   312.27 " style="stroke-width: 1.42 ;&st7; " /><path d=" M 1083.29,  312.27  C 1083.29   314.77  1085.32   316.80  1087.82   316.80 " style="stroke-width: 1.42 ;&st7; " /><path d=" M 1087.82,  316.80  C 1090.32   316.80  1092.35   314.77  1092.35   312.27 " style="stroke-width: 1.42 ;&st7; " /><path d=" M 1317.28,  409.72  C 1317.28   405.02  1313.47   401.22  1308.78   401.22 " style="stroke-width: 1.42 ;&st7; " /><path d=" M 1308.78,  401.22  C 1304.09   401.22  1300.28   405.02  1300.28   409.72 " style="stroke-width: 1.42 ;&st7; " /><path d=" M 1300.28,  426.71  C 1300.28   431.41  1304.09   435.21  1308.78   435.21 " style="stroke-width: 1.42 ;&st7; " /><path d=" M 1308.78,  435.21  C 1313.47   435.21  1317.28   431.41  1317.28   426.71 " style="stroke-width: 1.42 ;&st7; " /><path d=" M 1306.25,  415.74  C 1307.62   417.13  1309.86   417.16  1311.26   415.79 " style="stroke-width: 0.85 ;&st7; " /><path d=" M 1311.26,  415.79  C 1312.66   414.42  1312.68   412.18  1311.31   410.78 " style="stroke-width: 0.85 ;&st7; " /><path d=" M 1311.31,  410.78  C 1310.62   410.07  1309.77   409.72  1308.78   409.72 " style="stroke-width: 0.85 ;&st7; " /><path d=" M 1306.25,  420.69  C 1307.62   422.09  1309.86   422.11  1311.26   420.75 " style="stroke-width: 0.85 ;&st7; " /><path d=" M 1311.26,  420.75  C 1312.66   419.38  1312.68   417.13  1311.31   415.74 " style="stroke-width: 0.85 ;&st7; " /><path d=" M 1311.31,  415.74  C 1309.94   414.34  1307.70   414.32  1306.30   415.69 " style="stroke-width: 0.85 ;&st7; " /><path d=" M 1306.30,  415.69  C 1306.28   415.70  1306.27   415.72  1306.25   415.74 " style="stroke-width: 0.85 ;&st7; " /><path d=" M 1308.78,  426.71  C 1310.74   426.71  1312.32   425.13  1312.32   423.17 " style="stroke-width: 0.85 ;&st7; " /><path d=" M 1312.32,  423.17  C 1312.32   421.22  1310.74   419.63  1308.78   419.63 " style="stroke-width: 0.85 ;&st7; " /><path d=" M 1308.78,  419.63  C 1307.79   419.63  1306.95   419.99  1306.25   420.69 " style="stroke-width: 0.85 ;&st7; " /><path d=" M 1304.82,  251.64  C 1304.82   249.14  1302.79   247.11  1300.28   247.11 " style="stroke-width: 1.42 ;&st7; " /><path d=" M 1300.28,  247.11  C 1297.78   247.11  1295.75   249.14  1295.75   251.64 " style="stroke-width: 1.42 ;&st7; " /><path d=" M 1295.75,  251.64  C 1295.75   254.15  1297.78   256.18  1300.28   256.18 " style="stroke-width: 1.42 ;&st7; " /><path d=" M 1300.28,  256.18  C 1302.79   256.18  1304.82   254.15  1304.82   251.64 " style="stroke-width: 1.42 ;&st7; " /><path d=" M 1355.81,  251.64  C 1355.81   249.14  1353.78   247.11  1351.27   247.11 " style="stroke-width: 1.42 ;&st7; " /><path d=" M 1351.27,  247.11  C 1348.77   247.11  1346.74   249.14  1346.74   251.64 " style="stroke-width: 1.42 ;&st7; " /><path d=" M 1346.74,  251.64  C 1346.74   254.15  1348.77   256.18  1351.27   256.18 " style="stroke-width: 1.42 ;&st7; " /><path d=" M 1351.27,  256.18  C 1353.78   256.18  1355.81   254.15  1355.81   251.64 " style="stroke-width: 1.42 ;&st7; " /><path d=" M 1092.35,  348.53  C 1092.35   346.02  1090.32   343.99  1087.82   343.99 " style="stroke-width: 1.42 ;&st7; " /><path d=" M 1087.82,  343.99  C 1085.32   343.99  1083.29   346.02  1083.29   348.53 " style="stroke-width: 1.42 ;&st7; " /><path d=" M 1083.29,  348.53  C 1083.29   351.03  1085.32   353.06  1087.82   353.06 " style="stroke-width: 1.42 ;&st7; " /><path d=" M 1087.82,  353.06  C 1090.32   353.06  1092.35   351.03  1092.35   348.53 " style="stroke-width: 1.42 ;&st7; " /><path d=" M 1126.35,  348.53  C 1126.35   346.02  1124.32   343.99  1121.81   343.99 " style="stroke-width: 1.42 ;&st7; " /><path d=" M 1121.81,  343.99  C 1119.31   343.99  1117.28   346.02  1117.28   348.53 " style="stroke-width: 1.42 ;&st7; " /><path d=" M 1117.28,  348.53  C 1117.28   351.03  1119.31   353.06  1121.81   353.06 " style="stroke-width: 1.42 ;&st7; " /><path d=" M 1121.81,  353.06  C 1124.32   353.06  1126.35   351.03  1126.35   348.53 " style="stroke-width: 1.42 ;&st7; " /><text style="&st18;" transform="matrix(&st17;  1424.07  643.98 )">BR</text><text ewd:textID="1" style="&st18;" transform="matrix(&st17;  1424.07  519.2 )">(Shielded)</text><text ewd:textID="1" style="&st18;" transform="matrix(&st17;  1271.09  230.25 )">(Shielded)</text><text style="&st18;" transform="matrix(&st16;  1420.97  613.38 )">2</text><text style="&st18;" transform="matrix(&st16;  1420.97  584.5 )">3</text><text style="&st18;" transform="matrix(&st16;  1114.89  304.04 )">ACT</text><text style="&st18;" transform="matrix(&st16;  1081.42  304.04 )">AC1</text><text style="&st18;" transform="matrix(&st16;  1340.43  262.68 )">7</text><text style="&st18;" transform="matrix(&st16;  1348.8  262.68 )">R</text><text style="&st18;" transform="matrix(&st16;  1297.81  262.68 )">R</text><text style="&st18;" transform="matrix(&st16;  1289.43  262.68 )">8</text><text style="&st18;" transform="matrix(&st16;  1344.46  272.88 )">NE+</text><text style="&st18;" transform="matrix(&st16;  1293.47  272.88 )">NE-</text><text style="&st18;" transform="matrix(&st17;  1296.59  216.23 )">L</text><text style="&st18;" transform="matrix(&st17;  1347.58  216.58 )">Y</text><text style="&st18;" transform="matrix(&st17;  1347.58  111.47 )">W-B</text><text style="&st18;" transform="matrix(&st17;  1367.38  165.78 )">C 4(B)</text><text ewd:textID="21" style="&st18;" transform="matrix(&st17;  1374.49  165.78 )">Crankshaft <tspan dy="6" x="0">Position Sensor</tspan></text><text style="&st18;" transform="matrix(&st16;  1107.01  262.68 )">27</text><text style="&st18;" transform="matrix(&st16;  1120.82  262.68 )">I</text><text style="&st18;" transform="matrix(&st16;  1086.83  262.68 )">I</text><text style="&st18;" transform="matrix(&st16;  1073.01  262.68 )">34</text><text style="&st18;" transform="matrix(&st17;  1084.12  140.09 )">Y</text><text style="&st18;" transform="matrix(&st17;  1118.12  139.74 )">L</text><text style="&st18;" transform="matrix(&st17;  1084.12  242.5 )">G</text><text style="&st18;" transform="matrix(&st17;  1062.57  106.29 )">C 4(B)</text><text ewd:textID="21" style="&st18;" transform="matrix(&st17;  1069.67  106.29 )">Crankshaft <tspan dy="6" x="0">Position Sensor</tspan></text><text style="&st18;" transform="matrix(&st16;  1085.49  186.19 )">A</text><text style="&st18;" transform="matrix(&st16;  1077.75  186.19 )">1</text><text style="&st18;" transform="matrix(&st16;  1085.49  220.75 )">B</text><text style="&st18;" transform="matrix(&st16;  1076.97  220.75 )">6</text><text style="&st18;" transform="matrix(&st16;  1131.11  40.58 )">W-B</text><text ewd:textID="26" style="&st18;" transform="matrix(&st17;  1069.67  216.77 )">Junction <tspan dy="6" x="0">Connector</tspan></text><text style="&st18;" transform="matrix(&st17;  1062.57  216.77 )">J31(A),J32(B)</text><text ewd:textID="1" style="&st18;" transform="matrix(&st17;  1160.61  111.27 )">(Shielded)</text><text ewd:textID="1" style="&st18;" transform="matrix(&st17;  1058.63  153.76 )">(Shielded)</text><text ewd:textID="1" style="&st18;" transform="matrix(&st16;  1224.79  40.58 )">(Shielded)</text><text style="&st18;" transform="matrix(&st16;  1132.63  51.91 )">(*2)</text><text style="&st18;" transform="matrix(&st17;  1307.92  220.43 )">(*3)</text><text style="&st18;" transform="matrix(&st17;  1282.42  220.43 )">(*3)</text><text style="&st18;" transform="matrix(&st17;  1358.91  220.43 )">(*3)</text><text style="&st18;" transform="matrix(&st17;  1358.91  109.95 )">(*3)</text><text style="&st18;" transform="matrix(&st17;  1095.45  143.94 )">(*2)</text><text style="&st18;" transform="matrix(&st17;  1129.45  143.94 )">(*2)</text><text style="&st18;" transform="matrix(&st17;  1095.45  245.93 )">(*2)</text><text style="&st18;" transform="matrix(&st17;  1171.94  101.45 )">(*2)</text><text style="&st18;" transform="matrix(&st17;  1069.96  143.94 )">(*2)</text><text style="&st18;" transform="matrix(&st16;  1234.61  51.91 )">(*2)</text><text style="&st18;" transform="matrix(&st17;  1435.4  658.04 )">(*3 *11,*16)</text><text style="&st18;" transform="matrix(&st17;  1435.4  522.06 )">(*3 *11,*16)</text><text style="&st18;" transform="matrix(&st16;  1085.29  607.15 )">* 2 :1TR-FE, 2TR-FE</text><text style="&st18;" transform="matrix(&st16;  1085.29  615.65 )">* 3 :1KD-FTV, 2KD-FTV</text><text ewd:textID="1" style="&st18;" transform="matrix(&st17;  1364.58  519.2 )">(Shielded)</text><text style="&st18;" transform="matrix(&st17;  1375.91  644.97 )">(*1)</text><text style="&st18;" transform="matrix(&st17;  1375.91  508.99 )">(*1)</text><text ewd:textID="1" style="&st18;" transform="matrix(&st17;  1279.59  374.73 )">(Shielded)</text><text style="&st18;" transform="matrix(&st17;  1305.09  362.08 )">W</text><text style="&st18;" transform="matrix(&st17;  1339.08  361.06 )">B</text><text style="&st18;" transform="matrix(&st17;  1316.42  364.52 )">(*1)</text><text style="&st18;" transform="matrix(&st17;  1290.92  364.52 )">(*1)</text><text style="&st18;" transform="matrix(&st17;  1350.41  364.52 )">(*1)</text><text style="&st18;" transform="matrix(&st17;  1283.25  446.24 )">C 4(A)</text><text ewd:textID="21" style="&st18;" transform="matrix(&st17;  1290.35  446.24 )">Crankshaft <tspan dy="6" x="-0.01">Position Sensor</tspan></text><text style="&st18;" transform="matrix(&st16;  1085.29  598.65 )">* 1 :1GR-FE</text><text style="&st18;" transform="matrix(&st16;  1335.96  304.04 )">NE+</text><text style="&st18;" transform="matrix(&st16;  1301.96  304.04 )">NE-</text><text style="&st18;" transform="matrix(&st16;  1306.45  441.71 )">A</text><text style="&st18;" transform="matrix(&st16;  1298.68  441.71 )">1</text><text style="&st18;" transform="matrix(&st16;  1348.94  169.76 )">B</text><text style="&st18;" transform="matrix(&st16;  1341.17  169.76 )">1</text><text style="&st18;" transform="matrix(&st16;  1297.95  169.76 )">B</text><text style="&st18;" transform="matrix(&st16;  1289.41  169.76 )">2</text><text style="&st18;" transform="matrix(&st16;  1119.48  110.27 )">B</text><text style="&st18;" transform="matrix(&st16;  1111.71  110.27 )">1</text><text style="&st18;" transform="matrix(&st16;  1085.49  110.27 )">B</text><text style="&st18;" transform="matrix(&st16;  1076.94  110.27 )">2</text><text style="&st18;" transform="matrix(&st16;  1119.48  67.21 )">B</text><text style="&st18;" transform="matrix(&st16;  1110.94  67.21 )">3</text><text style="&st18;" transform="matrix(&st16;  1348.94  126.7 )">B</text><text style="&st18;" transform="matrix(&st16;  1081.0  272.88 )">NE-</text><text style="&st18;" transform="matrix(&st16;  1115.0  272.88 )">NE+</text><text style="&st18;" transform="matrix(&st16;  1085.06  341.43 )">O</text><text style="&st18;" transform="matrix(&st16;  1076.94  341.43 )">2</text><text style="&st18;" transform="matrix(&st16;  1085.06  323.3 )">G</text><text style="&st18;" transform="matrix(&st16;  1072.99  323.3 )">24</text><text style="&st18;" transform="matrix(&st16;  1085.49  332.37 )">K</text><text style="&st18;" transform="matrix(&st16;  1073.76  332.37 )">18</text><text style="&st18;" transform="matrix(&st16;  1119.06  341.43 )">O</text><text style="&st18;" transform="matrix(&st16;  1127.79  341.43 )">(*4)</text><text style="&st18;" transform="matrix(&st16;  1110.94  341.43 )">8</text><text style="&st18;" transform="matrix(&st16;  1119.06  323.3 )">G</text><text style="&st18;" transform="matrix(&st16;  1127.79  323.3 )">(*2)</text><text style="&st18;" transform="matrix(&st16;  1106.98  323.3 )">25</text><text style="&st18;" transform="matrix(&st16;  1119.48  332.37 )">K</text><text style="&st18;" transform="matrix(&st16;  1127.79  332.37 )">(*3 *12)</text><text style="&st18;" transform="matrix(&st16;  1107.76  332.37 )">19</text><text style="&st18;" transform="matrix(&st16;  1340.44  314.24 )">E</text><text style="&st18;" transform="matrix(&st16;  1328.72  314.24 )">21</text><text style="&st18;" transform="matrix(&st16;  1306.45  314.24 )">E</text><text style="&st18;" transform="matrix(&st16;  1293.95  314.24 )">20</text><text style="&st18;" transform="matrix(&st17;  1364.58  643.98 )">BR</text><text style="&st18;" transform="matrix(&st17;  1118.12  373.69 )">R-L</text><text style="&st18;" transform="matrix(&st17;  1084.12  369.55 )">Y</text><text style="&st18;" transform="matrix(&st16;  1340.4  126.7 )">3</text><text style="&st18;" transform="matrix(&st16;  1306.45  398.65 )">A</text><text style="&st18;" transform="matrix(&st16;  1297.9  398.65 )">2</text><text ewd:textID="23" style="&st18;" transform="matrix(&st16;  1136.28  261.54 )">Engine ECU</text><text style="&st18;" transform="matrix(&st16;  1136.28  248.49 )">E 6(K),E 8(M),E10(G),E12(I),E13(A), <tspan dy="6" x="0">E17(E),E21(O),E23(Q),E24(R),E30(V)</tspan></text><text style="&st18;" transform="matrix(&st16;  1184.24  314.24 )">18</text><text style="&st18;" transform="matrix(&st16;  1195.54  314.24 )">Q</text><text style="&st18;" transform="matrix(&st16;  1225.48  304.04 )">NE+</text><text style="&st18;" transform="matrix(&st16;  1191.48  304.04 )">NE-</text><text style="&st18;" transform="matrix(&st16;  1218.24  314.24 )">19</text><text style="&st18;" transform="matrix(&st16;  1229.54  314.24 )">Q</text><text style="&st18;" transform="matrix(&st17;  1254.09  643.98 )">BR</text><text ewd:textID="1" style="&st18;" transform="matrix(&st17;  1254.1  519.2 )">(Shielded)</text><text style="&st18;" transform="matrix(&st17;  1265.43  645.36 )">(*4)</text><text style="&st18;" transform="matrix(&st17;  1265.43  509.38 )">(*4)</text><text ewd:textID="1" style="&st18;" transform="matrix(&st17;  1169.11  374.73 )">(Shielded)</text><text style="&st18;" transform="matrix(&st17;  1194.6  361.06 )">Y</text><text style="&st18;" transform="matrix(&st17;  1228.6  360.7 )">L</text><text style="&st18;" transform="matrix(&st17;  1205.94  364.91 )">(*4)</text><text style="&st18;" transform="matrix(&st17;  1180.44  364.91 )">(*4)</text><text style="&st18;" transform="matrix(&st17;  1239.93  364.91 )">(*4)</text><text style="&st18;" transform="matrix(&st17;  1164.55  446.24 )">E19</text><text ewd:textID="24" style="&st18;" transform="matrix(&st17;  1171.66  446.24 )">Engine Speed <tspan dy="6" x="-0.01">Sensor</tspan></text><text style="&st18;" transform="matrix(&st16;  1085.29  624.15 )">* 4 :5L-E</text><text style="&st18;" transform="matrix(&st16;  1106.98  314.24 )">25</text><text style="&st18;" transform="matrix(&st16;  1127.79  314.24 )">(*1)</text><text style="&st18;" transform="matrix(&st16;  1119.48  314.24 )">A</text><text style="&st18;" transform="matrix(&st16;  1085.49  314.24 )">A</text><text style="&st18;" transform="matrix(&st16;  1072.99  314.24 )">24</text><text style="&st18;" transform="matrix(&st16;  1247.82  613.38 )">12</text><text style="&st18;" transform="matrix(&st16;  1248.6  584.5 )">11</text><text style="&st18;" transform="matrix(&st16;  1009.0  525.0 )">Y</text><text style="&st18;" transform="matrix(&st16;  1059.99  525.0 )">Y</text><text style="&st18;" transform="matrix(&st16;  1055.86  550.5 )">R-L</text><text style="&st18;" transform="matrix(&st16;  1004.87  550.5 )">R-L</text><text style="&st18;" transform="matrix(&st16;  1191.51  443.41 )">2</text><text style="&st18;" transform="matrix(&st16;  1192.29  397.53 )">1</text><text style="&st18;" transform="matrix(&st16;  1361.48  613.38 )">6</text><text style="&st18;" transform="matrix(&st16;  1361.48  584.5 )">5</text><text style="&st18;" transform="matrix(&st16;  1191.48  431.52 )">NE+</text><text style="&st18;" transform="matrix(&st16;  1191.48  408.85 )">NE-</text><text style="&st18;" transform="matrix(&st16;  1344.46  159.56 )">NE+</text><text style="&st18;" transform="matrix(&st16;  1293.47  159.56 )">NE-</text><text style="&st18;" transform="matrix(&st16;  1115.0  100.07 )">NE+</text><text style="&st18;" transform="matrix(&st16;  1081.0  100.07 )">NE-</text><text style="&st18;" transform="matrix(&st16;  1119.48  77.41 )">E</text><text style="&st18;" transform="matrix(&st16;  1348.94  136.9 )">E</text><text style="&st18;" transform="matrix(&st16;  1285.45  253.61 )">34</text><text style="&st18;" transform="matrix(&st16;  1297.39  253.61 )">M</text><text style="&st18;" transform="matrix(&st16;  1357.25  253.61 )">(*3 *12)</text><text style="&st18;" transform="matrix(&st16;  1336.44  253.61 )">27</text><text style="&st18;" transform="matrix(&st16;  1348.38  253.61 )">M</text><text style="&st18;" transform="matrix(&st16;  1357.25  262.68 )">(*3 *11)</text><text ewd:textID="8" style="&st18;" transform="matrix(&st16;  1085.29  632.65 )">*11 :w/ DPF</text><text ewd:textID="9" style="&st18;" transform="matrix(&st16;  1085.29  641.15 )">*12 :w/o DPF</text><text style="&st18;" transform="matrix(&st16;  1073.76  350.5 )">10</text><text style="&st18;" transform="matrix(&st16;  1085.49  350.5 )">V</text><text style="&st18;" transform="matrix(&st16;  1127.79  350.5 )">(*3 *11)</text><text style="&st18;" transform="matrix(&st16;  1107.76  350.5 )">13</text><text style="&st18;" transform="matrix(&st16;  1119.48  350.5 )">V</text><text style="&st18;" transform="matrix(&st17;  1492.05  643.98 )">BR</text><text ewd:textID="26" style="&st18;" transform="matrix(&st17;  1245.6  607.71 )">Junction Connector</text><text style="&st18;" transform="matrix(&st17;  1238.49  607.71 )">J39</text><text ewd:textID="26" style="&st18;" transform="matrix(&st17;  1356.08  607.71 )">Junction Connector</text><text style="&st18;" transform="matrix(&st17;  1348.97  607.71 )">J38</text><text ewd:textID="26" style="&st18;" transform="matrix(&st17;  1415.57  607.71 )">Junction Connector</text><text style="&st18;" transform="matrix(&st17;  1408.46  607.71 )">J10</text><text style="&st18;" transform="matrix(&st17;  1466.56  643.98 )">BR</text><text ewd:textID="1" style="&st18;" transform="matrix(&st17;  1466.56  519.2 )">(Shielded)</text><text style="&st18;" transform="matrix(&st16;  1461.06  613.38 )">11</text><text style="&st18;" transform="matrix(&st16;  1463.47  584.5 )">3</text><text style="&st18;" transform="matrix(&st17;  1477.89  646.95 )">(*15)</text><text style="&st18;" transform="matrix(&st17;  1477.89  510.97 )">(*15)</text><text ewd:textID="26" style="&st18;" transform="matrix(&st17;  1458.06  607.71 )">Junction Connector</text><text style="&st18;" transform="matrix(&st17;  1450.95  607.71 )">J64</text><text ewd:textID="11" style="&st18;" transform="matrix(&st16;  1085.29  658.14 )">*14 :From Aug. 2012 Production</text><text ewd:textID="10" style="&st18;" transform="matrix(&st16;  1085.29  649.65 )">*13 :Before Aug. 2012 Production</text><text style="&st18;" transform="matrix(&st16;  1085.29  675.14 )">*16 :*3 *12 *13</text><text style="&st18;" transform="matrix(&st16;  1085.29  666.64 )">*15 :*3 *12 *14</text></svg>