﻿<?xml version="1.0" encoding="utf-8"?>
<!DOCTYPE svg PUBLIC "-//W3C//DTD SVG 1.0//EN" "http://www.w3.org/TR/2001/REC-SVG-20010904/DTD/svg10.dtd"[
	<!ENTITY ns_flows "http://ns.adobe.com/Flows/1.0/">
	<!ENTITY ns_svg "http://www.w3.org/2000/svg">
	<!ENTITY ns_xlink "http://www.w3.org/1999/xlink">
	<!ENTITY st0 "font-size:7px;font-family:'MS-PGothic';adobe-font-script:japanese;">
	<!ENTITY st1 "font-size:6px;font-family:'ArialMT';">
	<!-- White fill  -->
	<!ENTITY st2 "fill:#FFFFFF;stroke:#000000; stroke-width:1.41;stroke-linecap:round;stroke-linejoin:round;">
	<!-- Yellow fill  -->
	<!ENTITY st3 "fill:#FFFFCC;stroke:#FFFFCC; stroke-width:0.1;stroke-linecap:round;stroke-linejoin:round;">
	<!-- Gray fill  -->
	<!ENTITY st4 "fill:#CCCCCC;stroke:#CCCCCC; stroke-width:0.1;stroke-linecap:round;stroke-linejoin:round;">
	<!-- Light-blue fill -->
	<!ENTITY st5 "fill:#CCECF4;stroke:#000000; stroke-width:1.133;stroke-linecap:round;stroke-linejoin:round;">
	<!ENTITY st6 "fill:none;stroke-linecap:butt; stroke-linejoin:round;">
	<!ENTITY st7 "fill:none;stroke:#000000;stroke-linecap:round;stroke-linejoin:round;">
	<!ENTITY st8 "enable-background:new    ;">
	<!-- Black fill -->
	<!ENTITY st9 "fill:#000000;stroke:#000000; stroke-linecap:round;stroke-linejoin:round;">
	<!-- SRS note   -->
	<!ENTITY st10 "font-size:9px;font-family:'ArialMT';">
	<!ENTITY st11 "font-size:9px;font-family:'Svg Symbol';">
	<!ENTITY st12 "font-size:6px;font-family:'Svg Symbol';">
	<!ENTITY st13 "fill:none;stroke:#ff0000;stroke-linecap:round;stroke-linejoin:round;">
	<!-- Yellow fill  -->
	<!ENTITY st14 "fill:#FFFF00;stroke:#FFFF00; stroke-width:0.1;stroke-linecap:round;stroke-linejoin:round;">
	<!ENTITY st15 "font-size:6px;font-family:'MS-PGothic';adobe-font-script:japanese;">
	<!ENTITY st16 "1.00 0.00 0.00 1.00">
	<!ENTITY st17 "0.00 -1.00 1.00 0.00">
	<!ENTITY st18 "font-size:6px;font-family:'Arial';">
	<!ENTITY st19 "font-size:9px;font-family:'Arial';">
	<!ENTITY st20 "font-size:6px;font-family:'MS-PGothic','MS PGothic';adobe-font-script:japanese;">
	<!ENTITY st21 "font-size:7px;font-family:'MS-PGothic','MS PGothic';adobe-font-script:japanese;">
	<!ATTLIST svg
		xmlns:ewd CDATA #FIXED "http://shcl.co.jp/ewd"
		xmlns:a CDATA #FIXED "http://ns.adobe.com/AdobeSVGViewerExtensions/3.0/"
		ewd:ver CDATA #IMPLIED
	>
	<!ATTLIST a
		ewd:lineID CDATA #IMPLIED
		ewd:groupID CDATA #IMPLIED
		ewd:figtype CDATA #IMPLIED
		ewd:code CDATA #IMPLIED
		ewd:figID CDATA #IMPLIED
		ewd:pinNo CDATA #IMPLIED
		ewd:comment CDATA #IMPLIED >
	<!ATTLIST g
		ewd:lineID CDATA #IMPLIED
		ewd:groupID CDATA #IMPLIED
		ewd:figtype CDATA #IMPLIED
		ewd:code CDATA #IMPLIED
		ewd:figID CDATA #IMPLIED
		ewd:pinNo CDATA #IMPLIED
		ewd:comment CDATA #IMPLIED >
	<!ATTLIST text
		ewd:textID CDATA #IMPLIED >
	<!ATTLIST title
		ewd:textID CDATA #IMPLIED >
]>
<!-- Generator: Shintec Hozumi YS   -->
<svg onload="call_execInitLoadProc_svg('system')" style="overflow:visible;  enable-background:new 0 0 1040.199 710.000" viewBox="0 0 1040.199 710.000" height="710.000" width="1040.199" xml:space="preserve" ewd:ver="L2.1.2.7" xmlns="&ns_svg;" xmlns:a="http://ns.adobe.com/AdobeSVGViewerExtensions/3.0/" xmlns:ewd="http://shcl.co.jp/ewd" xmlns:xlink="&ns_xlink;">
<path d=" M  968.84,  205.75  L  960.34,  205.75 " style="stroke-width: 1.42 ;&st7; " /><path d=" M  875.35,  205.75  L  866.86,  205.75 " style="stroke-width: 1.42 ;&st7; " /><path d=" M  807.37,  482.68  L  802.39,  477.71 " style="stroke-width: 1.42 ;&st7; " /><path d=" M  790.37,  489.73  L  795.34,  494.70 " style="stroke-width: 1.42 ;&st7; " /><path d=" M  802.39,  494.70  L  807.37,  489.73 " style="stroke-width: 1.42 ;&st7; " /><path d=" M  795.34,  477.71  L  790.37,  482.68 " style="stroke-width: 1.42 ;&st7; " /><path d=" M  605.52,  231.25  L  601.27,  231.25 " style="stroke-width: 1.42 ;&st7; " /><path d=" M  605.52,  239.75  L  601.27,  239.75 " style="stroke-width: 1.42 ;&st7; " /><path d=" M  648.02,  231.25  L  643.77,  231.25 " style="stroke-width: 1.42 ;&st7; " /><path d=" M  648.02,  239.75  L  643.77,  239.75 " style="stroke-width: 1.42 ;&st7; " /><path d=" M  605.52,  273.74  L  601.27,  273.74 " style="stroke-width: 1.42 ;&st7; " /><path d=" M  605.52,  282.24  L  601.27,  282.24 " style="stroke-width: 1.42 ;&st7; " /><path d=" M  648.02,  273.74  L  643.77,  273.74 " style="stroke-width: 1.42 ;&st7; " /><path d=" M  648.02,  282.24  L  643.77,  282.24 " style="stroke-width: 1.42 ;&st7; " /><path d=" M  798.87,  368.64  L  804.53,  345.98 " style="stroke-width: 1.42 ;&st7; " /><path d=" M  798.87,  375.72  L  798.87,  371.47 " style="stroke-width: 0.85 ;&st7; " /><path d=" M  798.87,  341.73  L  798.87,  345.98 " style="stroke-width: 0.85 ;&st7; " /><path d=" M  773.37,  341.73  L  773.37,  350.23 " style="stroke-width: 0.85 ;&st7; " /><path d=" M  773.37,  367.22  L  773.37,  375.72 " style="stroke-width: 0.85 ;&st7; " /><path d=" M  926.35,  368.64  L  932.01,  345.98 " style="stroke-width: 1.42 ;&st7; " /><path d=" M  926.35,  375.72  L  926.35,  371.47 " style="stroke-width: 0.85 ;&st7; " /><path d=" M  926.35,  341.73  L  926.35,  345.98 " style="stroke-width: 0.85 ;&st7; " /><path d=" M  900.85,  341.73  L  900.85,  350.23 " style="stroke-width: 0.85 ;&st7; " /><path d=" M  900.85,  367.22  L  900.85,  375.72 " style="stroke-width: 0.85 ;&st7; " /><path d=" M  798.87,   69.77  L  798.87,   78.27 " style="stroke-width: 0.85 ;&st7; " /><path d=" M  800.99,  103.77  L  796.74,  103.77 " style="stroke-width: 1.42 ;&st7; " /><path d=" M  800.99,  112.27  L  796.74,  112.27 " style="stroke-width: 1.42 ;&st7; " /><path d=" M  926.35,   69.77  L  926.35,   78.27 " style="stroke-width: 0.85 ;&st7; " /><path d=" M  928.47,  103.77  L  924.22,  103.77 " style="stroke-width: 1.42 ;&st7; " /><path d=" M  928.47,  112.27  L  924.22,  112.27 " style="stroke-width: 1.42 ;&st7; " /><path d=" M  934.84,  205.75  L  926.35,  205.75 " style="stroke-width: 1.42 ;&st7; " /><path d=" M  807.37,  205.75  L  798.87,  205.75 " style="stroke-width: 1.42 ;&st7; " /><path d=" M  662.89,  180.26  L  526.91,  180.26  L  526.91,  146.26  L  662.89,  146.26  L  662.89,  180.26 " style="stroke-width: 1.42 ;&st7; " /><path d=" M  603.40,  244.64  L  606.23,  247.47  L  606.23,  243.22  L  603.40,  240.39  L  600.57,  243.22  L  600.57,  247.47  L  603.40,  244.64 " style="stroke-width: 0.28 ;&st9;" /><path d=" M  645.89,  244.64  L  648.72,  247.47  L  648.72,  243.22  L  645.89,  240.39  L  643.06,  243.22  L  643.06,  247.47  L  645.89,  244.64 " style="stroke-width: 0.28 ;&st9;" /><path d=" M  603.40,  268.84  L  600.57,  266.01  L  600.57,  270.26  L  603.40,  273.09  L  606.23,  270.26  L  606.23,  266.01  L  603.40,  268.84 " style="stroke-width: 0.28 ;&st9;" /><path d=" M  645.89,  268.84  L  643.06,  266.01  L  643.06,  270.26  L  645.89,  273.09  L  648.72,  270.26  L  648.72,  266.01  L  645.89,  268.84 " style="stroke-width: 0.28 ;&st9;" /><path d=" M  603.40,  273.74  L  603.40,  239.75 " style="stroke-width: 0.85 ;&st7; " /><path d=" M  645.89,  273.74  L  645.89,  239.75 " style="stroke-width: 0.85 ;&st7; " /><path d=" M  628.89,  328.13  L  611.87,  328.13 " style="stroke-width: 0.85 ;&st7;stroke-dasharray:3, 1.5;" /><path d=" M  628.89,  337.20  L  611.87,  337.20 " style="stroke-width: 0.85 ;&st7;stroke-dasharray:3, 1.5;" /><path d=" M  586.43,  328.13  L  552.38,  328.13 " style="stroke-width: 0.85 ;&st7;stroke-dasharray:3, 1.5;" /><path d=" M  586.43,  337.20  L  552.38,  337.20 " style="stroke-width: 0.85 ;&st7;stroke-dasharray:3, 1.5;" /><path d=" M  611.90,  193.85  L  628.89,  193.85 " style="stroke-width: 0.85 ;&st7;stroke-dasharray:3, 1.5;" /><path d=" M  611.90,  184.79  L  633.14,  184.79 " style="stroke-width: 0.85 ;&st7;stroke-dasharray:3, 1.5;" /><path d=" M  654.36,  328.13  L  667.17,  328.13 " style="stroke-width: 0.85 ;&st7;stroke-dasharray:3, 1.5;" /><path d=" M  968.84,  545.69  L  968.84,  562.69 " style="stroke-width: 0.85 ;&st7; " /><path d=" M  960.34,  545.69  L  977.34,  545.69  L  977.34,  562.69  L  960.34,  562.69  L  960.34,  545.69 " style="stroke-width: 1.42 ;&st7; " /><path d=" M  871.10,  214.82  L  866.85,  210.57  L  862.61,  214.82 " style="stroke-width: 1.42 ;&st7; " /><path d=" M  871.10,  211.42  L  866.85,  207.17  L  862.61,  211.42 " style="stroke-width: 1.42 ;&st7; " /><path d=" M  964.59,  214.82  L  960.34,  210.57  L  956.09,  214.82 " style="stroke-width: 1.42 ;&st7; " /><path d=" M  964.59,  211.42  L  960.34,  207.17  L  956.09,  211.42 " style="stroke-width: 1.42 ;&st7; " /><path d=" M  754.96,  710.00  L  757.79,  710.00 " style="stroke-width: 0.85 ;&st7; " /><path d=" M  753.54,  707.17  L  759.21,  707.17 " style="stroke-width: 0.85 ;&st7; " /><path d=" M  752.12,  704.33  L  760.62,  704.33 " style="stroke-width: 0.85 ;&st7; " /><path d=" M  747.87,  701.50  L  764.87,  701.50 " style="stroke-width: 0.85 ;&st7; " /><path d=" M  756.37,  697.25  L  756.37,  701.50 " style="stroke-width: 0.85 ;&st7; " /><path d=" M  739.38,  562.69  L  943.34,  562.69  L  943.34,  605.18  L  739.38,  605.18  L  739.38,  562.69 " style="stroke-width: 1.42 ;&st7; " /><path d=" M  803.12,  211.42  L  798.87,  207.17  L  794.62,  211.42 " style="stroke-width: 1.42 ;&st7; " /><path d=" M  803.12,  214.82  L  798.87,  210.57  L  794.62,  214.82 " style="stroke-width: 1.42 ;&st7; " /><path d=" M  930.59,  214.82  L  926.34,  210.57  L  922.10,  214.82 " style="stroke-width: 1.42 ;&st7; " /><path d=" M  930.59,  211.42  L  926.34,  207.17  L  922.10,  211.42 " style="stroke-width: 1.42 ;&st7; " /><path d=" M  926.34,   78.27  L  926.34,  103.77 " style="stroke-width: 0.85 ;&st7; " /><path d=" M  798.87,   78.27  L  798.87,  103.77 " style="stroke-width: 0.85 ;&st7; " /><path d=" M  926.34,   98.87  L  923.51,   96.04  L  923.51,  100.29  L  926.34,  103.12  L  929.18,  100.29  L  929.18,   96.04  L  926.34,   98.87 " style="stroke-width: 0.28 ;&st9;" /><path d=" M  798.87,   98.87  L  796.03,   96.04  L  796.03,  100.29  L  798.87,  103.12  L  801.70,  100.29  L  801.70,   96.04  L  798.87,   98.87 " style="stroke-width: 0.28 ;&st9;" /><path d=" M  939.09,   78.27  L  939.09,   35.78  L  913.60,   35.78  L  913.60,   78.27  L  939.09,   78.27 " style="stroke-width: 1.42 ;&st7; " /><path d=" M  811.61,   78.27  L  811.61,   35.78  L  786.12,   35.78  L  786.12,   78.27  L  811.61,   78.27 " style="stroke-width: 1.42 ;&st7; " /><path d=" M  934.84,  341.73  L  892.35,  341.73  L  892.35,  375.72  L  934.84,  375.72  L  934.84,  341.73 " style="stroke-width: 1.42 ;&st7; " /><path d=" M  807.36,  341.73  L  764.87,  341.73  L  764.87,  375.72  L  807.36,  375.72  L  807.36,  341.73 " style="stroke-width: 1.42 ;&st7; " /><path d=" M  654.36,  337.20  L  667.17,  337.20 " style="stroke-width: 0.85 ;&st7;stroke-dasharray:3, 1.5;" /><path d=" M  650.42,  337.20  C  650.42   334.69   648.40   332.66   645.89   332.66 " style="stroke-width: 1.42 ;&st7; " /><path d=" M  645.89,  332.66  C  643.39   332.66   641.36   334.69   641.36   337.20 " style="stroke-width: 1.42 ;&st7; " /><path d=" M  641.36,  337.20  C  641.36   339.70   643.39   341.73   645.89   341.73 " style="stroke-width: 1.42 ;&st7; " /><path d=" M  645.89,  341.73  C  648.40   341.73   650.42   339.70   650.42   337.20 " style="stroke-width: 1.42 ;&st7; " /><path d=" M  650.42,  328.13  C  650.42   325.63   648.40   323.60   645.89   323.60 " style="stroke-width: 1.42 ;&st7; " /><path d=" M  645.89,  323.60  C  643.39   323.60   641.36   325.63   641.36   328.13 " style="stroke-width: 1.42 ;&st7; " /><path d=" M  641.36,  328.13  C  641.36   330.63   643.39   332.66   645.89   332.66 " style="stroke-width: 1.42 ;&st7; " /><path d=" M  645.89,  332.66  C  648.40   332.66   650.42   330.63   650.42   328.13 " style="stroke-width: 1.42 ;&st7; " /><path d=" M  607.93,  337.20  C  607.93   334.69   605.90   332.66   603.40   332.66 " style="stroke-width: 1.42 ;&st7; " /><path d=" M  603.40,  332.66  C  600.90   332.66   598.87   334.69   598.87   337.20 " style="stroke-width: 1.42 ;&st7; " /><path d=" M  598.87,  337.20  C  598.87   339.70   600.90   341.73   603.40   341.73 " style="stroke-width: 1.42 ;&st7; " /><path d=" M  603.40,  341.73  C  605.90   341.73   607.93   339.70   607.93   337.20 " style="stroke-width: 1.42 ;&st7; " /><path d=" M  607.93,  328.13  C  607.93   325.63   605.90   323.60   603.40   323.60 " style="stroke-width: 1.42 ;&st7; " /><path d=" M  603.40,  323.60  C  600.90   323.60   598.87   325.63   598.87   328.13 " style="stroke-width: 1.42 ;&st7; " /><path d=" M  598.87,  328.13  C  598.87   330.63   600.90   332.66   603.40   332.66 " style="stroke-width: 1.42 ;&st7; " /><path d=" M  603.40,  332.66  C  605.90   332.66   607.93   330.63   607.93   328.13 " style="stroke-width: 1.42 ;&st7; " /><path d=" M  548.44,  337.20  C  548.44   334.69   546.41   332.66   543.91   332.66 " style="stroke-width: 1.42 ;&st7; " /><path d=" M  543.91,  332.66  C  541.41   332.66   539.38   334.69   539.38   337.20 " style="stroke-width: 1.42 ;&st7; " /><path d=" M  539.38,  337.20  C  539.38   339.70   541.41   341.73   543.91   341.73 " style="stroke-width: 1.42 ;&st7; " /><path d=" M  543.91,  341.73  C  546.41   341.73   548.44   339.70   548.44   337.20 " style="stroke-width: 1.42 ;&st7; " /><path d=" M  548.44,  328.13  C  548.44   325.63   546.41   323.60   543.91   323.60 " style="stroke-width: 1.42 ;&st7; " /><path d=" M  543.91,  323.60  C  541.41   323.60   539.38   325.63   539.38   328.13 " style="stroke-width: 1.42 ;&st7; " /><path d=" M  539.38,  328.13  C  539.38   330.63   541.41   332.66   543.91   332.66 " style="stroke-width: 1.42 ;&st7; " /><path d=" M  543.91,  332.66  C  546.41   332.66   548.44   330.63   548.44   328.13 " style="stroke-width: 1.42 ;&st7; " /><path d=" M  548.44,  193.85  C  548.44   191.35   546.41   189.32   543.91   189.32 " style="stroke-width: 1.42 ;&st7; " /><path d=" M  543.91,  189.32  C  541.41   189.32   539.38   191.35   539.38   193.85 " style="stroke-width: 1.42 ;&st7; " /><path d=" M  539.38,  193.85  C  539.38   196.36   541.41   198.39   543.91   198.39 " style="stroke-width: 1.42 ;&st7; " /><path d=" M  543.91,  198.39  C  546.41   198.39   548.44   196.36   548.44   193.85 " style="stroke-width: 1.42 ;&st7; " /><path d=" M  548.44,  202.92  C  548.44   200.41   546.41   198.39   543.91   198.39 " style="stroke-width: 1.42 ;&st7; " /><path d=" M  543.91,  198.39  C  541.41   198.39   539.38   200.41   539.38   202.92 " style="stroke-width: 1.42 ;&st7; " /><path d=" M  539.38,  202.92  C  539.38   205.42   541.41   207.45   543.91   207.45 " style="stroke-width: 1.42 ;&st7; " /><path d=" M  543.91,  207.45  C  546.41   207.45   548.44   205.42   548.44   202.92 " style="stroke-width: 1.42 ;&st7; " /><path d=" M  607.93,  193.85  C  607.93   191.35   605.90   189.32   603.40   189.32 " style="stroke-width: 1.42 ;&st7; " /><path d=" M  603.40,  189.32  C  600.90   189.32   598.87   191.35   598.87   193.85 " style="stroke-width: 1.42 ;&st7; " /><path d=" M  598.87,  193.85  C  598.87   196.36   600.90   198.39   603.40   198.39 " style="stroke-width: 1.42 ;&st7; " /><path d=" M  603.40,  198.39  C  605.90   198.39   607.93   196.36   607.93   193.85 " style="stroke-width: 1.42 ;&st7; " /><path d=" M  650.42,  193.85  C  650.42   191.35   648.40   189.32   645.89   189.32 " style="stroke-width: 1.42 ;&st7; " /><path d=" M  645.89,  189.32  C  643.39   189.32   641.36   191.35   641.36   193.85 " style="stroke-width: 1.42 ;&st7; " /><path d=" M  641.36,  193.85  C  641.36   196.36   643.39   198.39   645.89   198.39 " style="stroke-width: 1.42 ;&st7; " /><path d=" M  645.89,  198.39  C  648.40   198.39   650.42   196.36   650.42   193.85 " style="stroke-width: 1.42 ;&st7; " /><path d=" M  930.88,  609.72  C  930.88   607.21   928.85   605.18   926.35   605.18 " style="stroke-width: 1.42 ;&st7; " /><path d=" M  926.35,  605.18  C  923.84   605.18   921.81   607.21   921.81   609.72 " style="stroke-width: 1.42 ;&st7; " /><path d=" M  921.81,  609.72  C  921.81   612.22   923.84   614.25   926.35   614.25 " style="stroke-width: 1.42 ;&st7; " /><path d=" M  926.35,  614.25  C  928.85   614.25   930.88   612.22   930.88   609.72 " style="stroke-width: 1.42 ;&st7; " /><path d=" M  800.28,  370.06  C  800.28   369.27   799.65   368.64   798.87   368.64 " style="stroke-width: 0.85 ;&st7; " /><path d=" M  798.87,  368.64  C  798.08   368.64   797.45   369.27   797.45   370.06 " style="stroke-width: 0.85 ;&st7; " /><path d=" M  797.45,  370.06  C  797.45   370.84   798.08   371.47   798.87   371.47 " style="stroke-width: 0.85 ;&st7; " /><path d=" M  798.87,  371.47  C  799.65   371.47   800.28   370.84   800.28   370.06 " style="stroke-width: 0.85 ;&st7; " /><path d=" M  800.28,  347.39  C  800.28   346.61   799.65   345.98   798.87   345.98 " style="stroke-width: 0.85 ;&st7; " /><path d=" M  798.87,  345.98  C  798.08   345.98   797.45   346.61   797.45   347.39 " style="stroke-width: 0.85 ;&st7; " /><path d=" M  797.45,  347.39  C  797.45   348.18   798.08   348.81   798.87   348.81 " style="stroke-width: 0.85 ;&st7; " /><path d=" M  798.87,  348.81  C  799.65   348.81   800.28   348.18   800.28   347.39 " style="stroke-width: 0.85 ;&st7; " /><path d=" M  770.84,  356.25  C  772.21   357.64   774.45   357.67   775.85   356.30 " style="stroke-width: 0.85 ;&st7; " /><path d=" M  775.85,  356.30  C  777.25   354.93   777.27   352.69   775.90   351.29 " style="stroke-width: 0.85 ;&st7; " /><path d=" M  775.90,  351.29  C  775.21   350.58   774.36   350.23   773.37   350.23 " style="stroke-width: 0.85 ;&st7; " /><path d=" M  770.84,  361.20  C  772.21   362.60   774.45   362.62   775.85   361.26 " style="stroke-width: 0.85 ;&st7; " /><path d=" M  775.85,  361.26  C  777.25   359.89   777.27   357.64   775.90   356.25 " style="stroke-width: 0.85 ;&st7; " /><path d=" M  775.90,  356.25  C  774.53   354.85   772.29   354.83   770.89   356.20 " style="stroke-width: 0.85 ;&st7; " /><path d=" M  770.89,  356.20  C  770.87   356.21   770.86   356.23   770.84   356.25 " style="stroke-width: 0.85 ;&st7; " /><path d=" M  773.37,  367.22  C  775.33   367.22   776.91   365.64   776.91   363.68 " style="stroke-width: 0.85 ;&st7; " /><path d=" M  776.91,  363.68  C  776.91   361.73   775.33   360.14   773.37   360.14 " style="stroke-width: 0.85 ;&st7; " /><path d=" M  773.37,  360.14  C  772.38   360.14   771.53   360.50   770.84   361.20 " style="stroke-width: 0.85 ;&st7; " /><path d=" M  927.76,  370.06  C  927.76   369.27   927.13   368.64   926.35   368.64 " style="stroke-width: 0.85 ;&st7; " /><path d=" M  926.35,  368.64  C  925.56   368.64   924.93   369.27   924.93   370.06 " style="stroke-width: 0.85 ;&st7; " /><path d=" M  924.93,  370.06  C  924.93   370.84   925.56   371.47   926.35   371.47 " style="stroke-width: 0.85 ;&st7; " /><path d=" M  926.35,  371.47  C  927.13   371.47   927.76   370.84   927.76   370.06 " style="stroke-width: 0.85 ;&st7; " /><path d=" M  927.76,  347.39  C  927.76   346.61   927.13   345.98   926.35   345.98 " style="stroke-width: 0.85 ;&st7; " /><path d=" M  926.35,  345.98  C  925.56   345.98   924.93   346.61   924.93   347.39 " style="stroke-width: 0.85 ;&st7; " /><path d=" M  924.93,  347.39  C  924.93   348.18   925.56   348.81   926.35   348.81 " style="stroke-width: 0.85 ;&st7; " /><path d=" M  926.35,  348.81  C  927.13   348.81   927.76   348.18   927.76   347.39 " style="stroke-width: 0.85 ;&st7; " /><path d=" M  898.32,  356.25  C  899.69   357.64   901.93   357.67   903.33   356.30 " style="stroke-width: 0.85 ;&st7; " /><path d=" M  903.33,  356.30  C  904.73   354.93   904.75   352.69   903.38   351.29 " style="stroke-width: 0.85 ;&st7; " /><path d=" M  903.38,  351.29  C  902.69   350.58   901.84   350.23   900.85   350.23 " style="stroke-width: 0.85 ;&st7; " /><path d=" M  898.32,  361.20  C  899.69   362.60   901.93   362.62   903.33   361.26 " style="stroke-width: 0.85 ;&st7; " /><path d=" M  903.33,  361.26  C  904.73   359.89   904.75   357.64   903.38   356.25 " style="stroke-width: 0.85 ;&st7; " /><path d=" M  903.38,  356.25  C  902.01   354.85   899.77   354.83   898.37   356.20 " style="stroke-width: 0.85 ;&st7; " /><path d=" M  898.37,  356.20  C  898.35   356.21   898.34   356.23   898.32   356.25 " style="stroke-width: 0.85 ;&st7; " /><path d=" M  900.85,  367.22  C  902.81   367.22   904.39   365.64   904.39   363.68 " style="stroke-width: 0.85 ;&st7; " /><path d=" M  904.39,  363.68  C  904.39   361.73   902.81   360.14   900.85   360.14 " style="stroke-width: 0.85 ;&st7; " /><path d=" M  900.85,  360.14  C  899.86   360.14   899.01   360.50   898.32   361.20 " style="stroke-width: 0.85 ;&st7; " /><path d=" M  800.28,   45.69  C  800.28    44.91   799.65    44.28   798.87    44.28 " style="stroke-width: 0.85 ;&st7; " /><path d=" M  798.87,   44.28  C  798.08    44.28   797.45    44.91   797.45    45.69 " style="stroke-width: 0.85 ;&st7; " /><path d=" M  797.45,   45.69  C  797.45    46.48   798.08    47.11   798.87    47.11 " style="stroke-width: 0.85 ;&st7; " /><path d=" M  798.87,   47.11  C  799.65    47.11   800.28    46.48   800.28    45.69 " style="stroke-width: 0.85 ;&st7; " /><path d=" M  800.28,   68.36  C  800.28    67.57   799.65    66.94   798.87    66.94 " style="stroke-width: 0.85 ;&st7; " /><path d=" M  798.87,   66.94  C  798.08    66.94   797.45    67.57   797.45    68.36 " style="stroke-width: 0.85 ;&st7; " /><path d=" M  797.45,   68.36  C  797.45    69.14   798.08    69.77   798.87    69.77 " style="stroke-width: 0.85 ;&st7; " /><path d=" M  798.87,   69.77  C  799.65    69.77   800.28    69.14   800.28    68.36 " style="stroke-width: 0.85 ;&st7; " /><path d=" M  798.87,   47.11  C  798.01    50.03   798.67    52.92   800.71    55.18 " style="stroke-width: 1.42 ;&st7; " /><path d=" M  798.87,   47.11  C  796.70    50.13   796.70    54.00   798.87    57.03 " style="stroke-width: 1.42 ;&st7; " /><path d=" M  798.87,   47.11  C  795.15    49.88   794.33    55.10   797.03    58.87 " style="stroke-width: 1.42 ;&st7; " /><path d=" M  798.87,   66.94  C  802.58    64.17   803.40    58.96   800.71    55.19 " style="stroke-width: 1.42 ;&st7; " /><path d=" M  798.87,   66.94  C  801.04    63.92   801.04    60.05   798.87    57.03 " style="stroke-width: 1.42 ;&st7; " /><path d=" M  798.87,   66.94  C  799.72    64.02   799.06    61.13   797.02    58.87 " style="stroke-width: 1.42 ;&st7; " /><path d=" M  927.76,   45.69  C  927.76    44.91   927.13    44.28   926.35    44.28 " style="stroke-width: 0.85 ;&st7; " /><path d=" M  926.35,   44.28  C  925.56    44.28   924.93    44.91   924.93    45.69 " style="stroke-width: 0.85 ;&st7; " /><path d=" M  924.93,   45.69  C  924.93    46.48   925.56    47.11   926.35    47.11 " style="stroke-width: 0.85 ;&st7; " /><path d=" M  926.35,   47.11  C  927.13    47.11   927.76    46.48   927.76    45.69 " style="stroke-width: 0.85 ;&st7; " /><path d=" M  926.35,   66.94  C  927.20    64.02   926.54    61.13   924.50    58.87 " style="stroke-width: 1.42 ;&st7; " /><path d=" M  926.35,   66.94  C  928.52    63.92   928.52    60.05   926.35    57.03 " style="stroke-width: 1.42 ;&st7; " /><path d=" M  926.35,   66.94  C  930.06    64.17   930.88    58.96   928.19    55.19 " style="stroke-width: 1.42 ;&st7; " /><path d=" M  926.35,   47.11  C  922.63    49.88   921.81    55.10   924.51    58.87 " style="stroke-width: 1.42 ;&st7; " /><path d=" M  926.35,   47.11  C  924.17    50.13   924.17    54.00   926.35    57.03 " style="stroke-width: 1.42 ;&st7; " /><path d=" M  926.35,   47.11  C  925.49    50.03   926.15    52.92   928.19    55.18 " style="stroke-width: 1.42 ;&st7; " /><path d=" M  927.76,   68.36  C  927.76    67.57   927.13    66.94   926.35    66.94 " style="stroke-width: 0.85 ;&st7; " /><path d=" M  926.35,   66.94  C  925.56    66.94   924.93    67.57   924.93    68.36 " style="stroke-width: 0.85 ;&st7; " /><path d=" M  924.93,   68.36  C  924.93    69.14   925.56    69.77   926.35    69.77 " style="stroke-width: 0.85 ;&st7; " /><path d=" M  926.35,   69.77  C  927.13    69.77   927.76    69.14   927.76    68.36 " style="stroke-width: 0.85 ;&st7; " /><path d=" M  792.49,  108.02  C  792.49   110.36   794.40   112.27   796.74   112.27 " style="stroke-width: 1.42 ;&st7; " /><path d=" M  796.74,  103.77  C  794.40   103.77   792.49   105.67   792.49   108.02 " style="stroke-width: 1.42 ;&st7; " /><path d=" M  800.99,  112.27  C  803.34   112.27   805.24   110.36   805.24   108.02 " style="stroke-width: 1.42 ;&st7; " /><path d=" M  805.24,  108.02  C  805.24   105.67   803.34   103.77   800.99   103.77 " style="stroke-width: 1.42 ;&st7; " /><path d=" M  924.22,  103.77  C  921.87   103.77   919.97   105.67   919.97   108.02 " style="stroke-width: 1.42 ;&st7; " /><path d=" M  919.97,  108.02  C  919.97   110.36   921.87   112.27   924.22   112.27 " style="stroke-width: 1.42 ;&st7; " /><path d=" M  928.47,  112.27  C  930.82   112.27   932.72   110.36   932.72   108.02 " style="stroke-width: 1.42 ;&st7; " /><path d=" M  932.72,  108.02  C  932.72   105.67   930.82   103.77   928.47   103.77 " style="stroke-width: 1.42 ;&st7; " /><path d=" M  803.40,  558.16  C  803.40   555.66   801.37   553.63   798.87   553.63 " style="stroke-width: 1.42 ;&st7; " /><path d=" M  798.87,  553.63  C  796.36   553.63   794.33   555.66   794.33   558.16 " style="stroke-width: 1.42 ;&st7; " /><path d=" M  794.33,  558.16  C  794.33   560.66   796.36   562.69   798.87   562.69 " style="stroke-width: 1.42 ;&st7; " /><path d=" M  798.87,  562.69  C  801.37   562.69   803.40   560.66   803.40   558.16 " style="stroke-width: 1.42 ;&st7; " /><path d=" M  930.88,  558.16  C  930.88   555.66   928.85   553.63   926.35   553.63 " style="stroke-width: 1.42 ;&st7; " /><path d=" M  926.35,  553.63  C  923.84   553.63   921.81   555.66   921.81   558.16 " style="stroke-width: 1.42 ;&st7; " /><path d=" M  921.81,  558.16  C  921.81   560.66   923.84   562.69   926.35   562.69 " style="stroke-width: 1.42 ;&st7; " /><path d=" M  926.35,  562.69  C  928.85   562.69   930.88   560.66   930.88   558.16 " style="stroke-width: 1.42 ;&st7; " /><path d=" M  760.91,  609.72  C  760.91   607.21   758.88   605.18   756.37   605.18 " style="stroke-width: 1.42 ;&st7; " /><path d=" M  756.37,  605.18  C  753.87   605.18   751.84   607.21   751.84   609.72 " style="stroke-width: 1.42 ;&st7; " /><path d=" M  751.84,  609.72  C  751.84   612.22   753.87   614.25   756.37   614.25 " style="stroke-width: 1.42 ;&st7; " /><path d=" M  756.37,  614.25  C  758.88   614.25   760.91   612.22   760.91   609.72 " style="stroke-width: 1.42 ;&st7; " /><path d=" M  905.38,  328.13  C  905.38   325.63   903.35   323.60   900.85   323.60 " style="stroke-width: 1.42 ;&st7; " /><path d=" M  900.85,  323.60  C  898.35   323.60   896.32   325.63   896.32   328.13 " style="stroke-width: 1.42 ;&st7; " /><path d=" M  896.32,  328.13  C  896.32   330.63   898.35   332.66   900.85   332.66 " style="stroke-width: 1.42 ;&st7; " /><path d=" M  900.85,  332.66  C  903.35   332.66   905.38   330.63   905.38   328.13 " style="stroke-width: 1.42 ;&st7; " /><path d=" M  905.38,  337.20  C  905.38   334.69   903.35   332.66   900.85   332.66 " style="stroke-width: 1.42 ;&st7; " /><path d=" M  900.85,  332.66  C  898.35   332.66   896.32   334.69   896.32   337.20 " style="stroke-width: 1.42 ;&st7; " /><path d=" M  896.32,  337.20  C  896.32   339.70   898.35   341.73   900.85   341.73 " style="stroke-width: 1.42 ;&st7; " /><path d=" M  900.85,  341.73  C  903.35   341.73   905.38   339.70   905.38   337.20 " style="stroke-width: 1.42 ;&st7; " /><path d=" M  777.90,  389.32  C  777.90   386.82   775.87   384.79   773.37   384.79 " style="stroke-width: 1.42 ;&st7; " /><path d=" M  773.37,  384.79  C  770.87   384.79   768.84   386.82   768.84   389.32 " style="stroke-width: 1.42 ;&st7; " /><path d=" M  768.84,  389.32  C  768.84   391.82   770.87   393.85   773.37   393.85 " style="stroke-width: 1.42 ;&st7; " /><path d=" M  773.37,  393.85  C  775.87   393.85   777.90   391.82   777.90   389.32 " style="stroke-width: 1.42 ;&st7; " /><path d=" M  777.90,  380.26  C  777.90   377.75   775.87   375.72   773.37   375.72 " style="stroke-width: 1.42 ;&st7; " /><path d=" M  773.37,  375.72  C  770.87   375.72   768.84   377.75   768.84   380.26 " style="stroke-width: 1.42 ;&st7; " /><path d=" M  768.84,  380.26  C  768.84   382.76   770.87   384.79   773.37   384.79 " style="stroke-width: 1.42 ;&st7; " /><path d=" M  773.37,  384.79  C  775.87   384.79   777.90   382.76   777.90   380.26 " style="stroke-width: 1.42 ;&st7; " /><path d=" M  905.38,  389.32  C  905.38   386.82   903.35   384.79   900.85   384.79 " style="stroke-width: 1.42 ;&st7; " /><path d=" M  900.85,  384.79  C  898.35   384.79   896.32   386.82   896.32   389.32 " style="stroke-width: 1.42 ;&st7; " /><path d=" M  896.32,  389.32  C  896.32   391.82   898.35   393.85   900.85   393.85 " style="stroke-width: 1.42 ;&st7; " /><path d=" M  900.85,  393.85  C  903.35   393.85   905.38   391.82   905.38   389.32 " style="stroke-width: 1.42 ;&st7; " /><path d=" M  905.38,  380.26  C  905.38   377.75   903.35   375.72   900.85   375.72 " style="stroke-width: 1.42 ;&st7; " /><path d=" M  900.85,  375.72  C  898.35   375.72   896.32   377.75   896.32   380.26 " style="stroke-width: 1.42 ;&st7; " /><path d=" M  896.32,  380.26  C  896.32   382.76   898.35   384.79   900.85   384.79 " style="stroke-width: 1.42 ;&st7; " /><path d=" M  900.85,  384.79  C  903.35   384.79   905.38   382.76   905.38   380.26 " style="stroke-width: 1.42 ;&st7; " /><path d=" M  777.90,  337.20  C  777.90   334.69   775.87   332.66   773.37   332.66 " style="stroke-width: 1.42 ;&st7; " /><path d=" M  773.37,  332.66  C  770.87   332.66   768.84   334.69   768.84   337.20 " style="stroke-width: 1.42 ;&st7; " /><path d=" M  768.84,  337.20  C  768.84   339.70   770.87   341.73   773.37   341.73 " style="stroke-width: 1.42 ;&st7; " /><path d=" M  773.37,  341.73  C  775.87   341.73   777.90   339.70   777.90   337.20 " style="stroke-width: 1.42 ;&st7; " /><path d=" M  777.90,  328.13  C  777.90   325.63   775.87   323.60   773.37   323.60 " style="stroke-width: 1.42 ;&st7; " /><path d=" M  773.37,  323.60  C  770.87   323.60   768.84   325.63   768.84   328.13 " style="stroke-width: 1.42 ;&st7; " /><path d=" M  768.84,  328.13  C  768.84   330.63   770.87   332.66   773.37   332.66 " style="stroke-width: 1.42 ;&st7; " /><path d=" M  773.37,  332.66  C  775.87   332.66   777.90   330.63   777.90   328.13 " style="stroke-width: 1.42 ;&st7; " /><path d=" M  760.91,  558.16  C  760.91   555.66   758.88   553.63   756.37   553.63 " style="stroke-width: 1.42 ;&st7; " /><path d=" M  756.37,  553.63  C  753.87   553.63   751.84   555.66   751.84   558.16 " style="stroke-width: 1.42 ;&st7; " /><path d=" M  751.84,  558.16  C  751.84   560.66   753.87   562.69   756.37   562.69 " style="stroke-width: 1.42 ;&st7; " /><path d=" M  756.37,  562.69  C  758.88   562.69   760.91   560.66   760.91   558.16 " style="stroke-width: 1.42 ;&st7; " /><path d=" M  709.91,  337.20  C  709.91   334.69   707.89   332.66   705.38   332.66 " style="stroke-width: 1.42 ;&st7; " /><path d=" M  705.38,  332.66  C  702.88   332.66   700.85   334.69   700.85   337.20 " style="stroke-width: 1.42 ;&st7; " /><path d=" M  700.85,  337.20  C  700.85   339.70   702.88   341.73   705.38   341.73 " style="stroke-width: 1.42 ;&st7; " /><path d=" M  705.38,  341.73  C  707.89   341.73   709.91   339.70   709.91   337.20 " style="stroke-width: 1.42 ;&st7; " /><path d=" M  709.91,  328.13  C  709.91   325.63   707.89   323.60   705.38   323.60 " style="stroke-width: 1.42 ;&st7; " /><path d=" M  705.38,  323.60  C  702.88   323.60   700.85   325.63   700.85   328.13 " style="stroke-width: 1.42 ;&st7; " /><path d=" M  700.85,  328.13  C  700.85   330.63   702.88   332.66   705.38   332.66 " style="stroke-width: 1.42 ;&st7; " /><path d=" M  705.38,  332.66  C  707.89   332.66   709.91   330.63   709.91   328.13 " style="stroke-width: 1.42 ;&st7; " /><path d=" M  684.42,  337.20  C  684.42   334.69   682.39   332.66   679.89   332.66 " style="stroke-width: 1.42 ;&st7; " /><path d=" M  679.89,  332.66  C  677.38   332.66   675.35   334.69   675.35   337.20 " style="stroke-width: 1.42 ;&st7; " /><path d=" M  675.35,  337.20  C  675.35   339.70   677.38   341.73   679.89   341.73 " style="stroke-width: 1.42 ;&st7; " /><path d=" M  679.89,  341.73  C  682.39   341.73   684.42   339.70   684.42   337.20 " style="stroke-width: 1.42 ;&st7; " /><path d=" M  684.42,  328.13  C  684.42   325.63   682.39   323.60   679.89   323.60 " style="stroke-width: 1.42 ;&st7; " /><path d=" M  679.89,  323.60  C  677.38   323.60   675.35   325.63   675.35   328.13 " style="stroke-width: 1.42 ;&st7; " /><path d=" M  675.35,  328.13  C  675.35   330.63   677.38   332.66   679.89   332.66 " style="stroke-width: 1.42 ;&st7; " /><path d=" M  679.89,  332.66  C  682.39   332.66   684.42   330.63   684.42   328.13 " style="stroke-width: 1.42 ;&st7; " /><path d=" M  803.40,  337.20  C  803.40   334.69   801.37   332.66   798.87   332.66 " style="stroke-width: 1.42 ;&st7; " /><path d=" M  798.87,  332.66  C  796.36   332.66   794.33   334.69   794.33   337.20 " style="stroke-width: 1.42 ;&st7; " /><path d=" M  794.33,  337.20  C  794.33   339.70   796.36   341.73   798.87   341.73 " style="stroke-width: 1.42 ;&st7; " /><path d=" M  798.87,  341.73  C  801.37   341.73   803.40   339.70   803.40   337.20 " style="stroke-width: 1.42 ;&st7; " /><path d=" M  803.40,  328.13  C  803.40   325.63   801.37   323.60   798.87   323.60 " style="stroke-width: 1.42 ;&st7; " /><path d=" M  798.87,  323.60  C  796.36   323.60   794.33   325.63   794.33   328.13 " style="stroke-width: 1.42 ;&st7; " /><path d=" M  794.33,  328.13  C  794.33   330.63   796.36   332.66   798.87   332.66 " style="stroke-width: 1.42 ;&st7; " /><path d=" M  798.87,  332.66  C  801.37   332.66   803.40   330.63   803.40   328.13 " style="stroke-width: 1.42 ;&st7; " /><path d=" M  803.40,  380.26  C  803.40   377.75   801.37   375.72   798.87   375.72 " style="stroke-width: 1.42 ;&st7; " /><path d=" M  798.87,  375.72  C  796.36   375.72   794.33   377.75   794.33   380.26 " style="stroke-width: 1.42 ;&st7; " /><path d=" M  794.33,  380.26  C  794.33   382.76   796.36   384.79   798.87   384.79 " style="stroke-width: 1.42 ;&st7; " /><path d=" M  798.87,  384.79  C  801.37   384.79   803.40   382.76   803.40   380.26 " style="stroke-width: 1.42 ;&st7; " /><path d=" M  803.40,  389.32  C  803.40   386.82   801.37   384.79   798.87   384.79 " style="stroke-width: 1.42 ;&st7; " /><path d=" M  798.87,  384.79  C  796.36   384.79   794.33   386.82   794.33   389.32 " style="stroke-width: 1.42 ;&st7; " /><path d=" M  794.33,  389.32  C  794.33   391.82   796.36   393.85   798.87   393.85 " style="stroke-width: 1.42 ;&st7; " /><path d=" M  798.87,  393.85  C  801.37   393.85   803.40   391.82   803.40   389.32 " style="stroke-width: 1.42 ;&st7; " /><path d=" M  930.88,  380.26  C  930.88   377.75   928.85   375.72   926.35   375.72 " style="stroke-width: 1.42 ;&st7; " /><path d=" M  926.35,  375.72  C  923.84   375.72   921.81   377.75   921.81   380.26 " style="stroke-width: 1.42 ;&st7; " /><path d=" M  921.81,  380.26  C  921.81   382.76   923.84   384.79   926.35   384.79 " style="stroke-width: 1.42 ;&st7; " /><path d=" M  926.35,  384.79  C  928.85   384.79   930.88   382.76   930.88   380.26 " style="stroke-width: 1.42 ;&st7; " /><path d=" M  930.88,  389.32  C  930.88   386.82   928.85   384.79   926.35   384.79 " style="stroke-width: 1.42 ;&st7; " /><path d=" M  926.35,  384.79  C  923.84   384.79   921.81   386.82   921.81   389.32 " style="stroke-width: 1.42 ;&st7; " /><path d=" M  921.81,  389.32  C  921.81   391.82   923.84   393.85   926.35   393.85 " style="stroke-width: 1.42 ;&st7; " /><path d=" M  926.35,  393.85  C  928.85   393.85   930.88   391.82   930.88   389.32 " style="stroke-width: 1.42 ;&st7; " /><path d=" M  930.88,  337.20  C  930.88   334.69   928.85   332.66   926.35   332.66 " style="stroke-width: 1.42 ;&st7; " /><path d=" M  926.35,  332.66  C  923.84   332.66   921.81   334.69   921.81   337.20 " style="stroke-width: 1.42 ;&st7; " /><path d=" M  921.81,  337.20  C  921.81   339.70   923.84   341.73   926.35   341.73 " style="stroke-width: 1.42 ;&st7; " /><path d=" M  926.35,  341.73  C  928.85   341.73   930.88   339.70   930.88   337.20 " style="stroke-width: 1.42 ;&st7; " /><path d=" M  930.88,  328.13  C  930.88   325.63   928.85   323.60   926.35   323.60 " style="stroke-width: 1.42 ;&st7; " /><path d=" M  926.35,  323.60  C  923.84   323.60   921.81   325.63   921.81   328.13 " style="stroke-width: 1.42 ;&st7; " /><path d=" M  921.81,  328.13  C  921.81   330.63   923.84   332.66   926.35   332.66 " style="stroke-width: 1.42 ;&st7; " /><path d=" M  926.35,  332.66  C  928.85   332.66   930.88   330.63   930.88   328.13 " style="stroke-width: 1.42 ;&st7; " /><path d=" M  607.93,  184.79  C  607.93   182.28   605.90   180.26   603.40   180.26 " style="stroke-width: 1.42 ;&st7; " /><path d=" M  603.40,  180.26  C  600.90   180.26   598.87   182.28   598.87   184.79 " style="stroke-width: 1.42 ;&st7; " /><path d=" M  598.87,  184.79  C  598.87   187.29   600.90   189.32   603.40   189.32 " style="stroke-width: 1.42 ;&st7; " /><path d=" M  603.40,  189.32  C  605.90   189.32   607.93   187.29   607.93   184.79 " style="stroke-width: 1.42 ;&st7; " /><path d=" M  548.44,  184.79  C  548.44   182.28   546.41   180.26   543.91   180.26 " style="stroke-width: 1.42 ;&st7; " /><path d=" M  543.91,  180.26  C  541.41   180.26   539.38   182.28   539.38   184.79 " style="stroke-width: 1.42 ;&st7; " /><path d=" M  539.38,  184.79  C  539.38   187.29   541.41   189.32   543.91   189.32 " style="stroke-width: 1.42 ;&st7; " /><path d=" M  543.91,  189.32  C  546.41   189.32   548.44   187.29   548.44   184.79 " style="stroke-width: 1.42 ;&st7; " /><path d=" M  650.42,  184.79  C  650.42   182.28   648.40   180.26   645.89   180.26 " style="stroke-width: 1.42 ;&st7; " /><path d=" M  645.89,  180.26  C  643.39   180.26   641.36   182.28   641.36   184.79 " style="stroke-width: 1.42 ;&st7; " /><path d=" M  641.36,  184.79  C  641.36   187.29   643.39   189.32   645.89   189.32 " style="stroke-width: 1.42 ;&st7; " /><path d=" M  645.89,  189.32  C  648.40   189.32   650.42   187.29   650.42   184.79 " style="stroke-width: 1.42 ;&st7; " /><path d=" M  601.27,  231.25  C  598.93   231.25   597.03   233.15   597.03   235.50 " style="stroke-width: 1.42 ;&st7; " /><path d=" M  597.03,  235.50  C  597.03   237.84   598.93   239.75   601.27   239.75 " style="stroke-width: 1.42 ;&st7; " /><path d=" M  605.52,  239.75  C  607.87   239.75   609.77   237.84   609.77   235.50 " style="stroke-width: 1.42 ;&st7; " /><path d=" M  609.77,  235.50  C  609.77   233.15   607.87   231.25   605.52   231.25 " style="stroke-width: 1.42 ;&st7; " /><path d=" M  643.77,  231.25  C  641.42   231.25   639.52   233.15   639.52   235.50 " style="stroke-width: 1.42 ;&st7; " /><path d=" M  639.52,  235.50  C  639.52   237.84   641.42   239.75   643.77   239.75 " style="stroke-width: 1.42 ;&st7; " /><path d=" M  648.02,  239.75  C  650.36   239.75   652.27   237.84   652.27   235.50 " style="stroke-width: 1.42 ;&st7; " /><path d=" M  652.27,  235.50  C  652.27   233.15   650.36   231.25   648.02   231.25 " style="stroke-width: 1.42 ;&st7; " /><path d=" M  601.27,  273.74  C  598.93   273.74   597.03   275.64   597.03   277.99 " style="stroke-width: 1.42 ;&st7; " /><path d=" M  597.03,  277.99  C  597.03   280.34   598.93   282.24   601.27   282.24 " style="stroke-width: 1.42 ;&st7; " /><path d=" M  605.52,  282.24  C  607.87   282.24   609.77   280.34   609.77   277.99 " style="stroke-width: 1.42 ;&st7; " /><path d=" M  609.77,  277.99  C  609.77   275.64   607.87   273.74   605.52   273.74 " style="stroke-width: 1.42 ;&st7; " /><path d=" M  643.77,  273.74  C  641.42   273.74   639.52   275.64   639.52   277.99 " style="stroke-width: 1.42 ;&st7; " /><path d=" M  639.52,  277.99  C  639.52   280.34   641.42   282.24   643.77   282.24 " style="stroke-width: 1.42 ;&st7; " /><path d=" M  648.02,  282.24  C  650.36   282.24   652.27   280.34   652.27   277.99 " style="stroke-width: 1.42 ;&st7; " /><path d=" M  652.27,  277.99  C  652.27   275.64   650.36   273.74   648.02   273.74 " style="stroke-width: 1.42 ;&st7; " /><text style="&st18;" transform="matrix(&st16;  643.56  339.16 )">E</text><text style="&st18;" transform="matrix(&st16;  631.09  339.16 )">33</text><text style="&st18;" transform="matrix(&st16;  643.42  330.1 )">C</text><text style="&st18;" transform="matrix(&st16;  631.09  330.1 )">33</text><text style="&st18;" transform="matrix(&st16;  601.07  339.16 )">E</text><text style="&st18;" transform="matrix(&st16;  588.59  339.16 )">32</text><text style="&st18;" transform="matrix(&st16;  600.93  330.1 )">C</text><text style="&st18;" transform="matrix(&st16;  588.59  330.1 )">32</text><text style="&st18;" transform="matrix(&st16;  541.58  339.16 )">E</text><text style="&st18;" transform="matrix(&st16;  529.1  339.16 )">26</text><text style="&st18;" transform="matrix(&st16;  541.44  330.1 )">C</text><text style="&st18;" transform="matrix(&st16;  529.1  330.1 )">26</text><text ewd:textID="1" style="&st18;" transform="matrix(&st16;  549.88  437.18 )">* 3 :w/ Daytime Running Light</text><text ewd:textID="2" style="&st18;" transform="matrix(&st16;  549.88  445.68 )">* 4 :w/o Daytime Running Light</text><text style="&st18;" transform="matrix(&st16;  549.88  204.89 )">(*16)</text><text style="&st18;" transform="matrix(&st16;  529.85  204.89 )">21</text><text style="&st18;" transform="matrix(&st16;  541.58  204.89 )">V</text><text style="&st18;" transform="matrix(&st16;  589.34  195.82 )">16</text><text style="&st18;" transform="matrix(&st16;  601.07  195.82 )">V</text><text style="&st18;" transform="matrix(&st16;  651.87  195.82 )">(*16)</text><text style="&st18;" transform="matrix(&st16;  631.84  195.82 )">18</text><text style="&st18;" transform="matrix(&st16;  642.54  195.82 )">W</text><text style="&st18;" transform="matrix(&st16;  651.87  186.76 )">(*17)</text><text style="&st18;" transform="matrix(&st16;  789.75  32.08 )">(BAT)</text><text style="&st18;" transform="matrix(&st16;  924.01  611.69 )">A</text><text style="&st18;" transform="matrix(&st16;  917.23  32.08 )">(BAT)</text><text style="&st18;" transform="matrix(&st16;  816.17  44.87 )">30A <tspan dy="6" x="0">PTC </tspan><tspan dy="6" x="0">NO.2 (*13) </tspan><tspan dy="6" x="0">50A </tspan><tspan dy="6" x="0">PTC </tspan><tspan dy="6" x="0">NO.2 (*18)</tspan></text><text style="&st18;" transform="matrix(&st16;  943.65  53.34 )">50A <tspan dy="6" x="0">PTC </tspan><tspan dy="6" x="0">NO.1</tspan></text><text style="&st18;" transform="matrix(&st16;  794.95  109.99 )">1B</text><text style="&st18;" transform="matrix(&st16;  786.95  109.99 )">1</text><text style="&st18;" transform="matrix(&st16;  922.28  109.99 )">1D</text><text style="&st18;" transform="matrix(&st16;  914.43  109.99 )">1</text><text style="&st18;" transform="matrix(&st16;  911.53  203.47 )">2</text><text style="&st18;" transform="matrix(&st16;  784.83  203.47 )">1</text><text style="&st18;" transform="matrix(&st16;  796.54  560.13 )">B</text><text style="&st18;" transform="matrix(&st16;  788.77  560.13 )">1</text><text style="&st18;" transform="matrix(&st16;  924.01  560.13 )">B</text><text style="&st18;" transform="matrix(&st16;  915.47  560.13 )">2</text><text style="&st18;" transform="matrix(&st17;  728.57  607.71 )">P16(A),P17(B)</text><text ewd:textID="25" style="&st18;" transform="matrix(&st17;  735.68  607.71 )">PTC Heater</text><text style="&st18;" transform="matrix(&st16;  541.58  195.82 )">K</text><text style="&st18;" transform="matrix(&st16;  529.08  195.82 )">20</text><text style="&st18;" transform="matrix(&st16;  549.88  186.76 )">(*6 *17)</text><text style="&st18;" transform="matrix(&st16;  549.88  195.82 )">(*5 *17)</text><text ewd:textID="3" style="&st18;" transform="matrix(&st16;  549.88  454.18 )">* 5 :Before Aug. 2006 Production</text><text ewd:textID="4" style="&st18;" transform="matrix(&st16;  549.88  462.68 )">* 6 :From Aug. 2006 Production</text><text ewd:textID="19" style="&st18;" transform="matrix(&st16;  555.55  369.19 )">A/C Amplifier</text><text style="&st18;" transform="matrix(&st16;  555.55  362.09 )">A 9(C),A45(E)</text><text ewd:textID="5" style="&st18;" transform="matrix(&st16;  549.88  471.18 )">* 8 :Before Aug. 2008 Production</text><text ewd:textID="6" style="&st18;" transform="matrix(&st16;  549.88  479.67 )">* 9 :From Aug. 2008 Production</text><text ewd:textID="7" style="&st18;" transform="matrix(&st16;  549.88  488.17 )">*10 :Before Aug. 2009 Production</text><text ewd:textID="8" style="&st18;" transform="matrix(&st16;  549.88  496.67 )">*11 :From Aug. 2009 Production</text><text ewd:textID="9" style="&st18;" transform="matrix(&st16;  549.88  505.17 )">*12 :Europe From Aug. 2010 Production <tspan dy="8.5" x="14.17">until Jun. 2011 Production</tspan></text><text ewd:textID="10" style="&st18;" transform="matrix(&st16;  549.88  522.17 )">*13 :Before Aug. 2010 Production</text><text style="&st18;" transform="matrix(&st17;  599.7  310.06 )">P</text><text style="&st18;" transform="matrix(&st17;  540.21  272.59 )">L-W</text><text style="&st18;" transform="matrix(&st16;  597.92  349.36 )">TW</text><text style="&st18;" transform="matrix(&st16;  534.51  349.36 )">PTCR</text><text style="&st18;" transform="matrix(&st16;  592.7  176.56 )">THWO</text><text style="&st18;" transform="matrix(&st16;  535.75  176.56 )">HSW</text><text style="&st18;" transform="matrix(&st16;  541.38  135.46 )">E 5(J),E 6(K),E30(V),E31(W)</text><text ewd:textID="22" style="&st18;" transform="matrix(&st16;  541.38  142.56 )">Engine ECU</text><text style="&st18;" transform="matrix(&st16;  592.52  186.76 )">2</text><text style="&st18;" transform="matrix(&st16;  541.58  186.76 )">K</text><text style="&st18;" transform="matrix(&st16;  529.85  186.76 )">16</text><text style="&st18;" transform="matrix(&st16;  601.63  186.76 )">J</text><text style="&st18;" transform="matrix(&st17;  642.2  315.43 )">B-W</text><text style="&st18;" transform="matrix(&st16;  636.21  349.36 )">TACO</text><text style="&st18;" transform="matrix(&st16;  636.5  176.56 )">TACH</text><text style="&st18;" transform="matrix(&st16;  644.13  186.76 )">J</text><text style="&st18;" transform="matrix(&st16;  598.67  237.47 )">2Q</text><text style="&st18;" transform="matrix(&st16;  587.53  237.47 )">16</text><text style="&st18;" transform="matrix(&st16;  641.44  237.47 )">2N</text><text style="&st18;" transform="matrix(&st16;  633.2  237.47 )">6</text><text style="&st18;" transform="matrix(&st16;  599.09  279.96 )">2P</text><text style="&st18;" transform="matrix(&st16;  586.75  279.96 )">32</text><text style="&st18;" transform="matrix(&st16;  641.44  279.96 )">2N</text><text style="&st18;" transform="matrix(&st16;  629.25  279.96 )">22</text><text style="&st18;" transform="matrix(&st17;  599.7  216.58 )">P</text><text style="&st18;" transform="matrix(&st17;  642.2  221.95 )">B-W</text><text style="&st18;" transform="matrix(&st16;  635.02  186.76 )">4</text><text style="&st18;" transform="matrix(&st17;  752.68  646.88 )">W-B</text><text style="&st18;" transform="matrix(&st17;  795.17  517.93 )">L</text><text style="&st18;" transform="matrix(&st16;  850.66  431.52 )">W-B</text><text style="&st18;" transform="matrix(&st17;  922.65  527.02 )">R-B</text><text style="&st18;" transform="matrix(&st17;  795.17  263.56 )">B-R</text><text style="&st18;" transform="matrix(&st17;  922.65  264.09 )">L-W</text><text style="&st18;" transform="matrix(&st17;  795.17  161.58 )">B-R</text><text style="&st18;" transform="matrix(&st17;  922.65  162.11 )">L-W</text><text style="&st18;" transform="matrix(&st16;  915.5  611.69 )">2</text><text style="&st18;" transform="matrix(&st16;  754.04  611.69 )">A</text><text style="&st18;" transform="matrix(&st16;  746.3  611.69 )">1</text><text style="&st18;" transform="matrix(&st17;  922.65  646.88 )">W-B</text><text style="&st18;" transform="matrix(&st16;  898.52  330.1 )">A</text><text style="&st18;" transform="matrix(&st16;  889.97  330.1 )">2</text><text style="&st18;" transform="matrix(&st16;  898.52  339.16 )">A</text><text style="&st18;" transform="matrix(&st16;  890.75  339.16 )">1</text><text style="&st18;" transform="matrix(&st16;  771.04  391.29 )">A</text><text style="&st18;" transform="matrix(&st16;  762.49  391.29 )">2</text><text style="&st18;" transform="matrix(&st16;  771.04  382.22 )">A</text><text style="&st18;" transform="matrix(&st16;  763.27  382.22 )">1</text><text style="&st18;" transform="matrix(&st16;  954.02  406.02 )">L-B</text><text style="&st18;" transform="matrix(&st16;  898.52  391.29 )">A</text><text style="&st18;" transform="matrix(&st16;  889.97  391.29 )">2</text><text style="&st18;" transform="matrix(&st16;  754.04  601.49 )">E</text><text style="&st18;" transform="matrix(&st16;  924.01  601.49 )">E</text><text style="&st18;" transform="matrix(&st16;  796.54  570.33 )">B</text><text style="&st18;" transform="matrix(&st16;  924.01  570.33 )">B</text><text style="&st18;" transform="matrix(&st17;  761.18  161.43 )">B-Y</text><text style="&st18;" transform="matrix(&st17;  772.51  162.53 )">(*12)</text><text style="&st18;" transform="matrix(&st17;  781.01  264.51 )">(*12)</text><text style="&st18;" transform="matrix(&st17;  769.68  263.42 )">B-Y</text><text style="&st18;" transform="matrix(&st17;  806.5  162.53 )">(*13)</text><text style="&st18;" transform="matrix(&st17;  806.5  264.51 )">(*13)</text><text style="&st18;" transform="matrix(&st17;  820.67  518.7 )">G</text><text style="&st18;" transform="matrix(&st17;  832.0  523.72 )">(*12)</text><text style="&st18;" transform="matrix(&st17;  806.5  530.18 )">(*13,*15)</text><text style="&st18;" transform="matrix(&st16;  898.52  382.22 )">A</text><text style="&st18;" transform="matrix(&st16;  890.75  382.22 )">1</text><text style="&st18;" transform="matrix(&st16;  763.27  339.16 )">1</text><text style="&st18;" transform="matrix(&st16;  771.04  339.16 )">A</text><text style="&st18;" transform="matrix(&st16;  762.49  330.1 )">2</text><text style="&st18;" transform="matrix(&st16;  771.04  330.1 )">A</text><text style="&st18;" transform="matrix(&st16;  945.53  203.47 )">3</text><text style="&st18;" transform="matrix(&st17;  956.64  264.09 )">L-W</text><text style="&st18;" transform="matrix(&st17;  956.64  162.11 )">L-W</text><text style="&st18;" transform="matrix(&st17;  933.98  162.53 )">(*14)</text><text style="&st18;" transform="matrix(&st17;  967.98  162.53 )">(*15)</text><text style="&st18;" transform="matrix(&st17;  933.98  264.51 )">(*14)</text><text style="&st18;" transform="matrix(&st17;  967.98  264.51 )">(*15)</text><text style="&st18;" transform="matrix(&st16;  852.04  203.47 )">2</text><text style="&st18;" transform="matrix(&st17;  863.16  263.56 )">B-R</text><text style="&st18;" transform="matrix(&st17;  863.16  161.58 )">B-R</text><text style="&st18;" transform="matrix(&st17;  874.49  162.53 )">(*15)</text><text style="&st18;" transform="matrix(&st17;  874.49  264.51 )">(*21)</text><text style="&st18;" transform="matrix(&st17;  795.17  458.44 )">L</text><text style="&st18;" transform="matrix(&st17;  806.5  470.69 )">(*13,*15)</text><text style="&st18;" transform="matrix(&st16;  754.04  560.13 )">B</text><text style="&st18;" transform="matrix(&st16;  745.5  560.13 )">3</text><text style="&st18;" transform="matrix(&st17;  752.68  518.7 )">G</text><text style="&st18;" transform="matrix(&st16;  754.04  570.33 )">B</text><text style="&st18;" transform="matrix(&st17;  764.01  523.72 )">(*15)</text><text style="&st18;" transform="matrix(&st16;  959.65  570.88 )">11</text><text style="&st18;" transform="matrix(&st16;  962.05  542.0 )">4</text><text style="&st18;" transform="matrix(&st17;  965.14  526.52 )">L-B</text><text style="&st18;" transform="matrix(&st17;  976.47  527.97 )">(*15)</text><text style="&st18;" transform="matrix(&st17;  965.14  646.88 )">W-B</text><text style="&st18;" transform="matrix(&st17;  976.47  646.95 )">(*15)</text><text style="&st18;" transform="matrix(&st16;  952.57  417.35 )">(*14)</text><text ewd:textID="24" style="&st18;" transform="matrix(&st17;  992.05  565.22 )">Junction Connector</text><text style="&st18;" transform="matrix(&st17;  984.95  565.22 )">J57</text><text style="&st18;" transform="matrix(&st16;  671.37  349.36 )">PTC1</text><text style="&st18;" transform="matrix(&st16;  696.48  349.36 )">PTC2</text><text style="&st18;" transform="matrix(&st16;  703.05  339.16 )">E</text><text style="&st18;" transform="matrix(&st16;  694.53  339.16 )">2</text><text style="&st18;" transform="matrix(&st16;  702.91  330.1 )">C</text><text style="&st18;" transform="matrix(&st16;  694.53  330.1 )">2</text><text style="&st18;" transform="matrix(&st16;  677.56  339.16 )">E</text><text style="&st18;" transform="matrix(&st16;  669.04  339.16 )">3</text><text style="&st18;" transform="matrix(&st16;  677.41  330.1 )">C</text><text style="&st18;" transform="matrix(&st16;  669.04  330.1 )">3</text><text style="&st18;" transform="matrix(&st16;  711.33  330.1 )">(*14)</text><text style="&st18;" transform="matrix(&st16;  711.33  339.16 )">(*15)</text><text style="&st18;" transform="matrix(&st16;  734.15  304.04 )">GR</text><text style="&st18;" transform="matrix(&st16;  731.53  236.05 )">R-W</text><text style="&st18;" transform="matrix(&st17;  897.15  307.08 )">R-W</text><text ewd:textID="11" style="&st18;" transform="matrix(&st16;  549.88  530.67 )">*14 :Before Jun. 2011 Production</text><text ewd:textID="12" style="&st18;" transform="matrix(&st16;  549.88  539.16 )">*15 :From Jun. 2011 Production</text><text ewd:textID="13" style="&st18;" transform="matrix(&st16;  549.88  547.66 )">*16 :w/ DPF</text><text ewd:textID="14" style="&st18;" transform="matrix(&st16;  549.88  556.16 )">*17 :w/o DPF</text><text style="&st18;" transform="matrix(&st16;  804.84  339.16 )">(*15)</text><text style="&st18;" transform="matrix(&st16;  787.99  339.16 )">3</text><text style="&st18;" transform="matrix(&st16;  796.54  339.16 )">A</text><text style="&st18;" transform="matrix(&st16;  804.84  330.1 )">(*14)</text><text style="&st18;" transform="matrix(&st16;  787.99  330.1 )">3</text><text style="&st18;" transform="matrix(&st16;  796.54  330.1 )">A</text><text style="&st18;" transform="matrix(&st16;  804.84  382.22 )">(*14)</text><text style="&st18;" transform="matrix(&st16;  787.99  382.22 )">5</text><text style="&st18;" transform="matrix(&st16;  796.54  382.22 )">A</text><text style="&st18;" transform="matrix(&st16;  804.84  391.29 )">(*15)</text><text style="&st18;" transform="matrix(&st16;  787.99  391.29 )">5</text><text style="&st18;" transform="matrix(&st16;  796.54  391.29 )">A</text><text ewd:textID="27" style="&st18;" transform="matrix(&st17;  755.23  378.25 )">PTC Heater <tspan dy="6" x="0">Relay (No.2)</tspan></text><text style="&st18;" transform="matrix(&st17;  748.12  378.25 )">P19(A)</text><text ewd:textID="26" style="&st18;" transform="matrix(&st17;  882.71  378.25 )">PTC Heater <tspan dy="6" x="0">Relay (No.1)</tspan></text><text style="&st18;" transform="matrix(&st17;  875.6  378.25 )">P18(A)</text><text style="&st18;" transform="matrix(&st16;  932.32  382.22 )">(*14)</text><text style="&st18;" transform="matrix(&st16;  915.47  382.22 )">5</text><text style="&st18;" transform="matrix(&st16;  924.01  382.22 )">A</text><text style="&st18;" transform="matrix(&st16;  932.32  391.29 )">(*15)</text><text style="&st18;" transform="matrix(&st16;  915.47  391.29 )">5</text><text style="&st18;" transform="matrix(&st16;  924.01  391.29 )">A</text><text style="&st18;" transform="matrix(&st16;  932.32  339.16 )">(*15)</text><text style="&st18;" transform="matrix(&st16;  915.47  339.16 )">3</text><text style="&st18;" transform="matrix(&st16;  924.01  339.16 )">A</text><text style="&st18;" transform="matrix(&st16;  932.32  330.1 )">(*14)</text><text style="&st18;" transform="matrix(&st16;  915.47  330.1 )">3</text><text style="&st18;" transform="matrix(&st16;  924.01  330.1 )">A</text><text ewd:textID="15" style="&st18;" transform="matrix(&st16;  549.88  564.66 )">*18 :From Aug. 2010 Production</text><text style="&st18;" transform="matrix(&st17;  832.0  264.9 )">(*20)</text><text style="&st18;" transform="matrix(&st17;  820.67  259.21 )">R</text><text ewd:textID="16" style="&st18;" transform="matrix(&st16;  549.88  573.16 )">*19 :Before Aug. 2013 Production</text><text ewd:textID="17" style="&st18;" transform="matrix(&st16;  549.88  581.66 )">*20 :From Aug. 2013 Production</text><text ewd:textID="18" style="&st18;" transform="matrix(&st16;  549.88  590.16 )">*21 :From Jun. 2011 Production <tspan dy="8.49" x="14.17">until Aug. 2013 Production</tspan></text></svg>