﻿<?xml version="1.0"?>
<!-- Generator: Adobe Illustrator 10.0, SVG Export Plug-In . SVG Version: 3.0.0 Build 77)  -->
<!DOCTYPE svg PUBLIC "-//W3C//DTD SVG 1.0//EN" "http://www.w3.org/TR/2001/REC-SVG-20010904/DTD/svg10.dtd"[
	<!ENTITY ns_flows "http://ns.adobe.com/Flows/1.0/">
	<!ENTITY ns_svg "http://www.w3.org/2000/svg">
	<!ENTITY ns_xlink "http://www.w3.org/1999/xlink">
	<!ENTITY st0 "fill:none;">
	<!ENTITY st1 "stroke:#000000;">
	<!ENTITY st2 "stroke-linecap:round;">
	<!ENTITY st3 "stroke-linejoin:round;">
	<!ENTITY st4 "stroke-width:0.6;">
	<!ENTITY st5 "font-size:6px;">
	<!ENTITY st6 "font-family:'Arial';">
	<!ENTITY st7 "stroke-width:1.4;">
	<!ATTLIST svg
		ewd:ver CDATA #IMPLIED
		xmlns:ewd CDATA #FIXED "http://shcl.co.jp/ewd"
		xmlns:a CDATA #FIXED "http://ns.adobe.com/AdobeSVGViewerExtensions/3.0/">
	<!ATTLIST g
		ewd:pinNo CDATA #IMPLIED>
]>
<svg width="163.485" height="83.162" viewBox="0 0 163.485 83.162" style="overflow:visible;enable-background:new 0 0 66.156 66.156" xml:space="preserve" onload="call_execInitLoadProc_svg('connector')" ewd:ver="L2.1.2.7" xmlns="&ns_svg;" xmlns:ewd="http://shcl.co.jp/ewd" xmlns:a="http://ns.adobe.com/AdobeSVGViewerExtensions/3.0/" xmlns:xlink="&ns_xlink;">
<script type="text/javascript" xlink:href="../../../../../system/js/ewd/fig/svgfig.js"/>
<g id="レイヤー_1" transform="translate(0,17.008)">
	<path style="&st0;&st1;&st2;&st3;" d="M21.038,0.5h24.079"/>
	<path style="&st0;&st1;&st2;&st3;" d="M10.981,65.656h44.193"/>
	<path style="&st0;&st1;&st2;&st3;" d="M0.5,24.58v31.162"/>
	<path style="&st0;&st1;&st2;&st3;" d="M65.656,24.58v31.162"/>
	<path style="&st0;&st1;&st2;&st3;" d="M6.166,62.823h4.816"/>
	<path style="&st0;&st1;&st4;&st2;&st3;" d="M4.749,59.99h56.657"/>
	<path style="&st0;&st1;&st4;&st2;&st3;" d="M6.166,40.16H59.99"/>
	<path style="&st0;&st1;&st4;&st2;&st3;" d="M49.225,28.829v22.663"/>
	<path style="&st0;&st1;&st4;&st2;&st3;" d="M38.46,28.829v22.663"/>
	<path style="&st0;&st1;&st4;&st2;&st3;" d="M27.695,28.829v22.663"/>
	<path style="&st0;&st1;&st4;&st2;&st3;" d="M16.931,28.829v22.663"/>
	<path style="&st0;&st1;&st2;&st3;" d="M4.749,20.33h3.116"/>
	<path style="&st0;&st1;&st2;&st3;" d="M9.282,6.874v12.04"/>
	<path style="&st0;&st1;&st2;&st3;" d="M15.231,6.874v12.04"/>
	<path style="&st0;&st1;&st2;&st3;" d="M50.925,6.874v12.04"/>
	<path style="&st0;&st1;&st2;&st3;" d="M56.874,6.874v12.04"/>
	<path style="&st0;&st1;&st2;&st3;" d="M46.392,20.33h3.116"/>
	<path style="&st0;&st1;&st2;&st3;" d="M16.647,20.33h3.116"/>
	<path style="&st0;&st1;&st2;&st3;" d="M58.29,20.33h3.116"/>
	<path style="&st0;&st1;&st2;&st3;" d="M10.698,5.458h3.116"/>
	<path style="&st0;&st1;&st2;&st3;" d="M52.341,5.458h3.116"/>
	<path style="&st0;&st1;&st2;&st3;" d="M18.206,3.333v1.569"/>
	<path style="&st0;&st1;&st2;&st3;" d="M47.95,3.333v1.569"/>
	<path style="&st0;&st1;&st2;&st3;" d="M19.741,9.778l1.439,2.054"/>
	<path style="&st0;&st1;&st2;&st3;" d="M46.415,9.778l-1.439,2.054"/>
	<path style="&st0;&st1;&st4;&st2;&st3;" d="M37.61,2.625h-9.065"/>
	<path style="&st0;&st1;&st4;&st2;&st3;" d="M10.698,8.999h3.116"/>
	<path style="&st0;&st1;&st4;&st2;&st3;" d="M21.18,8.999h23.796"/>
	<path style="&st0;&st1;&st4;&st2;&st3;" d="M52.341,8.999h3.116"/>
	<path style="&st0;&st1;&st2;&st3;" d="M4.749,59.99v1.417"/>
	<path style="&st0;&st1;&st2;&st3;" d="M61.406,59.99v1.417"/>
	<path style="&st0;&st1;&st2;&st3;" d="M10.981,62.823v2.833"/>
	<path style="&st0;&st1;&st2;&st3;" d="M55.174,62.823v2.833"/>
	<path style="&st0;&st1;&st4;&st2;&st3;" d="M24.579,59.99v2.833"/>
	<path style="&st0;&st1;&st4;&st2;&st3;" d="M41.577,59.99v2.833"/>
	<path style="&st0;&st1;&st2;&st3;" d="M55.174,62.823h4.816"/>
	<path style="&st0;&st1;&st4;&st2;&st3;" d="M10.981,62.823h44.193"/>
	<path style="&st0;&st1;&st4;&st2;&st3;" d="M7.016,54.608h7.648"/>
	<path style="&st0;&st1;&st4;&st2;&st3;" d="M15.514,55.458v0.567"/>
	<path style="&st0;&st1;&st4;&st2;&st3;" d="M14.664,56.874H7.016"/>
	<path style="&st0;&st1;&st4;&st2;&st3;" d="M6.166,56.024v-0.567"/>
	<path style="&st0;&st1;&st4;&st2;&st3;" d="M21.463,54.608h7.649"/>
	<path style="&st0;&st1;&st4;&st2;&st3;" d="M29.961,55.458v0.567"/>
	<path style="&st0;&st1;&st4;&st2;&st3;" d="M29.112,56.874h-7.649"/>
	<path style="&st0;&st1;&st4;&st2;&st3;" d="M20.613,56.024v-0.567"/>
	<path style="&st0;&st1;&st4;&st2;&st3;" d="M37.044,54.608h7.648"/>
	<path style="&st0;&st1;&st4;&st2;&st3;" d="M45.542,55.458v0.567"/>
	<path style="&st0;&st1;&st4;&st2;&st3;" d="M44.692,56.874h-7.648"/>
	<path style="&st0;&st1;&st4;&st2;&st3;" d="M36.194,56.024v-0.567"/>
	<path style="&st0;&st1;&st4;&st2;&st3;" d="M51.491,54.608h7.649"/>
	<path style="&st0;&st1;&st4;&st2;&st3;" d="M59.99,55.458v0.567"/>
	<path style="&st0;&st1;&st4;&st2;&st3;" d="M59.14,56.874h-7.649"/>
	<path style="&st0;&st1;&st4;&st2;&st3;" d="M50.642,56.024v-0.567"/>
	<path style="&st0;&st1;&st4;&st2;&st3;" d="M10.698,8.999c-0.782,0-1.417,0.634-1.417,1.417"/>
	<path style="&st0;&st1;&st4;&st2;&st3;" d="M15.231,10.416c0-0.783-0.634-1.417-1.417-1.417"/>
	<path style="&st0;&st1;&st4;&st2;&st3;" d="M52.341,8.999c-0.782,0-1.417,0.634-1.417,1.417"/>
	<path style="&st0;&st1;&st4;&st2;&st3;" d="M56.874,10.416c0-0.783-0.634-1.417-1.417-1.417"/>
	<path style="&st0;&st1;&st2;&st3;" d="M52.341,5.458c-0.782,0-1.417,0.634-1.417,1.417"/>
	<path style="&st0;&st1;&st2;&st3;" d="M56.874,6.874c0-0.782-0.634-1.417-1.417-1.417"/>
	<path style="&st0;&st1;&st2;&st3;" d="M15.231,6.874c0-0.782-0.634-1.417-1.417-1.417"/>
	<path style="&st0;&st1;&st2;&st3;" d="M10.698,5.458c-0.782,0-1.417,0.634-1.417,1.417"/>
	<path style="&st0;&st1;&st2;&st3;" d="M19.763,20.33c0.782,0,1.417-0.634,1.417-1.416"/>
	<path style="&st0;&st1;&st2;&st3;" d="M15.231,18.914c0,0.782,0.634,1.416,1.417,1.416"/>
	<path style="&st0;&st1;&st2;&st3;" d="M44.976,18.914c0,0.782,0.634,1.416,1.417,1.416"/>
	<path style="&st0;&st1;&st2;&st3;" d="M49.508,20.33c0.782,0,1.417-0.634,1.417-1.416"/>
	<path style="&st0;&st1;&st2;&st3;" d="M56.874,18.914c0,0.782,0.634,1.416,1.416,1.416"/>
	<path style="&st0;&st1;&st2;&st3;" d="M7.865,20.33c0.783,0,1.417-0.634,1.417-1.416"/>
	<path style="&st0;&st1;&st4;&st2;&st3;" d="M28.545,2.625c-0.782,0-1.417,0.634-1.417,1.417"/>
	<path style="&st0;&st1;&st4;&st2;&st3;" d="M39.027,4.041c0-0.782-0.634-1.417-1.417-1.417"/>
	<path style="&st0;&st1;&st2;&st3;" d="M4.749,20.33c-2.347,0-4.249,1.903-4.249,4.25"/>
	<path style="&st0;&st1;&st2;&st3;" d="M65.656,24.58c0-2.347-1.902-4.25-4.25-4.25"/>
	<path style="&st0;&st1;&st2;&st3;" d="M0.5,55.741c0,2.347,1.902,4.249,4.249,4.249"/>
	<path style="&st0;&st1;&st2;&st3;" d="M61.406,59.99c2.347,0,4.25-1.902,4.25-4.249"/>
	<path style="&st0;&st1;&st2;&st3;" d="M21.038,0.5c-1.564,0-2.833,1.269-2.833,2.833"/>
	<path style="&st0;&st1;&st2;&st3;" d="M47.95,3.333c0-1.564-1.268-2.833-2.833-2.833"/>
	<path style="&st0;&st1;&st2;&st3;" d="M18.206,4.902c0,1.826,0.49,3.379,1.537,4.875"/>
	<path style="&st0;&st1;&st2;&st3;" d="M46.415,9.778c1.047-1.495,1.537-3.05,1.537-4.875"/>
	<path style="&st0;&st1;&st2;&st3;" d="M4.749,61.407c0,0.782,0.634,1.417,1.417,1.417"/>
	<path style="&st0;&st1;&st2;&st3;" d="M59.99,62.823c0.782,0,1.416-0.634,1.416-1.417"/>
	<path style="&st0;&st1;&st4;&st2;&st3;" d="M7.016,54.608c-0.47,0-0.85,0.38-0.85,0.85"/>
	<path style="&st0;&st1;&st4;&st2;&st3;" d="M6.166,56.024c0,0.469,0.38,0.85,0.85,0.85"/>
	<path style="&st0;&st1;&st4;&st2;&st3;" d="M15.514,55.458c0-0.469-0.38-0.85-0.85-0.85"/>
	<path style="&st0;&st1;&st4;&st2;&st3;" d="M14.664,56.874c0.47,0,0.85-0.38,0.85-0.85"/>
	<path style="&st0;&st1;&st4;&st2;&st3;" d="M21.463,54.608c-0.469,0-0.85,0.38-0.85,0.85"/>
	<path style="&st0;&st1;&st4;&st2;&st3;" d="M20.613,56.024c0,0.469,0.38,0.85,0.85,0.85"/>
	<path style="&st0;&st1;&st4;&st2;&st3;" d="M29.961,55.458c0-0.469-0.38-0.85-0.85-0.85"/>
	<path style="&st0;&st1;&st4;&st2;&st3;" d="M29.112,56.874c0.469,0,0.85-0.38,0.85-0.85"/>
	<path style="&st0;&st1;&st4;&st2;&st3;" d="M37.044,54.608c-0.47,0-0.85,0.38-0.85,0.85"/>
	<path style="&st0;&st1;&st4;&st2;&st3;" d="M36.194,56.024c0,0.469,0.38,0.85,0.85,0.85"/>
	<path style="&st0;&st1;&st4;&st2;&st3;" d="M45.542,55.458c0-0.469-0.38-0.85-0.85-0.85"/>
	<path style="&st0;&st1;&st4;&st2;&st3;" d="M44.692,56.874c0.47,0,0.85-0.38,0.85-0.85"/>
	<path style="&st0;&st1;&st4;&st2;&st3;" d="M51.491,54.608c-0.469,0-0.85,0.38-0.85,0.85"/>
	<path style="&st0;&st1;&st4;&st2;&st3;" d="M50.642,56.024c0,0.469,0.38,0.85,0.85,0.85"/>
	<path style="&st0;&st1;&st4;&st2;&st3;" d="M59.99,55.458c0-0.469-0.381-0.85-0.85-0.85"/>
	<path style="&st0;&st1;&st4;&st2;&st3;" d="M59.14,56.874c0.469,0,0.85-0.38,0.85-0.85"/>
	<path style="&st0;&st1;&st4;&st2;&st3;" d="M39.027,4.041v2.833H27.129V4.041"/>
	<path style="&st0;&st1;&st2;&st3;" d="M21.18,11.832v7.083"/>
	<path style="&st0;&st1;&st4;&st2;&st3;" d="M44.976,11.832V5.458h-5.949"/>
	<path style="&st0;&st1;&st4;&st2;&st3;" d="M59.99,28.829H6.166v22.663H59.99V28.829"/>
	<path style="&st0;&st1;&st4;&st2;&st3;" d="M27.129,5.458H21.18v6.374"/>
	<path style="&st0;&st1;&st2;&st3;" d="M44.976,18.914v-7.083"/>
	<g ewd:pinNo="1">
		<text transform="matrix(1 0 0 1 9.7139 36.6304)"><tspan x="0" y="0" style="&st6; &st5;">1</tspan></text>
	</g>
	<g ewd:pinNo="2">
		<text transform="matrix(1 0 0 1 20.479 36.6304)"><tspan x="0" y="0" style="&st6; &st5;">2</tspan></text>
	</g>
	<g ewd:pinNo="3">
		<text transform="matrix(1 0 0 1 31.2437 36.6304)"><tspan x="0" y="0" style="&st6; &st5;">3</tspan></text>
	</g>
	<g ewd:pinNo="4">
		<text transform="matrix(1 0 0 1 42.0083 36.6304)"><tspan x="0" y="0" style="&st6; &st5;">4</tspan></text>
	</g>
	<g ewd:pinNo="5">
		<text transform="matrix(1 0 0 1 52.7734 36.6304)"><tspan x="0" y="0" style="&st6; &st5;">5</tspan></text>
	</g>
	<g ewd:pinNo="6">
		<text transform="matrix(1 0 0 1 9.7139 47.9619)"><tspan x="0" y="0" style="&st6; &st5;">6</tspan></text>
	</g>
	<g ewd:pinNo="7">
		<text transform="matrix(1 0 0 1 20.479 47.9619)"><tspan x="0" y="0" style="&st6; &st5;">7</tspan></text>
	</g>
	<g ewd:pinNo="8">
		<text transform="matrix(1 0 0 1 31.2437 47.9619)"><tspan x="0" y="0" style="&st6; &st5;">8</tspan></text>
	</g>
	<g ewd:pinNo="9">
		<text transform="matrix(1 0 0 1 42.0083 47.9619)"><tspan x="0" y="0" style="&st6; &st5;">9</tspan></text>
	</g>
	<g ewd:pinNo="10">
		<text transform="matrix(1 0 0 1 50.939 47.9619)"><tspan x="0" y="0" style="&st6; &st5;">10</tspan></text>
	</g>
</g>
<g id="レイヤー_1" transform="translate(85.997,17.008)">
	<path style="&st0;&st1;&st2;&st3;" d="M9,65.656h59.49"/>
	<path style="&st0;&st1;&st2;&st3;" d="M23.164,0.5h31.162"/>
	<path style="&st0;&st1;&st2;&st3;" d="M0.501,18.914v38.243"/>
	<path style="&st0;&st1;&st2;&st3;" d="M76.988,18.914v38.243"/>
	<path style="&st0;&st1;&st4;&st2;&st3;" d="M71.322,18.914v36.827"/>
	<path style="&st0;&st1;&st4;&st2;&st3;" d="M6.167,18.914v36.827"/>
	<path style="&st0;&st1;&st4;&st2;&st3;" d="M10.416,59.99h56.657"/>
	<path style="&st0;&st1;&st4;&st2;&st3;" d="M11.833,41.577h53.824"/>
	<path style="&st0;&st1;&st4;&st2;&st3;" d="M10.416,14.665h1.417"/>
	<path style="&st0;&st1;&st4;&st2;&st3;" d="M16.082,10.416V4.75"/>
	<path style="&st0;&st1;&st4;&st2;&st3;" d="M61.407,4.75v5.666"/>
	<path style="&st0;&st1;&st4;&st2;&st3;" d="M65.657,14.665h1.417"/>
	<path style="&st0;&st1;&st4;&st2;&st3;" d="M27.413,6.166h22.663"/>
	<path style="&st0;&st1;&st4;&st2;&st3;" d="M27.413,10.416h22.663"/>
	<path style="&st0;&st1;&st2;&st3;" d="M65.303,6.874h2.479"/>
	<path style="&st0;&st1;&st2;&st3;" d="M69.198,8.291v2.125"/>
	<path style="&st0;&st1;&st2;&st3;" d="M12.187,6.874H9.708"/>
	<path style="&st0;&st1;&st2;&st3;" d="M8.292,8.291v2.125"/>
	<path style="&st0;&st1;&st4;&st2;&st3;" d="M22.597,30.245v22.663"/>
	<path style="&st0;&st1;&st4;&st2;&st3;" d="M33.362,30.245v22.663"/>
	<path style="&st0;&st1;&st4;&st2;&st3;" d="M44.127,30.245v22.663"/>
	<path style="&st0;&st1;&st4;&st2;&st3;" d="M54.892,30.245v22.663"/>
	<path style="&st0;&st1;&st4;&st2;&st3;" d="M54.325,18.914h-4.249"/>
	<path style="&st0;&st1;&st4;&st2;&st3;" d="M55.742,7.583v9.915"/>
	<path style="&st0;&st1;&st4;&st2;&st3;" d="M59.991,6.166h-2.833"/>
	<path style="&st0;&st1;&st4;&st2;&st3;" d="M48.66,17.498v-2.833"/>
	<path style="&st0;&st1;&st4;&st2;&st3;" d="M23.164,18.914h4.25"/>
	<path style="&st0;&st1;&st4;&st2;&st3;" d="M21.748,7.583v9.915"/>
	<path style="&st0;&st1;&st4;&st2;&st3;" d="M17.498,6.166h2.833"/>
	<path style="&st0;&st1;&st4;&st2;&st3;" d="M28.83,17.498v-2.833"/>
	<path style="&st0;&st1;&st2;&st3;" d="M12.187,6.874V5.6"/>
	<path style="&st0;&st1;&st4;&st2;&st3;" d="M13.249,22.172v0.566"/>
	<path style="&st0;&st1;&st4;&st2;&st3;" d="M13.815,23.305h7.365"/>
	<path style="&st0;&st1;&st4;&st2;&st3;" d="M21.748,22.738v-0.566"/>
	<path style="&st0;&st1;&st4;&st2;&st3;" d="M21.181,21.605h-7.365"/>
	<path style="&st0;&st1;&st4;&st2;&st3;" d="M29.396,21.605h18.697"/>
	<path style="&st0;&st1;&st4;&st2;&st3;" d="M48.66,22.172v0.566"/>
	<path style="&st0;&st1;&st4;&st2;&st3;" d="M48.093,23.305H29.396"/>
	<path style="&st0;&st1;&st4;&st2;&st3;" d="M28.83,22.738v-0.566"/>
	<path style="&st0;&st1;&st4;&st2;&st3;" d="M56.308,21.605h7.366"/>
	<path style="&st0;&st1;&st4;&st2;&st3;" d="M64.24,22.172v0.566"/>
	<path style="&st0;&st1;&st4;&st2;&st3;" d="M63.674,23.305h-7.366"/>
	<path style="&st0;&st1;&st4;&st2;&st3;" d="M55.742,22.738v-0.566"/>
	<path style="&st0;&st1;&st4;&st2;&st3;" d="M8.716,31.662h0.566"/>
	<path style="&st0;&st1;&st4;&st2;&st3;" d="M10.133,32.512v6.799"/>
	<path style="&st0;&st1;&st4;&st2;&st3;" d="M9.283,40.16H8.716"/>
	<path style="&st0;&st1;&st4;&st2;&st3;" d="M7.866,39.311v-6.799"/>
	<path style="&st0;&st1;&st4;&st2;&st3;" d="M8.716,42.993h0.566"/>
	<path style="&st0;&st1;&st4;&st2;&st3;" d="M10.133,43.843v6.799"/>
	<path style="&st0;&st1;&st4;&st2;&st3;" d="M9.283,51.492H8.716"/>
	<path style="&st0;&st1;&st4;&st2;&st3;" d="M7.866,50.642v-6.799"/>
	<path style="&st0;&st1;&st4;&st2;&st3;" d="M68.207,42.993h0.566"/>
	<path style="&st0;&st1;&st4;&st2;&st3;" d="M69.623,43.843v6.799"/>
	<path style="&st0;&st1;&st4;&st2;&st3;" d="M68.773,51.492h-0.566"/>
	<path style="&st0;&st1;&st4;&st2;&st3;" d="M67.356,50.642v-6.799"/>
	<path style="&st0;&st1;&st4;&st2;&st3;" d="M68.207,31.662h0.566"/>
	<path style="&st0;&st1;&st4;&st2;&st3;" d="M69.623,32.512v6.799"/>
	<path style="&st0;&st1;&st4;&st2;&st3;" d="M68.773,40.16h-0.566"/>
	<path style="&st0;&st1;&st4;&st2;&st3;" d="M67.356,39.311v-6.799"/>
	<path style="&st0;&st1;&st4;&st2;&st3;" d="M30.671,55.033v2.833"/>
	<path style="&st0;&st1;&st4;&st2;&st3;" d="M31.237,58.432h15.014"/>
	<path style="&st0;&st1;&st4;&st2;&st3;" d="M46.818,57.866v-2.833"/>
	<path style="&st0;&st1;&st4;&st2;&st3;" d="M46.251,54.466H31.237"/>
	<path style="&st0;&st1;&st4;&st2;&st3;" d="M31.237,56.449h15.014"/>
	<path style="&st0;&st1;&st4;&st2;&st3;" d="M12.399,54.466h12.323"/>
	<path style="&st0;&st1;&st4;&st2;&st3;" d="M25.289,55.033v2.833"/>
	<path style="&st0;&st1;&st4;&st2;&st3;" d="M24.722,58.432H12.399"/>
	<path style="&st0;&st1;&st4;&st2;&st3;" d="M11.833,57.866v-2.833"/>
	<path style="&st0;&st1;&st4;&st2;&st3;" d="M52.767,54.466H65.09"/>
	<path style="&st0;&st1;&st4;&st2;&st3;" d="M65.657,55.033v2.833"/>
	<path style="&st0;&st1;&st4;&st2;&st3;" d="M65.09,58.432H52.767"/>
	<path style="&st0;&st1;&st4;&st2;&st3;" d="M52.201,57.866v-2.833"/>
	<path style="&st0;&st1;&st4;&st2;&st3;" d="M52.767,56.449H65.09"/>
	<path style="&st0;&st1;&st4;&st2;&st3;" d="M24.722,56.449H12.399"/>
	<path style="&st0;&st1;&st2;&st3;" d="M0.501,57.157c0,4.694,3.805,8.499,8.499,8.499"/>
	<path style="&st0;&st1;&st2;&st3;" d="M68.49,65.656c4.693,0,8.499-3.805,8.499-8.499"/>
	<path style="&st0;&st1;&st2;&st3;" d="M76.988,18.914c0-4.444-3.362-8.099-7.791-8.469"/>
	<path style="&st0;&st1;&st4;&st2;&st3;" d="M6.167,55.741c0,2.347,1.903,4.249,4.25,4.249"/>
	<path style="&st0;&st1;&st4;&st2;&st3;" d="M67.073,59.99c2.347,0,4.249-1.902,4.249-4.249"/>
	<path style="&st0;&st1;&st4;&st2;&st3;" d="M71.322,18.914c0-2.347-1.902-4.25-4.249-4.25"/>
	<path style="&st0;&st1;&st4;&st2;&st3;" d="M10.416,14.665c-2.347,0-4.25,1.902-4.25,4.25"/>
	<path style="&st0;&st1;&st4;&st2;&st3;" d="M54.325,18.914c0.782,0,1.417-0.635,1.417-1.417"/>
	<path style="&st0;&st1;&st4;&st2;&st3;" d="M21.748,17.498c0,0.782,0.634,1.417,1.416,1.417"/>
	<path style="&st0;&st1;&st4;&st2;&st3;" d="M48.66,17.498c0,0.782,0.634,1.417,1.417,1.417"/>
	<path style="&st0;&st1;&st4;&st2;&st3;" d="M27.413,18.914c0.782,0,1.417-0.635,1.417-1.417"/>
	<path style="&st0;&st1;&st4;&st2;&st3;" d="M57.158,6.166c-0.782,0-1.417,0.634-1.417,1.417"/>
	<path style="&st0;&st1;&st4;&st2;&st3;" d="M61.407,7.583c0-0.783-0.634-1.417-1.416-1.417"/>
	<path style="&st0;&st1;&st4;&st2;&st3;" d="M21.748,7.583c0-0.783-0.634-1.417-1.417-1.417"/>
	<path style="&st0;&st1;&st4;&st2;&st3;" d="M17.498,6.166c-0.782,0-1.417,0.634-1.417,1.417"/>
	<path style="&st0;&st1;&st2;&st3;" d="M55.742,1.917c0-0.782-0.634-1.417-1.417-1.417"/>
	<path style="&st0;&st1;&st2;&st3;" d="M23.164,0.5c-0.782,0-1.416,0.634-1.416,1.417"/>
	<path style="&st0;&st1;&st4;&st2;&st3;" d="M62.824,3.333c-0.782,0-1.417,0.634-1.417,1.417"/>
	<path style="&st0;&st1;&st4;&st2;&st3;" d="M16.082,4.75c0-0.782-0.634-1.417-1.417-1.417"/>
	<path style="&st0;&st1;&st4;&st2;&st3;" d="M61.407,10.416c0,2.346,1.903,4.249,4.25,4.249"/>
	<path style="&st0;&st1;&st4;&st2;&st3;" d="M11.833,14.665c2.347,0,4.249-1.903,4.249-4.249"/>
	<path style="&st0;&st1;&st2;&st3;" d="M65.303,5.6c0-1.252-1.015-2.267-2.267-2.267"/>
	<path style="&st0;&st1;&st2;&st3;" d="M14.453,3.333c-1.251,0-2.266,1.015-2.266,2.267"/>
	<path style="&st0;&st1;&st2;&st3;" d="M9.708,6.874c-0.782,0-1.416,0.634-1.416,1.417"/>
	<path style="&st0;&st1;&st2;&st3;" d="M69.198,8.291c0-0.782-0.634-1.417-1.417-1.417"/>
	<path style="&st0;&st1;&st4;&st2;&st3;" d="M51.492,3.333c-0.782,0-1.416,0.634-1.416,1.417"/>
	<path style="&st0;&st1;&st4;&st2;&st3;" d="M27.413,4.75c0-0.782-0.634-1.417-1.417-1.417"/>
	<path style="&st0;&st1;&st2;&st3;" d="M8.292,10.443C3.862,10.814,0.5,14.469,0.5,18.914"/>
	<path style="&st0;&st1;&st4;&st2;&st3;" d="M13.815,21.605c-0.313,0-0.566,0.253-0.566,0.567"/>
	<path style="&st0;&st1;&st4;&st2;&st3;" d="M13.249,22.738c0,0.313,0.253,0.566,0.566,0.566"/>
	<path style="&st0;&st1;&st4;&st2;&st3;" d="M21.748,22.172c0-0.313-0.254-0.567-0.567-0.567"/>
	<path style="&st0;&st1;&st4;&st2;&st3;" d="M21.181,23.305c0.313,0,0.567-0.254,0.567-0.566"/>
	<path style="&st0;&st1;&st4;&st2;&st3;" d="M29.396,21.605c-0.313,0-0.566,0.253-0.566,0.567"/>
	<path style="&st0;&st1;&st4;&st2;&st3;" d="M28.83,22.738c0,0.313,0.253,0.566,0.566,0.566"/>
	<path style="&st0;&st1;&st4;&st2;&st3;" d="M48.66,22.172c0-0.313-0.254-0.567-0.567-0.567"/>
	<path style="&st0;&st1;&st4;&st2;&st3;" d="M48.093,23.305c0.313,0,0.567-0.254,0.567-0.566"/>
	<path style="&st0;&st1;&st4;&st2;&st3;" d="M56.308,21.605c-0.313,0-0.566,0.253-0.566,0.567"/>
	<path style="&st0;&st1;&st4;&st2;&st3;" d="M55.742,22.738c0,0.313,0.253,0.566,0.566,0.566"/>
	<path style="&st0;&st1;&st4;&st2;&st3;" d="M64.24,22.172c0-0.313-0.253-0.567-0.566-0.567"/>
	<path style="&st0;&st1;&st4;&st2;&st3;" d="M63.674,23.305c0.313,0,0.566-0.254,0.566-0.566"/>
	<path style="&st0;&st1;&st4;&st2;&st3;" d="M8.716,31.662c-0.47,0-0.85,0.38-0.85,0.85"/>
	<path style="&st0;&st1;&st4;&st2;&st3;" d="M10.133,32.512c0-0.47-0.381-0.85-0.85-0.85"/>
	<path style="&st0;&st1;&st4;&st2;&st3;" d="M7.866,39.311c0,0.469,0.38,0.85,0.85,0.85"/>
	<path style="&st0;&st1;&st4;&st2;&st3;" d="M9.283,40.16c0.469,0,0.85-0.38,0.85-0.85"/>
	<path style="&st0;&st1;&st4;&st2;&st3;" d="M8.716,42.993c-0.47,0-0.85,0.38-0.85,0.85"/>
	<path style="&st0;&st1;&st4;&st2;&st3;" d="M10.133,43.843c0-0.469-0.381-0.85-0.85-0.85"/>
	<path style="&st0;&st1;&st4;&st2;&st3;" d="M7.866,50.642c0,0.47,0.38,0.85,0.85,0.85"/>
	<path style="&st0;&st1;&st4;&st2;&st3;" d="M9.283,51.492c0.469,0,0.85-0.38,0.85-0.85"/>
	<path style="&st0;&st1;&st4;&st2;&st3;" d="M68.207,31.662c-0.47,0-0.85,0.38-0.85,0.85"/>
	<path style="&st0;&st1;&st4;&st2;&st3;" d="M69.623,32.512c0-0.47-0.38-0.85-0.85-0.85"/>
	<path style="&st0;&st1;&st4;&st2;&st3;" d="M67.356,39.311c0,0.469,0.38,0.85,0.85,0.85"/>
	<path style="&st0;&st1;&st4;&st2;&st3;" d="M68.773,40.16c0.469,0,0.85-0.38,0.85-0.85"/>
	<path style="&st0;&st1;&st4;&st2;&st3;" d="M68.207,42.993c-0.47,0-0.85,0.38-0.85,0.85"/>
	<path style="&st0;&st1;&st4;&st2;&st3;" d="M69.623,43.843c0-0.469-0.38-0.85-0.85-0.85"/>
	<path style="&st0;&st1;&st4;&st2;&st3;" d="M67.356,50.642c0,0.47,0.38,0.85,0.85,0.85"/>
	<path style="&st0;&st1;&st4;&st2;&st3;" d="M68.773,51.492c0.469,0,0.85-0.38,0.85-0.85"/>
	<path style="&st0;&st1;&st4;&st2;&st3;" d="M30.671,55.883c0,0.313,0.253,0.566,0.566,0.566"/>
	<path style="&st0;&st1;&st4;&st2;&st3;" d="M46.251,56.449c0.313,0,0.567-0.254,0.567-0.566"/>
	<path style="&st0;&st1;&st4;&st2;&st3;" d="M31.237,54.466c-0.313,0-0.566,0.253-0.566,0.566"/>
	<path style="&st0;&st1;&st4;&st2;&st3;" d="M46.818,55.033c0-0.313-0.254-0.566-0.567-0.566"/>
	<path style="&st0;&st1;&st4;&st2;&st3;" d="M46.251,58.432c0.313,0,0.567-0.253,0.567-0.566"/>
	<path style="&st0;&st1;&st4;&st2;&st3;" d="M30.671,57.866c0,0.313,0.253,0.566,0.566,0.566"/>
	<path style="&st0;&st1;&st4;&st2;&st3;" d="M12.399,54.466c-0.313,0-0.566,0.253-0.566,0.566"/>
	<path style="&st0;&st1;&st4;&st2;&st3;" d="M25.289,55.033c0-0.313-0.254-0.566-0.567-0.566"/>
	<path style="&st0;&st1;&st4;&st2;&st3;" d="M24.722,56.449c0.313,0,0.567-0.254,0.567-0.566"/>
	<path style="&st0;&st1;&st4;&st2;&st3;" d="M11.833,55.883c0,0.313,0.253,0.566,0.566,0.566"/>
	<path style="&st0;&st1;&st4;&st2;&st3;" d="M11.833,57.866c0,0.313,0.253,0.566,0.566,0.566"/>
	<path style="&st0;&st1;&st4;&st2;&st3;" d="M52.201,57.866c0,0.313,0.253,0.566,0.566,0.566"/>
	<path style="&st0;&st1;&st4;&st2;&st3;" d="M65.09,58.432c0.313,0,0.566-0.253,0.566-0.566"/>
	<path style="&st0;&st1;&st4;&st2;&st3;" d="M65.657,55.033c0-0.313-0.254-0.566-0.566-0.566"/>
	<path style="&st0;&st1;&st4;&st2;&st3;" d="M52.767,54.466c-0.313,0-0.566,0.253-0.566,0.566"/>
	<path style="&st0;&st1;&st4;&st2;&st3;" d="M52.201,55.883c0,0.313,0.253,0.566,0.566,0.566"/>
	<path style="&st0;&st1;&st4;&st2;&st3;" d="M65.09,56.449c0.313,0,0.566-0.254,0.566-0.566"/>
	<path style="&st0;&st1;&st4;&st2;&st3;" d="M24.722,58.432c0.313,0,0.567-0.253,0.567-0.566"/>
	<path style="&st0;&st1;&st4;&st2;&st3;" d="M25.997,3.333h-4.249"/>
	<path style="&st0;&st1;&st4;&st2;&st3;" d="M55.742,3.333h-4.25"/>
	<path style="&st0;&st1;&st2;&st3;" d="M65.303,6.874V5.6"/>
	<path style="&st0;&st1;&st4;&st2;&st3;" d="M8.292,10.416h3.895V6.874"/>
	<path style="&st0;&st1;&st4;&st2;&st3;" d="M69.198,10.416h-3.895V6.874"/>
	<path style="&st0;&st1;&st4;&st2;&st3;" d="M65.657,30.245H11.833v22.663h53.824V30.245"/>
	<path style="&st0;&st1;&st4;&st2;&st3;" d="M27.413,4.75v9.915h22.663V4.75"/>
	<path style="&st0;&st1;&st2;&st3;" d="M14.453,3.333h7.295V1.917"/>
	<path style="&st0;&st1;&st2;&st3;" d="M55.742,1.917v1.417h7.294"/>
	<path style="&st0;&st1;&st4;&st2;&st3;" d="M34.495,10.416v2.125h8.499v-2.125"/>
	<path style="&st0;&st1;&st4;&st2;&st3;" d="M35.912,10.416V8.291h5.666v2.125"/>
	<g ewd:pinNo="5">
		<text transform="matrix(1 0 0 1 15.5137 38.2153)"><tspan x="0" y="0" style="&st6; &st5;">5</tspan></text>
	</g>
	<g ewd:pinNo="4">
		<text transform="matrix(1 0 0 1 26.2783 38.2153)"><tspan x="0" y="0" style="&st6; &st5;">4</tspan></text>
	</g>
	<g ewd:pinNo="3">
		<text transform="matrix(1 0 0 1 37.043 38.2153)"><tspan x="0" y="0" style="&st6; &st5;">3</tspan></text>
	</g>
	<g ewd:pinNo="2">
		<text transform="matrix(1 0 0 1 47.8081 38.2153)"><tspan x="0" y="0" style="&st6; &st5;">2</tspan></text>
	</g>
	<g ewd:pinNo="1">
		<text transform="matrix(1 0 0 1 58.5728 38.2153)"><tspan x="0" y="0" style="&st6; &st5;">1</tspan></text>
	</g>
	<g ewd:pinNo="10">
		<text transform="matrix(1 0 0 1 13.6763 49.5464)"><tspan x="0" y="0" style="&st6; &st5;">10</tspan></text>
	</g>
	<g ewd:pinNo="9">
		<text transform="matrix(1 0 0 1 26.2783 49.5464)"><tspan x="0" y="0" style="&st6; &st5;">9</tspan></text>
	</g>
	<g ewd:pinNo="8">
		<text transform="matrix(1 0 0 1 37.043 49.5464)"><tspan x="0" y="0" style="&st6; &st5;">8</tspan></text>
	</g>
	<g ewd:pinNo="7">
		<text transform="matrix(1 0 0 1 47.8081 49.5464)"><tspan x="0" y="0" style="&st6; &st5;">7</tspan></text>
	</g>
	<g ewd:pinNo="6">
		<text transform="matrix(1 0 0 1 58.5728 49.5464)"><tspan x="0" y="0" style="&st6; &st5;">6</tspan></text>
	</g>
</g>
<path d="M33.078,9.069v-8.504h91.663v8.504" style="&st0;&st1;&st7;&st2;&st3;"/>
</svg>