﻿<?xml version="1.0"?>
<!-- Generator: Adobe Illustrator 10.0, SVG Export Plug-In . SVG Version: 3.0.0 Build 77)  -->
<!DOCTYPE svg PUBLIC "-//W3C//DTD SVG 1.0//EN" "http://www.w3.org/TR/2001/REC-SVG-20010904/DTD/svg10.dtd"[
	<!ENTITY ns_flows "http://ns.adobe.com/Flows/1.0/">
	<!ENTITY ns_svg "http://www.w3.org/2000/svg">
	<!ENTITY ns_xlink "http://www.w3.org/1999/xlink">
	<!ENTITY st0 "fill:none;">
	<!ENTITY st1 "stroke:#000000;">
	<!ENTITY st2 "stroke-linecap:round;">
	<!ENTITY st3 "stroke-linejoin:round;">
	<!ENTITY st4 "stroke-width:0.6;">
	<!ENTITY st5 "font-size:6px;">
	<!ENTITY st6 "font-family:'Arial';">
	<!ENTITY st7 "stroke-width:1.4;">
	<!ATTLIST svg
		ewd:ver CDATA #IMPLIED
		xmlns:ewd CDATA #FIXED "http://shcl.co.jp/ewd"
		xmlns:a CDATA #FIXED "http://ns.adobe.com/AdobeSVGViewerExtensions/3.0/">
	<!ATTLIST g
		ewd:pinNo CDATA #IMPLIED>
]>
<svg width="179.919" height="81.745" viewBox="0 0 179.919 81.745" style="overflow:visible;enable-background:new 0 0 74.092 51.992" xml:space="preserve" onload="call_execInitLoadProc_svg('connector')" ewd:ver="L2.1.2.7" xmlns="&ns_svg;" xmlns:ewd="http://shcl.co.jp/ewd" xmlns:a="http://ns.adobe.com/AdobeSVGViewerExtensions/3.0/" xmlns:xlink="&ns_xlink;">
<script type="text/javascript" xlink:href="../../../../../system/js/ewd/fig/svgfig.js"/>
<g id="レイヤー_1" transform="translate(0,17.008)">
	<path style="&st0;&st1;&st2;&st3;" d="M4.751,44.41c0,0.782,0.634,1.417,1.417,1.417"/>
	<path style="&st0;&st1;&st2;&st3;" d="M67.924,45.826c0.782,0,1.417-0.634,1.417-1.417"/>
	<path style="&st0;&st1;&st2;&st3;" d="M6.167,2.2c-0.782,0-1.417,0.634-1.417,1.417"/>
	<path style="&st0;&st1;&st2;&st3;" d="M69.34,3.616c0-0.782-0.634-1.417-1.417-1.417"/>
	<path style="&st0;&st1;&st2;&st3;" d="M28.122,21.747c0.782,0,1.417-0.634,1.417-1.417"/>
	<path style="&st0;&st1;&st2;&st3;" d="M44.553,20.33c0,0.782,0.634,1.417,1.417,1.417"/>
	<path style="&st0;&st1;&st2;&st3;" d="M22.881,20.896c0,0.47,0.381,0.85,0.85,0.85"/>
	<path style="&st0;&st1;&st2;&st3;" d="M50.36,21.747c0.469,0,0.85-0.38,0.85-0.85"/>
	<path style="&st0;&st1;&st2;&st3;" d="M24.298,6.798c0,0.857,0.436,1.587,1.19,1.994"/>
	<path style="&st0;&st1;&st2;&st3;" d="M48.604,8.792c0.754-0.407,1.189-1.137,1.189-1.994"/>
	<path style="&st0;&st1;&st2;&st3;" d="M25.714,0.5c-0.782,0-1.417,0.634-1.417,1.417"/>
	<path style="&st0;&st1;&st2;&st3;" d="M49.793,1.917c0-0.782-0.634-1.417-1.417-1.417"/>
	<path style="&st0;&st1;&st2;&st3;" d="M12.966,3.616c0-0.782-0.634-1.417-1.416-1.417"/>
	<path style="&st0;&st1;&st2;&st3;" d="M62.542,2.2c-0.782,0-1.417,0.634-1.417,1.417"/>
	<path style="&st0;&st1;&st4;&st2;&st3;" d="M6.156,11.296c-0.896,0.523-1.403,1.408-1.403,2.445"/>
	<path style="&st0;&st1;&st4;&st2;&st3;" d="M69.34,13.741c0-1.038-0.508-1.923-1.404-2.446"/>
	<path style="&st0;&st1;&st4;&st2;&st3;" d="M12.162,8.149c-0.421,0-0.778,0.097-1.142,0.309"/>
	<path style="&st0;&st1;&st4;&st2;&st3;" d="M63.071,8.458c-0.363-0.212-0.721-0.308-1.142-0.308"/>
	<path style="&st0;&st1;&st4;&st2;&st3;" d="M12.468,9.565c-0.568,0-1.052,0.18-1.482,0.552"/>
	<path style="&st0;&st1;&st4;&st2;&st3;" d="M22.881,8.716c0-0.313-0.253-0.567-0.566-0.567"/>
	<path style="&st0;&st1;&st4;&st2;&st3;" d="M51.777,8.149c-0.313,0-0.567,0.253-0.567,0.567"/>
	<path style="&st0;&st1;&st2;&st3;" d="M59.731,4.109c-0.402-1.167-1.445-1.911-2.68-1.911"/>
	<path style="&st0;&st1;&st2;&st3;" d="M21.723,3.288c-0.154-0.646-0.711-1.086-1.376-1.086"/>
	<path style="&st0;&st1;&st2;&st3;" d="M53.746,2.2c-0.666,0-1.223,0.44-1.378,1.088"/>
	<path style="&st0;&st1;&st2;&st3;" d="M22.881,8.48c0-0.232-0.023-0.429-0.077-0.654"/>
	<path style="&st0;&st1;&st2;&st3;" d="M51.287,7.826C51.233,8.052,51.21,8.248,51.21,8.48"/>
	<path style="&st0;&st1;&st4;&st2;&st3;" d="M8.717,20.194c0-0.612-0.365-1.128-0.941-1.334"/>
	<path style="&st0;&st1;&st4;&st2;&st3;" d="M7.776,33.698c0.576-0.205,0.941-0.722,0.941-1.334"/>
	<path style="&st0;&st1;&st4;&st2;&st3;" d="M65.375,32.364c0,0.611,0.364,1.128,0.94,1.334"/>
	<path style="&st0;&st1;&st4;&st2;&st3;" d="M66.315,18.863c-0.575,0.206-0.938,0.721-0.938,1.332"/>
	<path style="&st0;&st1;&st2;&st3;" d="M1.686,21.124C0.994,21.238,0.5,21.821,0.5,22.523"/>
	<path style="&st0;&st1;&st2;&st3;" d="M0.502,24.37c0,0.7,0.494,1.282,1.184,1.397"/>
	<path style="&st0;&st1;&st2;&st3;" d="M72.406,25.77c0.692-0.115,1.186-0.698,1.186-1.399"/>
	<path style="&st0;&st1;&st2;&st3;" d="M73.59,22.523c0-0.701-0.494-1.283-1.185-1.397"/>
	<path style="&st0;&st1;&st4;&st2;&st3;" d="M10.417,40.16C9.635,40.16,9,40.794,9,41.577"/>
	<path style="&st0;&st1;&st4;&st2;&st3;" d="M9,41.577c0,0.782,0.634,1.417,1.417,1.417"/>
	<path style="&st0;&st1;&st4;&st2;&st3;" d="M63.675,42.993c0.782,0,1.417-0.634,1.417-1.417"/>
	<path style="&st0;&st1;&st4;&st2;&st3;" d="M65.091,41.577c0-0.782-0.634-1.417-1.417-1.417"/>
	<path style="&st0;&st1;&st4;&st2;&st3;" d="M23.165,42.993c0.782,0,1.417-0.634,1.417-1.417"/>
	<path style="&st0;&st1;&st4;&st2;&st3;" d="M24.581,41.577c0-0.782-0.634-1.417-1.417-1.417"/>
	<path style="&st0;&st1;&st4;&st2;&st3;" d="M50.927,40.16c-0.782,0-1.417,0.634-1.417,1.417"/>
	<path style="&st0;&st1;&st4;&st2;&st3;" d="M49.51,41.577c0,0.782,0.634,1.417,1.417,1.417"/>
	<path style="&st0;&st1;&st4;&st2;&st3;" d="M28.122,40.16c-0.782,0-1.416,0.634-1.416,1.417"/>
	<path style="&st0;&st1;&st4;&st2;&st3;" d="M26.706,41.577c0,0.782,0.634,1.417,1.416,1.417"/>
	<path style="&st0;&st1;&st4;&st2;&st3;" d="M45.969,42.993c0.782,0,1.417-0.634,1.417-1.417"/>
	<path style="&st0;&st1;&st4;&st2;&st3;" d="M47.386,41.577c0-0.782-0.634-1.417-1.417-1.417"/>
	<path style="&st0;&st1;&st2;&st3;" d="M17.032,2.2c-1.281,0-2.359,0.808-2.719,2.037"/>
	<path style="&st0;&st1;&st4;&st2;&st3;" d="M7.573,12.109c-0.897,0.523-1.406,1.409-1.406,2.447"/>
	<path style="&st0;&st1;&st4;&st2;&st3;" d="M21.465,10.132c0-0.313-0.253-0.566-0.566-0.566"/>
	<path style="&st0;&st1;&st4;&st2;&st3;" d="M6.167,43.843c0,0.313,0.254,0.567,0.567,0.567"/>
	<path style="&st0;&st1;&st4;&st2;&st3;" d="M67.357,44.41c0.313,0,0.566-0.254,0.566-0.567"/>
	<path style="&st0;&st1;&st4;&st2;&st3;" d="M53.193,9.565c-0.313,0-0.566,0.254-0.566,0.566"/>
	<path style="&st0;&st1;&st4;&st2;&st3;" d="M62.689,9.874c-0.363-0.212-0.721-0.309-1.142-0.309"/>
	<path style="&st0;&st1;&st4;&st2;&st3;" d="M67.924,14.557c0-1.038-0.508-1.923-1.405-2.447"/>
	<path style="&st0;&st1;&st2;&st3;" d="M25.714,0.5h22.663"/>
	<path style="&st0;&st1;&st2;&st3;" d="M4.751,26.279v18.13"/>
	<path style="&st0;&st1;&st2;&st3;" d="M69.34,26.279v18.13"/>
	<path style="&st0;&st1;&st4;&st2;&st3;" d="M10.417,45.826v2.833"/>
	<path style="&st0;&st1;&st4;&st2;&st3;" d="M12.4,45.826v2.833"/>
	<path style="&st0;&st1;&st4;&st2;&st3;" d="M63.675,45.826v2.833"/>
	<path style="&st0;&st1;&st4;&st2;&st3;" d="M61.692,45.826v2.833"/>
	<path style="&st0;&st1;&st4;&st2;&st3;" d="M19.482,45.826v2.833"/>
	<path style="&st0;&st1;&st4;&st2;&st3;" d="M54.609,45.826v2.833"/>
	<path style="&st0;&st1;&st4;&st2;&st3;" d="M8.717,20.194v12.17"/>
	<path style="&st0;&st1;&st4;&st2;&st3;" d="M65.375,20.194v12.17"/>
	<path style="&st0;&st1;&st2;&st3;" d="M62.542,2.2h5.382"/>
	<path style="&st0;&st1;&st2;&st3;" d="M22.881,8.48v12.416"/>
	<path style="&st0;&st1;&st2;&st3;" d="M51.21,8.48v12.416"/>
	<path style="&st0;&st1;&st4;&st2;&st3;" d="M50.36,21.747h2.266"/>
	<path style="&st0;&st1;&st2;&st3;" d="M29.539,10.982v9.348"/>
	<path style="&st0;&st1;&st2;&st3;" d="M44.553,10.982v9.348"/>
	<path style="&st0;&st1;&st2;&st3;" d="M23.731,21.747h4.391"/>
	<path style="&st0;&st1;&st2;&st3;" d="M24.298,1.917v4.881"/>
	<path style="&st0;&st1;&st2;&st3;" d="M49.793,1.917v4.881"/>
	<path style="&st0;&st1;&st2;&st3;" d="M25.488,8.792l4.051,2.19"/>
	<path style="&st0;&st1;&st2;&st3;" d="M44.553,10.982l4.051-2.19"/>
	<path style="&st0;&st1;&st2;&st3;" d="M12.966,3.616v4.533"/>
	<path style="&st0;&st1;&st2;&st3;" d="M61.125,3.616v4.533"/>
	<path style="&st0;&st1;&st2;&st3;" d="M6.167,2.2h5.383"/>
	<path style="&st0;&st1;&st2;&st3;" d="M53.746,2.2h3.306"/>
	<path style="&st0;&st1;&st4;&st2;&st3;" d="M11.021,8.458l-4.864,2.838"/>
	<path style="&st0;&st1;&st4;&st2;&st3;" d="M63.071,8.458l4.864,2.838"/>
	<path style="&st0;&st1;&st4;&st2;&st3;" d="M12.162,8.149h10.153"/>
	<path style="&st0;&st1;&st4;&st2;&st3;" d="M51.777,8.149H61.93"/>
	<path style="&st0;&st1;&st4;&st2;&st3;" d="M12.468,9.565h8.431"/>
	<path style="&st0;&st1;&st2;&st3;" d="M17.032,2.2h3.314"/>
	<path style="&st0;&st1;&st2;&st3;" d="M21.723,3.288l1.083,4.539"/>
	<path style="&st0;&st1;&st2;&st3;" d="M52.369,3.288l-1.082,4.539"/>
	<path style="&st0;&st1;&st2;&st3;" d="M59.731,4.109l1.394,4.04"/>
	<path style="&st0;&st1;&st4;&st2;&st3;" d="M4.751,17.781l3.025,1.079"/>
	<path style="&st0;&st1;&st4;&st2;&st3;" d="M4.751,34.778l3.025-1.08"/>
	<path style="&st0;&st1;&st4;&st2;&st3;" d="M69.34,34.778l-3.025-1.08"/>
	<path style="&st0;&st1;&st4;&st2;&st3;" d="M66.315,18.86l3.025-1.079"/>
	<path style="&st0;&st1;&st4;&st2;&st3;" d="M41.153,6.449h3.399"/>
	<path style="&st0;&st1;&st4;&st2;&st3;" d="M29.539,6.449h3.399"/>
	<path style="&st0;&st1;&st2;&st3;" d="M4.751,20.613l-3.065,0.51"/>
	<path style="&st0;&st1;&st2;&st3;" d="M0.502,22.523v1.847"/>
	<path style="&st0;&st1;&st2;&st3;" d="M1.686,25.77l3.065,0.51"/>
	<path style="&st0;&st1;&st2;&st3;" d="M69.34,26.279l3.065-0.51"/>
	<path style="&st0;&st1;&st2;&st3;" d="M73.59,24.37v-1.847"/>
	<path style="&st0;&st1;&st2;&st3;" d="M69.34,20.613l3.065,0.51"/>
	<path style="&st0;&st1;&st4;&st2;&st3;" d="M33.505,45.826v1.416h7.082v-1.416"/>
	<path style="&st0;&st1;&st4;&st2;&st3;" d="M50.927,42.993h12.748"/>
	<path style="&st0;&st1;&st4;&st2;&st3;" d="M50.927,40.16h12.748"/>
	<path style="&st0;&st1;&st4;&st2;&st3;" d="M10.417,40.16h12.748"/>
	<path style="&st0;&st1;&st4;&st2;&st3;" d="M28.122,40.16h17.847"/>
	<path style="&st0;&st1;&st4;&st2;&st3;" d="M10.417,42.993h12.748"/>
	<path style="&st0;&st1;&st4;&st2;&st3;" d="M28.122,42.993h17.847"/>
	<path style="&st0;&st1;&st4;&st2;&st3;" d="M9.85,26.846h54.391"/>
	<path style="&st0;&st1;&st4;&st2;&st3;" d="M31.38,26.846V38.46"/>
	<path style="&st0;&st1;&st4;&st2;&st3;" d="M42.145,26.857V38.46"/>
	<path style="&st0;&st1;&st4;&st2;&st3;" d="M18.065,48.659h37.96"/>
	<path style="&st0;&st1;&st4;&st2;&st3;" d="M7.584,45.826h58.923"/>
	<path style="&st0;&st1;&st4;&st2;&st3;" d="M4.751,20.613v5.666"/>
	<path style="&st0;&st1;&st2;&st3;" d="M4.751,3.616v16.997"/>
	<path style="&st0;&st1;&st2;&st3;" d="M69.34,3.616v16.997"/>
	<path style="&st0;&st1;&st4;&st2;&st3;" d="M69.34,20.613v5.666"/>
	<path style="&st0;&st1;&st2;&st3;" d="M45.969,21.747h4.391"/>
	<path style="&st0;&st1;&st4;&st2;&st3;" d="M21.465,21.747h2.267"/>
	<path style="&st0;&st1;&st4;&st2;&st3;" d="M29.539,6.449v4.533"/>
	<path style="&st0;&st1;&st4;&st2;&st3;" d="M44.553,6.449v4.533"/>
	<path style="&st0;&st1;&st2;&st3;" d="M12.966,8.149l1.388-4.051"/>
	<path style="&st0;&st1;&st4;&st2;&st3;" d="M32.938,6.449h-1.133"/>
	<path style="&st0;&st1;&st4;&st2;&st3;" d="M20.332,38.46l-0.006-23.229H9.85V38.46h54.391V15.231H53.76V38.46"/>
	<path style="&st0;&st1;&st2;&st3;" d="M6.167,45.826h1.417v2.833h10.481l7.649,2.833h22.663l7.649-2.833h10.481v-2.833h1.417"/>
	<path style="&st0;&st1;&st4;&st2;&st3;" d="M29.539,9.282h15.014"/>
	<path style="&st0;&st1;&st4;&st2;&st3;" d="M31.521,6.449V2.767H42.57v3.683"/>
	<path style="&st0;&st1;&st4;&st2;&st3;" d="M41.153,7.583h-8.215V3.899h8.215V7.583"/>
	<path style="&st0;&st1;&st4;&st2;&st3;" d="M6.167,14.557v3.629"/>
	<path style="&st0;&st1;&st4;&st2;&st3;" d="M6.167,34.373v9.47"/>
	<path style="&st0;&st1;&st4;&st2;&st3;" d="M67.924,34.373v9.47"/>
	<path style="&st0;&st1;&st4;&st2;&st3;" d="M21.465,10.132v11.615"/>
	<path style="&st0;&st1;&st4;&st2;&st3;" d="M52.626,10.132v11.615"/>
	<path style="&st0;&st1;&st4;&st2;&st3;" d="M11.471,9.834l-3.898,2.275"/>
	<path style="&st0;&st1;&st4;&st2;&st3;" d="M6.734,44.41h60.623"/>
	<path style="&st0;&st1;&st4;&st2;&st3;" d="M53.193,9.565h8.354"/>
	<path style="&st0;&st1;&st4;&st2;&st3;" d="M62.689,9.874l3.83,2.235"/>
	<path style="&st0;&st1;&st4;&st2;&st3;" d="M67.924,14.557v3.629"/>
	<path style="&st0;&st1;&st4;&st2;&st3;" d="M42.287,6.449h-1.133"/>
	<g ewd:pinNo="2">
		<text transform="matrix(1 0 0 1 57.0742 23.1362)"><tspan x="0" y="0" style="&st6; &st5;">2</tspan></text>
	</g>
	<g ewd:pinNo="1">
		<text transform="matrix(1 0 0 1 13.4478 23.1362)"><tspan x="0" y="0" style="&st6; &st5;">1</tspan></text>
	</g>
	<g ewd:pinNo="3">
		<text transform="matrix(1 0 0 1 13.4478 34.751)"><tspan x="0" y="0" style="&st6; &st5;">3</tspan></text>
	</g>
	<g ewd:pinNo="4">
		<text transform="matrix(1 0 0 1 24.2129 34.751)"><tspan x="0" y="0" style="&st6; &st5;">4</tspan></text>
	</g>
	<g ewd:pinNo="5">
		<text transform="matrix(1 0 0 1 34.9775 34.751)"><tspan x="0" y="0" style="&st6; &st5;">5</tspan></text>
	</g>
	<g ewd:pinNo="6">
		<text transform="matrix(1 0 0 1 46.0259 34.751)"><tspan x="0" y="0" style="&st6; &st5;">6</tspan></text>
	</g>
	<g ewd:pinNo="7">
		<text transform="matrix(1 0 0 1 57.0742 34.751)"><tspan x="0" y="0" style="&st6; &st5;">7</tspan></text>
	</g>
</g>
<g id="レイヤー_1" transform="translate(93.933,17.008)">
	<path style="&st0;&st1;&st2;&st3;" d="M13.248,64.239h59.49"/>
	<path style="&st0;&st1;&st2;&st3;" d="M85.486,41.293v-9.915"/>
	<path style="&st0;&st1;&st2;&st3;" d="M81.236,55.741V45.543"/>
	<path style="&st0;&st1;&st4;&st2;&st3;" d="M14.664,9.565h56.657"/>
	<path style="&st0;&st1;&st4;&st2;&st3;" d="M10.981,14.665h7.649"/>
	<path style="&st0;&st1;&st4;&st2;&st3;" d="M10.981,59.141h16.147"/>
	<path style="&st0;&st1;&st4;&st2;&st3;" d="M9.848,60.273h66.289"/>
	<path style="&st0;&st1;&st4;&st2;&st3;" d="M9.848,13.531h9.915"/>
	<path style="&st0;&st1;&st4;&st2;&st3;" d="M75.571,15.231v43.342"/>
	<path style="&st0;&st1;&st4;&st2;&st3;" d="M10.415,15.231v43.342"/>
	<path style="&st0;&st1;&st4;&st2;&st3;" d="M9.282,14.098v17.706"/>
	<path style="&st0;&st1;&st4;&st2;&st3;" d="M76.704,14.098v17.706"/>
	<path style="&st0;&st1;&st4;&st2;&st3;" d="M5.882,34.07v4.532"/>
	<path style="&st0;&st1;&st4;&st2;&st3;" d="M80.104,38.602V34.07"/>
	<path style="&st0;&st1;&st4;&st2;&st3;" d="M9.282,40.869v18.838"/>
	<path style="&st0;&st1;&st4;&st2;&st3;" d="M4.749,32.937v6.799"/>
	<path style="&st0;&st1;&st4;&st2;&st3;" d="M76.704,40.869v18.838"/>
	<path style="&st0;&st1;&st2;&st3;" d="M81.236,27.129V19.48"/>
	<path style="&st0;&st1;&st4;&st2;&st3;" d="M81.236,39.735v-6.799"/>
	<path style="&st0;&st1;&st4;&st2;&st3;" d="M20.33,14.098v5.1"/>
	<path style="&st0;&st1;&st4;&st2;&st3;" d="M65.656,14.098v5.1"/>
	<path style="&st0;&st1;&st4;&st2;&st3;" d="M19.197,15.231v5.099"/>
	<path style="&st0;&st1;&st4;&st2;&st3;" d="M66.789,15.231v5.099"/>
	<path style="&st0;&st1;&st4;&st2;&st3;" d="M67.355,14.665h7.648"/>
	<path style="&st0;&st1;&st4;&st2;&st3;" d="M23.729,13.531h38.527"/>
	<path style="&st0;&st1;&st4;&st2;&st3;" d="M66.222,13.531h9.915"/>
	<path style="&st0;&st1;&st4;&st2;&st3;" d="M58.715,20.33v11.756"/>
	<path style="&st0;&st1;&st4;&st2;&st3;" d="M27.271,20.33v11.756"/>
	<path style="&st0;&st1;&st4;&st2;&st3;" d="M24.438,1.917v4.816"/>
	<path style="&st0;&st1;&st4;&st2;&st3;" d="M61.548,1.917v4.816"/>
	<path style="&st0;&st1;&st2;&st3;" d="M14.607,4.75v4.816"/>
	<path style="&st0;&st1;&st2;&st3;" d="M71.378,4.75v4.909"/>
	<path style="&st0;&st1;&st4;&st2;&st3;" d="M23.729,13.814v6.516"/>
	<path style="&st0;&st1;&st4;&st2;&st3;" d="M62.256,13.814v6.516"/>
	<path style="&st0;&st1;&st4;&st2;&st3;" d="M52.766,20.33v11.756"/>
	<path style="&st0;&st1;&st4;&st2;&st3;" d="M33.219,20.33v11.756"/>
	<path style="&st0;&st1;&st4;&st2;&st3;" d="M36.052,33.361h13.881"/>
	<path style="&st0;&st1;&st4;&st2;&st3;" d="M36.052,36.761h13.881"/>
	<path style="&st0;&st1;&st4;&st2;&st3;" d="M15.231,51.492h11.048"/>
	<path style="&st0;&st1;&st4;&st2;&st3;" d="M14.381,53.758v-1.417"/>
	<path style="&st0;&st1;&st4;&st2;&st3;" d="M31.491,53.758v-1.417"/>
	<path style="&st0;&st1;&st4;&st2;&st3;" d="M27.129,52.341v1.417"/>
	<path style="&st0;&st1;&st4;&st2;&st3;" d="M58.857,53.758v-1.417"/>
	<path style="&st0;&st1;&st4;&st2;&st3;" d="M71.604,52.341v1.417"/>
	<path style="&st0;&st1;&st4;&st2;&st3;" d="M15.797,50.358h54.391"/>
	<path style="&st0;&st1;&st4;&st2;&st3;" d="M26.137,25.43v24.929"/>
	<path style="&st0;&st1;&st4;&st2;&st3;" d="M59.848,25.43v24.929"/>
	<path style="&st0;&st1;&st4;&st2;&st3;" d="M31.491,59.141h23.06"/>
	<path style="&st0;&st1;&st4;&st2;&st3;" d="M58.857,59.141h16.147"/>
	<path style="&st0;&st1;&st2;&st3;" d="M72.738,64.239c4.694,0,8.499-3.805,8.499-8.498"/>
	<path style="&st0;&st1;&st2;&st3;" d="M4.749,55.741c0,4.693,3.805,8.498,8.499,8.498"/>
	<path style="&st0;&st1;&st2;&st3;" d="M2.435,29.254c1.173,0.104,2.209-0.762,2.314-1.935"/>
	<path style="&st0;&st1;&st2;&st3;" d="M4.749,27.319c0.006-0.066,0.009-0.123,0.009-0.19"/>
	<path style="&st0;&st1;&st2;&st3;" d="M2.758,29.259c-1.17-0.073-2.179,0.816-2.252,1.986"/>
	<path style="&st0;&st1;&st2;&st3;" d="M0.506,31.245c-0.003,0.047-0.004,0.086-0.004,0.133"/>
	<path style="&st0;&st1;&st2;&st3;" d="M0.5,41.293c0,1.173,0.951,2.125,2.125,2.125"/>
	<path style="&st0;&st1;&st2;&st3;" d="M4.749,45.543c0-1.174-0.951-2.125-2.125-2.125"/>
	<path style="&st0;&st1;&st4;&st2;&st3;" d="M8.715,32.37c0.313,0,0.566-0.254,0.566-0.567"/>
	<path style="&st0;&st1;&st4;&st2;&st3;" d="M6.449,33.503c-0.313,0-0.567,0.254-0.567,0.567"/>
	<path style="&st0;&st1;&st4;&st2;&st3;" d="M5.882,38.602c0,0.313,0.254,0.567,0.567,0.567"/>
	<path style="&st0;&st1;&st4;&st2;&st3;" d="M10.415,39.735c0-0.313-0.254-0.566-0.567-0.566"/>
	<path style="&st0;&st1;&st4;&st2;&st3;" d="M9.282,40.869c0-0.313-0.253-0.567-0.566-0.567"/>
	<path style="&st0;&st1;&st4;&st2;&st3;" d="M4.749,39.735c0,0.313,0.254,0.566,0.567,0.566"/>
	<path style="&st0;&st1;&st4;&st2;&st3;" d="M5.316,32.37c-0.313,0-0.567,0.253-0.567,0.566"/>
	<path style="&st0;&st1;&st4;&st2;&st3;" d="M9.848,33.503c0.313,0,0.567-0.253,0.567-0.566"/>
	<path style="&st0;&st1;&st4;&st2;&st3;" d="M10.415,58.574c0,0.313,0.253,0.567,0.566,0.567"/>
	<path style="&st0;&st1;&st4;&st2;&st3;" d="M9.282,59.707c0,0.313,0.254,0.566,0.566,0.566"/>
	<path style="&st0;&st1;&st4;&st2;&st3;" d="M75.004,59.141c0.313,0,0.567-0.254,0.567-0.567"/>
	<path style="&st0;&st1;&st4;&st2;&st3;" d="M76.137,60.273c0.313,0,0.566-0.253,0.566-0.566"/>
	<path style="&st0;&st1;&st4;&st2;&st3;" d="M80.104,34.07c0-0.313-0.254-0.567-0.567-0.567"/>
	<path style="&st0;&st1;&st4;&st2;&st3;" d="M79.537,39.169c0.313,0,0.567-0.254,0.567-0.567"/>
	<path style="&st0;&st1;&st4;&st2;&st3;" d="M81.236,32.937c0-0.313-0.253-0.566-0.566-0.566"/>
	<path style="&st0;&st1;&st4;&st2;&st3;" d="M80.67,40.302c0.313,0,0.566-0.253,0.566-0.566"/>
	<path style="&st0;&st1;&st4;&st2;&st3;" d="M77.271,40.302c-0.313,0-0.567,0.254-0.567,0.567"/>
	<path style="&st0;&st1;&st4;&st2;&st3;" d="M76.704,31.803c0,0.313,0.254,0.567,0.567,0.567"/>
	<path style="&st0;&st1;&st4;&st2;&st3;" d="M75.571,32.937c0,0.313,0.253,0.566,0.566,0.566"/>
	<path style="&st0;&st1;&st4;&st2;&st3;" d="M76.137,39.169c-0.313,0-0.566,0.253-0.566,0.566"/>
	<path style="&st0;&st1;&st2;&st3;" d="M83.361,43.418c-1.174,0-2.125,0.951-2.125,2.125"/>
	<path style="&st0;&st1;&st2;&st3;" d="M83.361,43.418c1.173,0,2.125-0.951,2.125-2.125"/>
	<path style="&st0;&st1;&st2;&st3;" d="M85.486,31.378c0-1.173-0.951-2.125-2.125-2.125"/>
	<path style="&st0;&st1;&st2;&st3;" d="M81.236,27.129c0,1.174,0.951,2.125,2.125,2.125"/>
	<path style="&st0;&st1;&st4;&st2;&st3;" d="M9.848,13.531c-0.313,0-0.566,0.254-0.566,0.566"/>
	<path style="&st0;&st1;&st4;&st2;&st3;" d="M10.981,14.665c-0.313,0-0.566,0.253-0.566,0.567"/>
	<path style="&st0;&st1;&st4;&st2;&st3;" d="M75.571,15.231c0-0.313-0.254-0.567-0.567-0.567"/>
	<path style="&st0;&st1;&st4;&st2;&st3;" d="M76.704,14.098c0-0.313-0.253-0.566-0.566-0.566"/>
	<path style="&st0;&st1;&st4;&st2;&st3;" d="M19.197,15.231c0-0.313-0.253-0.567-0.566-0.567"/>
	<path style="&st0;&st1;&st4;&st2;&st3;" d="M20.33,14.098c0-0.313-0.254-0.566-0.567-0.566"/>
	<path style="&st0;&st1;&st4;&st2;&st3;" d="M66.222,13.531c-0.313,0-0.566,0.254-0.566,0.566"/>
	<path style="&st0;&st1;&st4;&st2;&st3;" d="M67.355,14.665c-0.313,0-0.566,0.253-0.566,0.567"/>
	<path style="&st0;&st1;&st2;&st3;" d="M14.664,9.565c-5.476,0-9.915,4.439-9.915,9.915"/>
	<path style="&st0;&st1;&st2;&st3;" d="M81.236,19.48c0-5.476-4.439-9.915-9.915-9.915"/>
	<path style="&st0;&st1;&st4;&st2;&st3;" d="M58.715,9.565c1.564,0,2.833-1.269,2.833-2.833"/>
	<path style="&st0;&st1;&st4;&st2;&st3;" d="M24.438,6.732c0,1.564,1.269,2.833,2.833,2.833"/>
	<path style="&st0;&st1;&st4;&st2;&st3;" d="M24.438,1.917c0-0.782-0.634-1.417-1.417-1.417"/>
	<path style="&st0;&st1;&st4;&st2;&st3;" d="M62.964,0.5c-0.782,0-1.417,0.634-1.417,1.417"/>
	<path style="&st0;&st1;&st2;&st3;" d="M18.857,0.5c-2.347,0-4.25,1.903-4.25,4.25"/>
	<path style="&st0;&st1;&st2;&st3;" d="M71.378,4.75c0-2.347-1.902-4.25-4.249-4.25"/>
	<path style="&st0;&st1;&st4;&st2;&st3;" d="M23.729,13.814c0-2.347-1.903-4.249-4.25-4.249"/>
	<path style="&st0;&st1;&st4;&st2;&st3;" d="M66.505,9.565c-2.347,0-4.249,1.902-4.249,4.249"/>
	<path style="&st0;&st1;&st4;&st2;&st3;" d="M27.271,32.086c0,1.643,1.332,2.975,2.975,2.975"/>
	<path style="&st0;&st1;&st4;&st2;&st3;" d="M30.245,35.061c1.643,0,2.974-1.332,2.974-2.975"/>
	<path style="&st0;&st1;&st4;&st2;&st3;" d="M52.766,32.086c0,1.643,1.332,2.975,2.975,2.975"/>
	<path style="&st0;&st1;&st4;&st2;&st3;" d="M55.741,35.061c1.643,0,2.975-1.332,2.975-2.975"/>
	<path style="&st0;&st1;&st4;&st2;&st3;" d="M13.248,23.588c0-0.782-0.634-1.416-1.417-1.416"/>
	<path style="&st0;&st1;&st4;&st2;&st3;" d="M11.832,22.172c-0.782,0-1.417,0.634-1.417,1.416"/>
	<path style="&st0;&st1;&st4;&st2;&st3;" d="M10.415,34.636c0,0.782,0.634,1.417,1.417,1.417"/>
	<path style="&st0;&st1;&st4;&st2;&st3;" d="M11.832,36.053c0.782,0,1.417-0.634,1.417-1.417"/>
	<path style="&st0;&st1;&st4;&st2;&st3;" d="M13.248,39.169c0-0.782-0.634-1.417-1.417-1.417"/>
	<path style="&st0;&st1;&st4;&st2;&st3;" d="M11.832,37.752c-0.782,0-1.417,0.634-1.417,1.417"/>
	<path style="&st0;&st1;&st4;&st2;&st3;" d="M10.415,49.084c0,0.782,0.634,1.416,1.417,1.416"/>
	<path style="&st0;&st1;&st4;&st2;&st3;" d="M11.832,50.5c0.782,0,1.417-0.634,1.417-1.416"/>
	<path style="&st0;&st1;&st4;&st2;&st3;" d="M36.052,33.361c-0.938,0-1.7,0.761-1.7,1.7"/>
	<path style="&st0;&st1;&st4;&st2;&st3;" d="M34.353,35.061c0,0.939,0.761,1.7,1.7,1.7"/>
	<path style="&st0;&st1;&st4;&st2;&st3;" d="M49.933,36.761c0.939,0,1.7-0.761,1.7-1.7"/>
	<path style="&st0;&st1;&st4;&st2;&st3;" d="M51.633,35.061c0-0.938-0.761-1.7-1.7-1.7"/>
	<path style="&st0;&st1;&st4;&st2;&st3;" d="M75.571,39.169c0-0.782-0.634-1.417-1.417-1.417"/>
	<path style="&st0;&st1;&st4;&st2;&st3;" d="M74.154,37.752c-0.782,0-1.417,0.634-1.417,1.417"/>
	<path style="&st0;&st1;&st4;&st2;&st3;" d="M72.738,34.636c0,0.782,0.634,1.417,1.417,1.417"/>
	<path style="&st0;&st1;&st4;&st2;&st3;" d="M74.154,36.053c0.782,0,1.417-0.634,1.417-1.417"/>
	<path style="&st0;&st1;&st4;&st2;&st3;" d="M72.738,49.084c0,0.782,0.634,1.416,1.417,1.416"/>
	<path style="&st0;&st1;&st4;&st2;&st3;" d="M74.154,50.5c0.782,0,1.417-0.634,1.417-1.416"/>
	<path style="&st0;&st1;&st4;&st2;&st3;" d="M75.571,23.588c0-0.782-0.634-1.416-1.417-1.416"/>
	<path style="&st0;&st1;&st4;&st2;&st3;" d="M74.154,22.172c-0.782,0-1.417,0.634-1.417,1.416"/>
	<path style="&st0;&st1;&st4;&st2;&st3;" d="M19.197,20.33c-0.782,0-1.417,0.634-1.417,1.417"/>
	<path style="&st0;&st1;&st4;&st2;&st3;" d="M17.78,21.747c0,0.782,0.634,1.417,1.417,1.417"/>
	<path style="&st0;&st1;&st4;&st2;&st3;" d="M23.729,23.163c0.782,0,1.417-0.634,1.417-1.417"/>
	<path style="&st0;&st1;&st4;&st2;&st3;" d="M25.146,21.747c0-0.782-0.634-1.417-1.417-1.417"/>
	<path style="&st0;&st1;&st4;&st2;&st3;" d="M62.256,20.33c-0.782,0-1.417,0.634-1.417,1.417"/>
	<path style="&st0;&st1;&st4;&st2;&st3;" d="M60.84,21.747c0,0.782,0.634,1.417,1.417,1.417"/>
	<path style="&st0;&st1;&st4;&st2;&st3;" d="M66.789,23.163c0.782,0,1.417-0.634,1.417-1.417"/>
	<path style="&st0;&st1;&st4;&st2;&st3;" d="M68.206,21.747c0-0.782-0.634-1.417-1.417-1.417"/>
	<path style="&st0;&st1;&st4;&st2;&st3;" d="M15.231,51.492c-0.47,0-0.85,0.38-0.85,0.85"/>
	<path style="&st0;&st1;&st4;&st2;&st3;" d="M27.129,52.341c0-0.469-0.38-0.85-0.85-0.85"/>
	<path style="&st0;&st1;&st4;&st2;&st3;" d="M32.341,51.492c-0.469,0-0.85,0.38-0.85,0.85"/>
	<path style="&st0;&st1;&st4;&st2;&st3;" d="M54.551,52.341c0-0.469-0.38-0.85-0.85-0.85"/>
	<path style="&st0;&st1;&st4;&st2;&st3;" d="M59.707,51.492c-0.469,0-0.85,0.38-0.85,0.85"/>
	<path style="&st0;&st1;&st4;&st2;&st3;" d="M71.604,52.341c0-0.469-0.38-0.85-0.85-0.85"/>
	<path style="&st0;&st1;&st2;&st3;" d="M67.129,0.5H18.857"/>
	<path style="&st0;&st1;&st2;&st3;" d="M0.5,31.378v9.915"/>
	<path style="&st0;&st1;&st2;&st3;" d="M4.749,45.543v10.198"/>
	<path style="&st0;&st1;&st4;&st2;&st3;" d="M76.137,39.169h3.399"/>
	<path style="&st0;&st1;&st4;&st2;&st3;" d="M76.137,33.503h3.399"/>
	<path style="&st0;&st1;&st4;&st2;&st3;" d="M6.449,33.503h3.399"/>
	<path style="&st0;&st1;&st4;&st2;&st3;" d="M6.449,39.169h3.399"/>
	<path style="&st0;&st1;&st4;&st2;&st3;" d="M5.316,32.37h3.399"/>
	<path style="&st0;&st1;&st4;&st2;&st3;" d="M5.316,40.302h3.399"/>
	<path style="&st0;&st1;&st2;&st3;" d="M4.749,19.48v7.838"/>
	<path style="&st0;&st1;&st4;&st2;&st3;" d="M77.271,32.37h3.399"/>
	<path style="&st0;&st1;&st4;&st2;&st3;" d="M77.271,40.302h3.399"/>
	<path style="&st0;&st1;&st4;&st2;&st3;" d="M62.256,19.197h3.399"/>
	<path style="&st0;&st1;&st4;&st2;&st3;" d="M57.299,20.33h9.49"/>
	<path style="&st0;&st1;&st4;&st2;&st3;" d="M24.438,5.033h37.11"/>
	<path style="&st0;&st1;&st4;&st2;&st3;" d="M19.197,20.33h9.49"/>
	<path style="&st0;&st1;&st4;&st2;&st3;" d="M33.219,20.33h19.547"/>
	<path style="&st0;&st1;&st4;&st2;&st3;" d="M20.33,19.197h3.399"/>
	<path style="&st0;&st1;&st4;&st2;&st3;" d="M33.219,32.086l-1.7-2.688V19.197h22.946v10.201l-1.7,2.688"/>
	<path style="&st0;&st1;&st4;&st2;&st3;" d="M33.219,20.33l-1.7-1.133"/>
	<path style="&st0;&st1;&st4;&st2;&st3;" d="M52.766,20.33l1.7-1.133"/>
	<path style="&st0;&st1;&st4;&st2;&st3;" d="M38.744,5.033V2.2h8.499v2.833"/>
	<path style="&st0;&st1;&st4;&st2;&st3;" d="M38.744,3.616h8.499"/>
	<path style="&st0;&st1;&st4;&st2;&st3;" d="M34.494,5.033v3.399h16.997V5.033"/>
	<path style="&st0;&st1;&st4;&st2;&st3;" d="M13.248,34.636V23.588"/>
	<path style="&st0;&st1;&st4;&st2;&st3;" d="M13.248,39.169v9.915"/>
	<path style="&st0;&st1;&st4;&st2;&st3;" d="M35.911,20.33v2.267h14.165V20.33"/>
	<path style="&st0;&st1;&st4;&st2;&st3;" d="M72.738,39.169v9.915"/>
	<path style="&st0;&st1;&st4;&st2;&st3;" d="M72.738,34.636V23.588"/>
	<path style="&st0;&st1;&st4;&st2;&st3;" d="M19.197,23.163h4.533"/>
	<path style="&st0;&st1;&st4;&st2;&st3;" d="M62.256,23.163h4.533"/>
	<path style="&st0;&st1;&st4;&st2;&st3;" d="M14.381,59.141v-5.383h12.748v5.383"/>
	<path style="&st0;&st1;&st4;&st2;&st3;" d="M31.491,59.141v-5.383h23.06v5.383"/>
	<path style="&st0;&st1;&st4;&st2;&st3;" d="M58.857,59.141v-5.383h12.748v5.383"/>
	<path style="&st0;&st1;&st4;&st2;&st3;" d="M53.701,51.492h-21.36"/>
	<path style="&st0;&st1;&st4;&st2;&st3;" d="M54.551,53.758v-1.417"/>
	<path style="&st0;&st1;&st4;&st2;&st3;" d="M70.755,51.492H59.707"/>
	<path style="&st0;&st1;&st4;&st2;&st3;" d="M15.797,25.43v24.929"/>
	<path style="&st0;&st1;&st4;&st2;&st3;" d="M70.188,50.358V25.43"/>
	<path style="&st0;&st1;&st4;&st2;&st3;" d="M15.797,38.46h54.391"/>
	<path style="&st0;&st1;&st4;&st2;&st3;" d="M15.797,25.43h10.34"/>
	<path style="&st0;&st1;&st4;&st2;&st3;" d="M59.848,25.43h10.34"/>
	<path style="&st0;&st1;&st4;&st2;&st3;" d="M37.271,38.46v11.898"/>
	<path style="&st0;&st1;&st4;&st2;&st3;" d="M48.715,38.46v11.898"/>
	<path style="&st0;&st1;&st4;&st2;&st3;" d="M21.463,59.141l2.833,1.133"/>
	<path style="&st0;&st1;&st4;&st2;&st3;" d="M64.522,59.141l-2.833,1.133"/>
	<g ewd:pinNo="2">
		<text transform="matrix(1 0 0 1 19.252 34.2656)"><tspan x="0" y="0" style="&st6; &st5;">2</tspan></text>
	</g>
	<g ewd:pinNo="7">
		<text transform="matrix(1 0 0 1 19.252 46.7305)"><tspan x="0" y="0" style="&st6; &st5;">7</tspan></text>
	</g>
	<g ewd:pinNo="6">
		<text transform="matrix(1 0 0 1 29.9883 46.7305)"><tspan x="0" y="0" style="&st6; &st5;">6</tspan></text>
	</g>
	<g ewd:pinNo="5">
		<text transform="matrix(1 0 0 1 41.2773 46.7305)"><tspan x="0" y="0" style="&st6; &st5;">5</tspan></text>
	</g>
	<g ewd:pinNo="4">
		<text transform="matrix(1 0 0 1 52.5664 46.7305)"><tspan x="0" y="0" style="&st6; &st5;">4</tspan></text>
	</g>
	<g ewd:pinNo="3">
		<text transform="matrix(1 0 0 1 63.3027 46.7305)"><tspan x="0" y="0" style="&st6; &st5;">3</tspan></text>
	</g>
	<g ewd:pinNo="1">
		<text transform="matrix(1 0 0 1 63.3027 34.2656)"><tspan x="0" y="0" style="&st6; &st5;">1</tspan></text>
	</g>
</g>
<path d="M37.046,9.069v-8.504h99.88v8.504" style="&st0;&st1;&st7;&st2;&st3;"/>
</svg>