﻿<?xml version="1.0"?>
<!-- Generator: Adobe Illustrator 10.0, SVG Export Plug-In . SVG Version: 3.0.0 Build 77)  -->
<!DOCTYPE svg PUBLIC "-//W3C//DTD SVG 1.0//EN" "http://www.w3.org/TR/2001/REC-SVG-20010904/DTD/svg10.dtd"[
	<!ENTITY ns_flows "http://ns.adobe.com/Flows/1.0/">
	<!ENTITY ns_svg "http://www.w3.org/2000/svg">
	<!ENTITY ns_xlink "http://www.w3.org/1999/xlink">
	<!ENTITY st0 "fill:none;">
	<!ENTITY st1 "stroke:#000000;">
	<!ENTITY st2 "stroke-linecap:round;">
	<!ENTITY st3 "stroke-linejoin:round;">
	<!ENTITY st4 "stroke-width:0.6;">
	<!ENTITY st5 "font-size:6px;">
	<!ENTITY st6 "font-family:'Arial';">
	<!ENTITY st7 "stroke-width:1.4;">
	<!ATTLIST svg
		ewd:ver CDATA #IMPLIED
		xmlns:ewd CDATA #FIXED "http://shcl.co.jp/ewd"
		xmlns:a CDATA #FIXED "http://ns.adobe.com/AdobeSVGViewerExtensions/3.0/">
	<!ATTLIST g
		ewd:pinNo CDATA #IMPLIED>
]>
<svg width="86.713" height="73.247" viewBox="0 0 86.713 73.247" style="overflow:visible;enable-background:new 0 0 21.963 34.995" xml:space="preserve" onload="call_execInitLoadProc_svg('connector')" ewd:ver="L2.1.2.7" xmlns="&ns_svg;" xmlns:ewd="http://shcl.co.jp/ewd" xmlns:a="http://ns.adobe.com/AdobeSVGViewerExtensions/3.0/" xmlns:xlink="&ns_xlink;">
<script type="text/javascript" xlink:href="../../../../../system/js/ewd/fig/svgfig.js"/>
<g id="レイヤー_1" transform="translate(0,17.008)">
	<path style="&st0;&st1;&st2;&st3;" d="M0.5,28.829c0,0.783,0.634,1.417,1.416,1.417"/>
	<path style="&st0;&st1;&st2;&st3;" d="M20.046,30.245c0.783,0,1.417-0.634,1.417-1.417"/>
	<path style="&st0;&st1;&st4;&st2;&st3;" d="M7.299,34.495v-4.25"/>
	<path style="&st0;&st1;&st4;&st2;&st3;" d="M14.664,34.495v-4.25"/>
	<path style="&st0;&st1;&st4;&st2;&st3;" d="M17.497,34.495v-4.25"/>
	<path style="&st0;&st1;&st4;&st2;&st3;" d="M3.899,16.081v12.748h14.164V16.081H3.899"/>
	<path style="&st0;&st1;&st4;&st2;&st3;" d="M10.981,16.081v12.748"/>
	<path style="&st0;&st1;&st4;&st2;&st3;" d="M7.299,32.37h7.365"/>
	<path style="&st0;&st1;&st2;&st3;" d="M2.483,30.245v4.25H19.48v-4.25"/>
	<path style="&st0;&st1;&st4;&st2;&st3;" d="M0.5,14.665h1.983"/>
	<path style="&st0;&st1;&st4;&st2;&st3;" d="M19.48,14.665h1.983"/>
	<path style="&st0;&st1;&st2;&st3;" d="M19.48,30.245h0.566"/>
	<path style="&st0;&st1;&st4;&st2;&st3;" d="M2.483,30.245H19.48"/>
	<path style="&st0;&st1;&st2;&st3;" d="M18.063,14.665h1.417V0.5h1.983v28.329"/>
	<path style="&st0;&st1;&st2;&st3;" d="M2.483,30.245H1.916"/>
	<path style="&st0;&st1;&st4;&st2;&st3;" d="M4.466,34.495v-4.25"/>
	<path style="&st0;&st1;&st2;&st3;" d="M3.899,14.665H2.483V0.5H0.5v28.329"/>
	<path style="&st0;&st1;&st2;&st3;" d="M3.899,14.665V2.483h14.164v12.182"/>
	<path style="&st0;&st1;&st4;&st2;&st3;" d="M3.899,5.316h14.164"/>
	<path style="&st0;&st1;&st4;&st2;&st3;" d="M8.149,5.316v2.833h5.666V5.316"/>
	<g ewd:pinNo="2">
		<text transform="matrix(1 0 0 1 12.9834 24.5728)"><tspan x="0" y="0" style="&st6; &st5;">2</tspan></text>
	</g>
	<g ewd:pinNo="1">
		<text transform="matrix(1 0 0 1 5.8154 24.5728)"><tspan x="0" y="0" style="&st6; &st5;">1</tspan></text>
	</g>
</g>
<g id="レイヤー_1" transform="translate(41.804,17.008)">
	<path style="&st0;&st1;&st4;&st2;&st3;" d="M6.166,3.333c-1.564,0-2.833,1.269-2.833,2.833"/>
	<path style="&st0;&st1;&st2;&st3;" d="M0.5,44.41c0,3.129,2.537,5.666,5.666,5.666"/>
	<path style="&st0;&st1;&st2;&st3;" d="M44.409,6.166c0-3.129-2.537-5.666-5.666-5.666"/>
	<path style="&st0;&st1;&st2;&st3;" d="M6.166,0.5C3.037,0.5,0.5,3.037,0.5,6.166"/>
	<path style="&st0;&st1;&st2;&st3;" d="M38.744,50.075c3.129,0,5.666-2.537,5.666-5.666"/>
	<path style="&st0;&st1;&st4;&st2;&st3;" d="M8.999,16.081c1.564,0,2.833-1.269,2.833-2.833"/>
	<path style="&st0;&st1;&st4;&st2;&st3;" d="M31.662,35.911V21.747h-19.83v14.165H31.662"/>
	<path style="&st0;&st1;&st4;&st2;&st3;" d="M21.747,35.911V21.747"/>
	<path style="&st0;&st1;&st4;&st2;&st3;" d="M3.333,6.166v4.25h5.666V3.333H6.166"/>
	<path style="&st0;&st1;&st2;&st3;" d="M38.744,50.075v5.666H6.166v-5.666"/>
	<path style="&st0;&st1;&st4;&st2;&st3;" d="M28.12,55.741v-2.833H16.789v2.833"/>
	<path style="&st0;&st1;&st2;&st3;" d="M38.744,0.5H6.166"/>
	<path style="&st0;&st1;&st4;&st2;&st3;" d="M38.744,44.41h-4.25V23.163h4.25"/>
	<path style="&st0;&st1;&st4;&st2;&st3;" d="M38.744,50.075H6.166"/>
	<path style="&st0;&st1;&st4;&st2;&st3;" d="M4.749,44.41h4.25V23.163h-4.25"/>
	<path style="&st0;&st1;&st2;&st3;" d="M44.409,44.41V6.166"/>
	<path style="&st0;&st1;&st4;&st2;&st3;" d="M24.579,4.75v4.25h-5.666V4.75"/>
	<path style="&st0;&st1;&st4;&st2;&st3;" d="M11.832,4.75h26.912v41.077H4.749"/>
	<path style="&st0;&st1;&st4;&st2;&st3;" d="M31.662,4.75v5.666h-19.83"/>
	<path style="&st0;&st1;&st4;&st2;&st3;" d="M11.832,4.75v8.499"/>
	<path style="&st0;&st1;&st2;&st3;" d="M0.5,44.41V6.166"/>
	<path style="&st0;&st1;&st4;&st2;&st3;" d="M8.999,16.081h-4.25v29.745"/>
	<path style="&st0;&st1;&st4;&st2;&st3;" d="M10.415,50.075v5.666"/>
	<path style="&st0;&st1;&st4;&st2;&st3;" d="M34.494,50.075v5.666"/>
	<g ewd:pinNo="1">
		<text transform="matrix(1 0 0 1 25.0654 31.0361)"><tspan x="0" y="0" style="&st6; &st5;">1</tspan></text>
	</g>
	<g ewd:pinNo="2">
		<text transform="matrix(1 0 0 1 15.1504 31.0361)"><tspan x="0" y="0" style="&st6; &st5;">2</tspan></text>
	</g>
</g>
<path d="M10.9815,9.069v-8.504h53.277v8.504" style="&st0;&st1;&st7;&st2;&st3;"/>
</svg>